<?xml version="1.0" encoding="utf-8"?>
<!-- Generator: Adobe Illustrator 16.0.0, SVG Export Plug-In . SVG Version: 6.00 Build 0)  -->
<!DOCTYPE svg PUBLIC "-//W3C//DTD SVG 1.1//EN" "http://www.w3.org/Graphics/SVG/1.1/DTD/svg11.dtd">
<svg version="1.1" id="Layer_1" xmlns="http://www.w3.org/2000/svg" xmlns:xlink="http://www.w3.org/1999/xlink" x="0px" y="0px"
	 width="595.279px" height="841.891px" viewBox="0 0 595.279 841.891" enable-background="new 0 0 595.279 841.891"
	 xml:space="preserve">
<g>
	<path fill="#6D6E70" d="M427.72,401.777c-2.651,2.615-5.824,3.5-9.451,3.5h-7.708V381.09h7.844c3.889,0,7.547,1.174,9.868,4.436
		c1.572,2.197,2.491,5.008,2.491,7.722C430.764,396.062,429.75,399.753,427.72,401.777 M426.514,389.554
		c-1.444-3.497-4.412-5.231-8.146-5.231h-4.278v17.728h4.22c5.489,0,8.918-3.213,8.918-8.799
		C427.228,392.004,426.972,390.732,426.514,389.554"/>
	<polygon fill="#6D6E70" points="433.839,405.277 433.839,381.092 446.872,381.092 446.872,384.322 437.366,384.322 
		437.366,391.445 446.872,391.445 446.872,394.686 437.366,394.686 437.366,402.049 446.872,402.049 446.872,405.277 	"/>
	<path fill="#6D6E70" d="M472.173,405.728c-6.93,0-12.584-5.614-12.584-12.546c0-6.993,5.623-12.555,12.584-12.555
		c7.067,0,12.587,5.594,12.587,12.626C484.759,400.141,479.063,405.728,472.173,405.728 M472.173,383.87
		c-3.76,0-6.729,2.025-8.204,5.456c-0.523,1.213-0.848,2.518-0.848,3.856c0,1.337,0.324,2.68,0.848,3.924
		c1.501,3.398,4.478,5.401,8.204,5.401c3.988,0,7.067-2.294,8.432-5.987c0.4-1.015,0.619-2.125,0.619-3.235
		C481.223,388.15,477.434,383.87,472.173,383.87"/>
	<path fill="#6D6E70" d="M501.919,405.277l-2.676-7.124h-8.7l-2.672,7.124h-3.733l9.188-24.186h3.164l9.188,24.186H501.919z
		 M494.957,385.664h-0.068l-3.104,9.244h6.246L494.957,385.664z"/>
	<polygon fill="#6D6E70" points="519.438,393.144 527.451,405.28 523.3,405.28 517.286,396.062 511.197,405.28 507.083,405.28 
		515.085,393.144 507.083,381.089 511.302,381.089 517.286,390.24 523.33,381.089 527.515,381.089 	"/>
	<path fill="#6D6E70" d="M546.767,405.277l-2.681-7.124H535.4l-2.687,7.124h-3.724l9.178-24.186h3.174l9.192,24.186H546.767z
		 M539.802,385.664h-0.068l-3.105,9.244h6.251L539.802,385.664z"/>
	<path fill="#6D6E70" d="M569.185,387.267c-1.799-2.093-3.955-3.396-6.802-3.396c-5.095,0-8.983,4.209-8.983,9.249
		c0,4.9,3.89,9.39,8.927,9.39c2.548,0,4.965-1.286,6.599-3.211h4.348c-2.291,4.017-6.341,6.431-10.985,6.431
		c-6.892,0-12.42-5.809-12.42-12.642c0-6.933,5.559-12.461,12.457-12.461c2.579,0,5.293,0.859,7.383,2.358
		c1.702,1.215,2.714,2.485,3.729,4.283H569.185z"/>
	<path fill="#6D6E70" d="M591.091,405.277l-2.68-7.124h-8.697l-2.676,7.124h-3.732l9.186-24.186h3.17l9.185,24.186H591.091z
		 M584.128,385.664h-0.07l-3.104,9.244h6.247L584.128,385.664z"/>
	<polygon fill="#6D6E70" points="421.068,437.806 421.068,429.626 413.31,429.626 413.31,437.806 410.556,437.806 410.556,418.986 
		413.31,418.986 413.31,427.102 421.068,427.102 421.068,418.986 423.823,418.986 423.823,437.806 	"/>
	<path fill="#6D6E70" d="M435.455,438.169c-5.391,0-9.803-4.375-9.803-9.77c0-5.437,4.379-9.772,9.803-9.772
		c5.495,0,9.802,4.354,9.802,9.822C445.256,433.825,440.822,438.169,435.455,438.169 M435.455,421.148
		c-2.924,0-5.245,1.575-6.388,4.248c-0.413,0.947-0.665,1.959-0.665,3.004c0,1.048,0.252,2.083,0.665,3.046
		c1.169,2.649,3.488,4.201,6.388,4.201c3.105,0,5.495-1.775,6.564-4.653c0.306-0.786,0.483-1.65,0.483-2.521
		C442.503,424.477,439.552,421.148,435.455,421.148"/>
	<polygon fill="#6D6E70" points="451.37,421.499 451.37,437.806 448.62,437.806 448.62,421.499 445.006,421.499 445.006,418.986 
		454.98,418.986 454.98,421.499 	"/>
	<polygon fill="#6D6E70" points="457.353,437.806 457.353,418.986 467.506,418.986 467.506,421.499 460.103,421.499 
		460.103,427.046 467.506,427.046 467.506,429.568 460.103,429.568 460.103,435.288 467.506,435.288 467.506,437.806 	"/>
	<polygon fill="#6D6E70" points="470.438,437.806 470.438,418.986 473.188,418.986 473.188,435.288 479.725,435.288 
		479.725,437.806 	"/>
	<polygon fill="#6D6E70" points="488.689,432.701 488.689,437.81 486.05,437.81 486.05,432.701 480.955,432.701 480.955,430.056 
		486.05,430.056 486.05,424.932 488.689,424.932 488.689,430.056 493.773,430.056 493.773,432.701 	"/>
	<path fill="#6D6E70" d="M510.219,437.255c-1.261,0.579-2.695,0.914-4.092,0.914c-5.396,0-9.643-4.344-9.643-9.72
		c0-5.397,4.173-9.822,9.619-9.822c3.537,0,6.76,1.992,8.445,5.097h-3.204c-1.404-1.582-2.979-2.574-5.138-2.574
		c-3.974,0-6.975,3.43-6.975,7.301c0,3.824,3.106,7.197,6.994,7.197c3.004,0,5.426-1.906,6.492-4.686h-8.776v-2.512h11.91
		C515.796,432.313,513.794,435.628,510.219,437.255"/>
	<path fill="#6D6E70" d="M529.831,437.804l-2.088-5.533h-6.766l-2.096,5.533h-2.905l7.158-18.82h2.466l7.153,18.82H529.831z
		 M524.409,422.547h-0.055l-2.41,7.205h4.859L524.409,422.547z"/>
	<polygon fill="#6D6E70" points="534.565,437.806 534.565,418.986 537.314,418.986 537.314,435.288 543.854,435.288 
		543.854,437.806 	"/>
	<polygon fill="#6D6E70" points="546.026,437.806 546.026,418.986 556.178,418.986 556.178,421.499 548.771,421.499 
		548.771,427.046 556.178,427.046 556.178,429.568 548.771,429.568 548.771,435.288 556.178,435.288 556.178,437.806 	"/>
	<path fill="#6D6E70" d="M567.769,430.437c-0.563,0.198-1.229,0.351-1.841,0.351l5.264,7.019h-3.423l-6.211-8.723h-0.058v8.723
		h-2.746v-18.82h5.826c1.781,0,3.688,0.279,5.006,1.574c1.204,1.154,1.733,2.828,1.733,4.459
		C571.32,427.555,570.204,429.568,567.769,430.437 M564.4,421.499h-2.899v7.207h1.879c2.451,0,5.199-0.695,5.199-3.688
		C568.578,422.618,566.591,421.499,564.4,421.499"/>
	<path fill="#6D6E70" d="M574.18,418.045l-1.067-1.907l5.674-3.263l1.112,2.071L574.18,418.045z M573.614,418.986h2.755v18.82
		h-2.755V418.986z"/>
	<path fill="#6D6E70" d="M591.917,437.804l-2.085-5.533h-6.766l-2.094,5.533h-2.905l7.166-18.82h2.46l7.151,18.82H591.917z
		 M586.499,422.547h-0.056l-2.411,7.205h4.862L586.499,422.547z"/>
	<path fill="#6D6E70" d="M358.487,468.173v-87.106h-33.713v112.738h73.74v-25.632H358.487z M124.135,406.657v-25.592H90.416v11.987
		H90.01c-6.699-11.17-20.518-15.842-32.9-15.842c-33.924,0-56.675,27.219-56.675,60.117c0,33.515,21.934,60.33,56.675,60.33
		c12.181,0,26.811-4.464,32.9-16.052h0.406v12.199h33.719v-23.25l47.465-63.897H124.135L124.135,406.657z M62.188,466.174
		c-15.846,0-28.027-12.798-28.027-28.441c0-16.043,11.367-29.043,27.822-29.043c16.451,0,28.434,12.19,28.434,28.636
		C90.418,453.586,78.638,466.174,62.188,466.174 M278.87,443.014c0,13.004-5.28,22.957-19.297,22.957
		c-15.224,0-18.079-9.753-18.079-22.547v-62.357H207.78v25.834l-43.9,61.309l45.972,0.027c1.458,4.997,3.903,9.793,8.089,15
		c8.125,9.957,20.716,14.218,33.106,14.218c12.59,0,23.358-3.45,29.249-15.651h0.409v12h31.878V381.065h-33.71v61.948H278.87z"/>
</g>
</svg>
