<?xml version="1.0" encoding="utf-8"?>
<!-- Generator: Adobe Illustrator 16.0.0, SVG Export Plug-In . SVG Version: 6.00 Build 0)  -->
<!DOCTYPE svg PUBLIC "-//W3C//DTD SVG 1.1//EN" "http://www.w3.org/Graphics/SVG/1.1/DTD/svg11.dtd">
<svg version="1.1" id="Layer_1" xmlns="http://www.w3.org/2000/svg" xmlns:xlink="http://www.w3.org/1999/xlink" x="0px" y="0px"
	 width="595.279px" height="841.891px" viewBox="0 0 595.279 841.891" enable-background="new 0 0 595.279 841.891"
	 xml:space="preserve">
<path fill="#6D6E70" d="M168.209,355.297c-20.004-9.502-58.514,27.505-68.016,39.008c-9.502,11.502-23.504,34.507-9.502,54.512
	c14.002,20.006,38.509,6.501,38.509,6.501c-17.503,3.499-24.307-1.409-31.007-9.001c-4.216-4.778-13.354-18.219,4.501-46.01
	c15.727-24.479,52.741-45.949,61.514-42.01c7.579,4.35,3.569,14.086,2,15.003c-4.5,1.499-34.518,23.374-23.505,33.464
	C153.716,416.853,188.213,364.799,168.209,355.297z M150.332,398.496c-5.369-4.479,12.898-16.466,12.898-16.466
	C161.858,384.5,155.701,402.975,150.332,398.496z"/>
<path fill="#6D6E70" d="M234.225,442.711c0,0,2.468-8.857-2.204-11.102c-6.228-2.988-25.379,8.053-26.396,14.729
	c-9.872,5.082-15.254,3.85-16.782,2.104c3.266-1.146,11.216-5.152,9.752-22.32c-9.23,12.812-19.265,14.339-19.265,14.339
	s-5.948-1.051-8.417,1.763c0.732,5.121-16.1,10.609-13.905,4.755c2.196-5.853,7.386-9.64,4.391-14.271
	c-10.07-6.112-31.284,13.713-25.613,20.857c5.671,7.147,16.466-3.294,16.466-3.294s-1.524,8.711,19.394-2.927
	c10.17,13.223,33.979,2.625,33.979,2.625s8.314,12.283,23.103-4.82c7.674,17.45,34.76,9.2,34.76,9.2
	S237.563,456.936,234.225,442.711z M140.514,449.887c-3.934-4.572,12.794-14.662,15.217-12.734
	C158.154,439.079,144.448,454.46,140.514,449.887z M177.171,445.031c0,0,11.034-3.629,16.841-8.855
	C193.351,440.914,184.924,453.898,177.171,445.031z M212.52,449.887c-3.934-4.572,12.794-14.662,15.217-12.734
	C230.16,439.079,216.455,454.46,212.52,449.887z"/>
<path fill="#6D6E70" d="M495.126,442.711c0,0,2.47-8.857-2.204-11.102c-6.227-2.988-25.377,8.053-26.393,14.729
	c-0.043,0.021-0.082,0.039-0.125,0.061c-0.068,0.305-0.115,0.613-0.149,0.922c0.017,0.078,0.047,0.142,0.047,0.229
	c0.009,0.581,0.004,1.155-0.013,1.735c0.021,0.076,0.077,0.13,0.081,0.221c0.021,0.096,0.043,0.194,0.064,0.291
	c0.021,0.07,0.021,0.135,0.026,0.199c0.042-0.018,0.068-0.027,0.068-0.027s8.314,12.283,23.099-4.82
	c7.676,17.45,34.763,9.2,34.763,9.2S498.466,456.936,495.126,442.711z M473.424,449.887c-3.937-4.572,12.791-14.662,15.214-12.734
	C491.061,439.079,477.357,454.46,473.424,449.887z"/>
<ellipse transform="matrix(0.9111 -0.4121 0.4121 0.9111 -136.1834 211.1952)" fill="#6D6E70" cx="421.605" cy="421.365" rx="2.332" ry="4.758"/>
<path fill="#6D6E70" d="M474.981,399.045c-11.8-10.978-40.889,27.992-38.694,42.166c-9.329,7.506-26.893,11.348-27.99,6.957
	c-1.099-4.392,5.214-10.703,5.214-10.703s-2.47-1.646-6.038,1.098c-3.567,2.744-3.475,5.611-6.037,7.684
	c-6.312,4.391-23.052,6.312-18.112,0.275c4.939-6.038,9.605-10.43,9.605-10.43s-4.666-0.549-6.312,0.549
	c-1.646,1.099-6.586,7.41-13.995,11.252c-7.41,3.842-15.761,3.795-8.87-3.49c5.791-6.125-1.01-9.133-4.028-5.565
	s-13.447,12.075-17.289,12.349c-3.842,0.275-7.41-1.098-1.372-8.507c6.037-7.409,0.744-9.19-1.921-6.312
	c-7.136,9.057-19.759,13.721-20.583,7.958c-0.823-5.763,11.636-28.624,11.636-28.624l-5.784,2.816c0,0-18.749,45.018-28.903,38.98
	c-10.154-6.037-13.172-22.229,3.019-16.287c-0.244-2.241-16.683-10.459-16.74,2.565c1.372,14.819,18.935,31.834,32.382,4.94
	c6.312,4.664,16.191,0.549,18.936-1.646c-0.549,5.488,0.823,18.111,23.327,0c1.921,17.014,20.033,2.195,20.033,2.195
	s3.019,13.172,25.796,0c6.587,15.643,33.754-4.391,33.754-4.391s4.939,16.739,30.462,5.213c1.762-0.801,0-3.842,0-3.842
	s-17.563,12.979-25.522-5.035C449.734,433.896,486.781,410.021,474.981,399.045z M442.598,434.445c0,0,18.383-33.113,26.346-30.461
	C476.91,406.637,446.99,431.701,442.598,434.445z"/>
<path fill="#6D6E70" d="M366.582,355.41c-12.075,0.275-32.383,37.871-40.066,58.18c-7.135-2.471-12.624-9.331-14.545-10.429
	c-1.921-1.099-2.744,0.549-2.744,0.549s5.763,15.917,24.698,16.74s44.732,2.47,53.514-18.937
	C396.221,380.109,378.657,355.136,366.582,355.41z M384.146,390.537c-1.372,9.057-17.563,30.188-52.965,23.326
	c0,0,24.974-49.946,35.401-49.946C377.011,363.917,385.518,381.481,384.146,390.537z"/>
<path fill="#6D6E70" d="M1.733,379.161c15.183-1.949,66.676-19.113,107.636-45.641c40.961-26.527,43.301-31.208,70.607-32.378
	c27.307-1.171,48.374,29.257,73.339,29.647c24.965,0.39,70.217-33.019,99.865-33.019c29.646,0,40.182,27.948,58.125,26.777
	s32.27-16.384,54.949-12.874c22.679,3.511,61.69,60.855,126.838,54.225c-12.907,4.198-12.907,4.198-15.604,3.899
	c-82.701-9.36-87.088-51.945-115.47-51.996c-28.384-0.05-28.868,14.546-52.664,12.986c-23.796-1.56-23.819-26.086-53.443-26.526
	c-29.623-0.441-78.41,33.827-100.255,33.882c-21.845,0.056-48.373-29.59-76.46-31.541C151.11,304.653,35.312,392.035,1.733,379.161z
	"/>
<g>
	<path fill="#6D6E70" d="M172.424,489.217h2.358v16.474h-2.358v-7.169h-9.256v7.169h-2.358v-16.474h2.358v7.123h9.256V489.217z"/>
	<path fill="#6D6E70" d="M193.018,488.98c2.546,0,4.665,0.807,6.358,2.418s2.54,3.632,2.54,6.061c0,2.43-0.854,4.441-2.563,6.031
		c-1.709,1.594-3.864,2.389-6.463,2.389c-2.482,0-4.55-0.795-6.205-2.389c-1.654-1.59-2.48-3.586-2.48-5.983
		c0-2.46,0.833-4.497,2.498-6.108C188.367,489.787,190.473,488.98,193.018,488.98z M193.112,491.222
		c-1.884,0-3.434,0.589-4.647,1.769s-1.82,2.685-1.82,4.517c0,1.776,0.609,3.255,1.826,4.434c1.218,1.179,2.741,1.769,4.571,1.769
		c1.838,0,3.372-0.602,4.601-1.804s1.844-2.7,1.844-4.493c0-1.744-0.614-3.213-1.844-4.403
		C196.413,491.816,194.904,491.222,193.112,491.222z"/>
	<path fill="#6D6E70" d="M208.365,489.193h13.761v2.1h-5.743v14.397h-2.37v-14.397h-5.648V489.193z"/>
	<path fill="#6D6E70" d="M230.875,489.217h9.339v2.1h-6.98v5.023h6.745v2.11h-6.745v5.118h7.205v2.098h-9.563V489.217z"/>
	<path fill="#6D6E70" d="M249.47,489.217h2.358v14.328h7.417v2.146h-9.775V489.217z"/>
	<path fill="#6D6E70" d="M286.637,505.69h-5.578v-16.474h4.316c1.36,0,2.421,0.184,3.184,0.549s1.344,0.869,1.745,1.508
		c0.401,0.643,0.602,1.383,0.602,2.225c0,1.619-0.837,2.777-2.512,3.479c1.203,0.229,2.16,0.723,2.871,1.485
		c0.712,0.763,1.068,1.675,1.068,2.735c0,0.842-0.217,1.592-0.648,2.252c-0.432,0.661-1.067,1.199-1.905,1.616
		C288.943,505.482,287.894,505.69,286.637,505.69z M285.446,491.316h-2.028v4.952h1.568c1.257,0,2.151-0.24,2.683-0.72
		c0.529-0.479,0.795-1.101,0.795-1.863C288.465,492.105,287.458,491.316,285.446,491.316z M285.623,498.367h-2.205v5.225h2.323
		c1.29,0,2.165-0.102,2.623-0.301c0.461-0.201,0.83-0.514,1.108-0.938c0.28-0.425,0.419-0.881,0.419-1.368
		c0-0.503-0.147-0.962-0.443-1.38c-0.293-0.416-0.713-0.727-1.255-0.932S286.794,498.367,285.623,498.367z"/>
	<path fill="#6D6E70" d="M309.259,488.98c2.546,0,4.665,0.807,6.357,2.418c1.693,1.611,2.54,3.632,2.54,6.061
		c0,2.43-0.854,4.441-2.563,6.031c-1.708,1.594-3.863,2.389-6.463,2.389c-2.482,0-4.551-0.795-6.204-2.389
		c-1.654-1.59-2.481-3.586-2.481-5.983c0-2.46,0.833-4.497,2.498-6.108C304.609,489.787,306.714,488.98,309.259,488.98z
		 M309.353,491.222c-1.884,0-3.434,0.589-4.646,1.769c-1.214,1.18-1.82,2.685-1.82,4.517c0,1.776,0.608,3.255,1.825,4.434
		c1.218,1.179,2.741,1.769,4.571,1.769c1.839,0,3.371-0.602,4.601-1.804s1.845-2.7,1.845-4.493c0-1.744-0.615-3.213-1.845-4.403
		C312.654,491.816,311.145,491.222,309.353,491.222z"/>
	<path fill="#6D6E70" d="M339.038,489.217h2.371v9.352c0,1.266-0.093,2.221-0.278,2.865c-0.185,0.645-0.411,1.182-0.684,1.609
		c-0.271,0.428-0.603,0.812-0.996,1.15c-1.305,1.124-3.011,1.686-5.117,1.686c-2.146,0-3.868-0.559-5.165-1.674
		c-0.394-0.347-0.726-0.734-0.996-1.162c-0.272-0.428-0.495-0.953-0.673-1.574c-0.176-0.621-0.265-1.596-0.265-2.924v-9.328h2.37
		v9.352c0,1.549,0.177,2.625,0.53,3.23s0.892,1.092,1.615,1.456c0.724,0.366,1.576,0.549,2.559,0.549c1.399,0,2.54-0.366,3.42-1.097
		c0.464-0.394,0.798-0.856,1.002-1.392c0.205-0.534,0.307-1.45,0.307-2.747V489.217z"/>
	<path fill="#6D6E70" d="M349.793,489.193h13.761v2.1h-5.742v14.397h-2.37v-14.397h-5.648V489.193z"/>
	<path fill="#6D6E70" d="M372.327,489.217h2.358v16.474h-2.358V489.217z"/>
	<path fill="#6D6E70" d="M401.464,506.729l-2.368,2.299c-0.738-0.039-1.511-0.17-2.315-0.396c-0.806-0.224-1.622-0.532-2.452-0.925
		c-0.828-0.394-1.934-1.066-3.316-2.017c-2.004-0.361-3.655-1.313-4.956-2.854c-1.3-1.539-1.949-3.316-1.949-5.329
		c0-2.46,0.836-4.497,2.509-6.108c1.674-1.611,3.791-2.418,6.352-2.418c2.546,0,4.661,0.801,6.347,2.4
		c1.685,1.6,2.527,3.609,2.527,6.031c0,2.036-0.637,3.825-1.909,5.365c-1.272,1.541-2.919,2.512-4.938,2.913l0.624,0.235
		c1.941,0.748,3.339,1.121,4.195,1.121C400.285,507.047,400.836,506.94,401.464,506.729z M392.967,491.222
		c-1.854,0-3.384,0.597-4.595,1.792c-1.209,1.195-1.813,2.701-1.813,4.517c0,1.769,0.609,3.241,1.826,4.417
		c1.218,1.174,2.745,1.762,4.582,1.762c1.815,0,3.343-0.602,4.584-1.804c1.24-1.202,1.861-2.685,1.861-4.446
		c0-1.799-0.609-3.289-1.826-4.469C396.368,491.811,394.829,491.222,392.967,491.222z"/>
	<path fill="#6D6E70" d="M422.725,489.217h2.37v9.352c0,1.266-0.093,2.221-0.277,2.865s-0.412,1.182-0.685,1.609
		c-0.27,0.428-0.603,0.812-0.996,1.15c-1.304,1.124-3.011,1.686-5.117,1.686c-2.146,0-3.868-0.559-5.165-1.674
		c-0.394-0.347-0.726-0.734-0.996-1.162c-0.271-0.428-0.495-0.953-0.673-1.574c-0.176-0.621-0.265-1.596-0.265-2.924v-9.328h2.37
		v9.352c0,1.549,0.177,2.625,0.53,3.23s0.893,1.092,1.616,1.456c0.724,0.366,1.575,0.549,2.559,0.549
		c1.398,0,2.539-0.366,3.419-1.097c0.465-0.394,0.798-0.856,1.003-1.392c0.205-0.534,0.307-1.45,0.307-2.747V489.217z"/>
	<path fill="#6D6E70" d="M434.881,489.217h9.338v2.1h-6.98v5.023h6.745v2.11h-6.745v5.118h7.206v2.098h-9.563V489.217z"/>
</g>
<rect x="133.193" y="487.959" fill="#6D6E70" width="3.293" height="24.425"/>
<rect x="464.609" y="487.959" fill="#6D6E70" width="3.293" height="24.425"/>
</svg>
