<?xml version="1.0" encoding="utf-8"?>
<!-- Generator: Adobe Illustrator 19.0.0, SVG Export Plug-In . SVG Version: 6.00 Build 0)  -->
<svg version="1.1" id="Layer_1" xmlns="http://www.w3.org/2000/svg" xmlns:xlink="http://www.w3.org/1999/xlink" x="0px" y="0px"
	 viewBox="-90 -0.4 298.3 525.4" style="enable-background:new -90 -0.4 298.3 525.4;" xml:space="preserve">
<style type="text/css">
	.st0{fill:#6D6E70;}
</style>
<g id="XMLID_2314_">
	<g id="XMLID_2345_">
		<path id="XMLID_2360_" class="st0" d="M12,455.3l-7.3-17.6v14c0,1.3,0.1,2.1,0.4,2.4c0.4,0.4,0.9,0.7,1.6,0.7h0.7v0.6H0.8v-0.6
			h0.7c0.8,0,1.3-0.3,1.7-0.8c0.2-0.3,0.3-1.1,0.3-2.3v-13.6c0-1-0.1-1.6-0.3-2c-0.1-0.3-0.4-0.5-0.7-0.7C2,435.1,1.5,435,0.7,435
			v-0.6H6l6.9,16.4l6.7-16.4h5.3v0.6h-0.7c-0.8,0-1.4,0.3-1.7,0.8c-0.2,0.3-0.3,1.1-0.3,2.3v13.6c0,1.3,0.1,2.1,0.4,2.4
			c0.4,0.4,0.9,0.7,1.6,0.7h0.7v0.6H17v-0.6h0.7c0.8,0,1.4-0.3,1.7-0.8c0.2-0.3,0.3-1.1,0.3-2.3v-14l-7.3,17.6L12,455.3L12,455.3z"
			/>
		<path id="XMLID_2357_" class="st0" d="M33.1,435.5v8.2h4.1c1.1,0,1.8-0.1,2.1-0.5c0.5-0.4,0.7-1.3,0.8-2.5h0.5v7.3h-0.5
			c-0.1-1-0.3-1.7-0.4-2c-0.1-0.4-0.4-0.7-0.8-0.9c-0.4-0.2-1-0.3-1.8-0.3h-4.1v6.9c0,1,0.1,1.5,0.1,1.7c0.1,0.2,0.2,0.4,0.4,0.4
			c0.2,0.1,0.5,0.1,1,0.1h3.2c1,0,1.8-0.1,2.3-0.2s1-0.5,1.4-1c0.6-0.7,1.2-1.6,1.8-2.9h0.6l-1.6,5.2H27.7v-0.6h0.7
			c0.4,0,0.9-0.1,1.3-0.4c0.3-0.1,0.5-0.4,0.6-0.7c0.1-0.3,0.1-1,0.1-2v-13.6c0-1.3-0.1-2.1-0.4-2.4c-0.4-0.4-0.9-0.6-1.7-0.6h-0.6
			v-0.6h14.5l0.2,4.6h-0.5c-0.2-1.1-0.4-1.8-0.7-2.3c-0.2-0.4-0.6-0.7-1-1c-0.4-0.1-1-0.2-2-0.2L33.1,435.5L33.1,435.5z M38.9,427.6
			l-4.1,5.3h-0.4l1.5-5.3H38.9z"/>
		<path id="XMLID_2355_" class="st0" d="M57.4,443.7l4.1,6.7c1.1,1.8,1.9,3,2.5,3.5c0.6,0.5,1.3,0.7,2.1,0.8v0.6h-8.1v-0.6
			c0.5,0,1-0.1,1.2-0.2c0.2-0.1,0.4-0.2,0.4-0.4c0.1-0.2,0.2-0.4,0.2-0.6s-0.1-0.4-0.1-0.7c-0.1-0.1-0.3-0.7-0.7-1.3l-3.2-5.4
			l-3.9,5.6c-0.4,0.6-0.7,1-0.7,1.2c-0.1,0.2-0.1,0.4-0.1,0.6c0,0.3,0.1,0.6,0.4,0.8c0.2,0.2,0.7,0.4,1.4,0.4v0.6h-6.6v-0.6
			c0.4-0.1,0.9-0.1,1.3-0.3c0.6-0.3,1.1-0.7,1.6-1.1s1.1-1.2,1.8-2.1l4.4-6.3l-3.7-6c-1-1.6-1.8-2.7-2.6-3.2s-1.5-0.8-2.4-0.8v-0.6
			h8.7v0.6c-0.7,0-1.3,0.1-1.5,0.4c-0.3,0.2-0.4,0.5-0.4,0.8c0,0.4,0.2,1,0.7,1.7l2.9,4.8l3.4-4.6c0.4-0.6,0.6-1,0.7-1.1
			c0.1-0.1,0.1-0.4,0.1-0.7c0-0.2-0.1-0.4-0.1-0.6c-0.1-0.2-0.3-0.4-0.5-0.4c-0.2-0.1-0.7-0.1-1.3-0.1v-0.6h6.7v0.6
			c-0.5,0-1,0.1-1.3,0.3c-0.5,0.2-1,0.6-1.4,1c-0.4,0.4-1,1.1-1.8,2.2L57.4,443.7z"/>
		<path id="XMLID_2353_" class="st0" d="M77.8,454.8v0.6h-8v-0.6h0.7c0.8,0,1.3-0.2,1.7-0.7c0.2-0.3,0.4-1.1,0.4-2.4v-13.5
			c0-1-0.1-1.8-0.1-2.1c-0.1-0.2-0.3-0.4-0.6-0.7c-0.4-0.2-0.8-0.4-1.3-0.4h-0.7v-0.6h8v0.6h-0.7c-0.7,0-1.3,0.2-1.7,0.7
			c-0.2,0.3-0.4,1.1-0.4,2.4v13.5c0,1,0.1,1.8,0.1,2.1c0.1,0.2,0.3,0.4,0.6,0.7c0.4,0.2,0.8,0.4,1.3,0.4H77.8z"/>
		<path id="XMLID_2351_" class="st0" d="M95.6,433.9L96,441h-0.4c-0.6-2.1-1.4-3.7-2.4-4.6c-1-0.9-2.4-1.4-3.8-1.4
			c-1.3,0-2.4,0.4-3.4,1s-1.8,1.8-2.4,3.4s-0.9,3.5-0.9,5.7c0,1.9,0.3,3.5,0.8,4.9c0.5,1.4,1.4,2.4,2.4,3.2c1.1,0.7,2.4,1.1,3.8,1.1
			c1.3,0,2.3-0.3,3.2-0.9c1-0.6,2-1.8,3.1-3.5l0.4,0.3c-1,1.8-2.1,3.2-3.3,4.1c-1.3,0.8-2.7,1.3-4.5,1.3c-3.1,0-5.5-1.3-7.2-3.8
			c-1.3-1.9-1.9-4.2-1.9-6.8c0-2.1,0.4-4,1.3-5.7c0.8-1.8,2-3.1,3.5-4.1c1.5-1,3.1-1.5,4.9-1.5c1.3,0,2.7,0.4,4.1,1.1
			c0.4,0.2,0.7,0.4,0.8,0.4c0.2,0,0.4-0.1,0.7-0.3c0.2-0.3,0.4-0.7,0.5-1.2L95.6,433.9L95.6,433.9z"/>
		<path id="XMLID_2348_" class="st0" d="M110.1,433.9c2.4,0,4.6,1,6.3,3.1c1.8,2.1,2.7,4.6,2.7,7.7c0,3.2-0.9,5.8-2.7,7.9
			c-1.8,2.1-4,3.2-6.6,3.2c-2.6,0-4.8-1-6.6-3.1s-2.7-4.7-2.7-8c0-3.3,1-6,3-8.1C105.5,434.9,107.6,433.9,110.1,433.9z M109.8,435
			c-1.7,0-3,0.7-4.1,2.1c-1.3,1.7-1.9,4.3-1.9,7.6c0,3.4,0.7,6,2,7.9c1,1.4,2.4,2.1,4,2.1c1.8,0,3.2-0.7,4.3-2.3
			c1.2-1.5,1.7-4,1.7-7.2c0-3.6-0.7-6.3-1.9-8C113,435.8,111.6,435,109.8,435z"/>
		<rect id="XMLID_2347_" x="-27.3" y="446.3" class="st0" width="13.6" height="2.7"/>
		<rect id="XMLID_2346_" x="131.9" y="446.3" class="st0" width="13.6" height="2.7"/>
	</g>
	<g id="XMLID_2313_">
		<g>
			<path id="XMLID_97_" class="st0" d="M-16.2,258.9c2.9-3.7,4.4-8.5,4.4-14.2V177c0-5.8-1.5-10.6-4.5-14.4c-3.2-4-7.4-6-13-6h-21.4
				V265h21.5C-23.7,265-19.4,263-16.2,258.9z M-34.1,254.3h-1.8v-87h1.8c2.1,0,3.6,0.3,4.6,0.9c1.8,1.3,2.7,3.5,2.7,6.9v71.5
				c0,3.4-0.9,5.7-2.7,6.9C-30.1,254-31.1,254.3-34.1,254.3z"/>
			<path id="XMLID_94_" class="st0" d="M17.7,155.9c-7.1,0-12.3,1.8-15.4,5.3c-2.7,3.1-4.1,8-4.1,14.7v72c0,6.1,1.7,10.6,5.2,13.6
				c3.6,3.1,8.3,4.7,14.1,4.7c5.7,0,10.5-1.6,14.1-4.8c3.5-3.2,5.2-7.7,5.2-13.7v-72.1c0-6.4-1.5-11.3-4.7-14.7
				C29.1,157.6,24.2,155.9,17.7,155.9z M22.4,249.2c0,1.5-0.4,2.7-1.2,3.7c-0.9,1-2.1,1.5-3.7,1.5c-1.5,0-2.8-0.5-3.7-1.5
				c-0.9-1-1.3-2.2-1.3-3.7v-76.5c0-1.7,0.4-2.9,1.3-3.8s2.1-1.3,3.7-1.3c1.5,0,2.8,0.4,3.6,1.3s1.3,2.1,1.3,3.8L22.4,249.2
				L22.4,249.2z"/>
			<polygon id="XMLID_93_" class="st0" points="104.9,156.7 97,222.7 90.5,156.7 72.9,156.7 64.7,223.1 58.8,156.7 45.6,156.7 
				55.7,265 71.4,265 79.2,188.2 87.4,265 106.2,265 116.7,156.7 			"/>
			<polygon id="XMLID_92_" class="st0" points="169.1,265 169.1,156.7 157.2,156.7 157.2,223.1 143.5,156.7 125.6,156.7 125.6,265 
				137.5,265 137.5,190.3 153.3,265 			"/>
			<polygon id="XMLID_91_" class="st0" points="-13.7,284.5 -49.2,284.5 -49.2,295.4 -38.9,295.4 -38.9,392.8 -24,392.8 -24,295.4 
				-13.7,295.4 			"/>
			<path id="XMLID_88_" class="st0" d="M15.8,283.7c-7.1,0-12.3,1.8-15.4,5.3c-2.7,3.1-4.1,8-4.1,14.7v72c0,6.1,1.7,10.6,5.2,13.6
				c3.6,3.1,8.3,4.7,14.1,4.7c5.7,0,10.5-1.6,14.1-4.8c3.5-3.2,5.2-7.7,5.2-13.7v-72c0-6.4-1.5-11.3-4.7-14.7
				C27.2,285.4,22.3,283.7,15.8,283.7z M20.5,377c0,1.5-0.4,2.7-1.2,3.7c-0.8,1-2.1,1.5-3.7,1.5c-1.5,0-2.8-0.5-3.7-1.5
				c-0.9-1-1.3-2.2-1.3-3.7v-76.5c0-1.7,0.4-2.9,1.3-3.8s2.1-1.3,3.7-1.3s2.8,0.4,3.6,1.3s1.3,2.1,1.3,3.8L20.5,377L20.5,377z"/>
			<polygon id="XMLID_87_" class="st0" points="103,284.5 95.1,350.6 88.6,284.5 71,284.5 62.7,350.9 56.8,284.5 43.7,284.5 
				53.8,392.8 69.5,392.8 77.3,316 85.5,392.8 104.2,392.8 114.7,284.5 			"/>
			<polygon id="XMLID_86_" class="st0" points="167.2,392.8 167.2,284.5 155.3,284.5 155.3,350.9 141.6,284.5 123.7,284.5 
				123.7,392.8 135.6,392.8 135.6,318.1 151.3,392.8 			"/>
		</g>
	</g>
	<path id="XMLID_2309_" class="st0" d="M161.9,69.3c-2.9,0-18.7-1.2-23.1,0s-10.6,2.9-15.1,3.2s-13.8,5.5-16.2,6.4
		s-12.6,1.2-16.4,4.4c-3.8,3.2-6.9,16.9-10,18c-3.2,1-8.7,9.2-11.3,10.3c-2,0.9-1.6-1-0.9-3.2c-2.1,2.2-7.1,8-7.3,12.8
		c-0.3,6,5.2,14.1,3.4,12c-1.9-2.1-5.7-8.8-4.8-14.1c0.9-5.2,9.6-12.8,9.6-12.8l0,0c0.9-2,2.3-4.6,2.7-6.8c-2.1,3.1-5.3,7.7-8.2,8
		c0,0-2.7-2.1,0-5.5s2.9-3.6,5.6-4.8c1-0.4,1.9-0.7,2.7-1c0.7-2.2,3.5-4.5,2.3-5.7c-0.4-0.4-1-0.8-1.6-1.2c-0.5,0.7-1.3,1.4-2.2,2.1
		c-2.7,1.8-2.7,3.2-7.9,6.9s-5.9,0-6.9-1s3.8-5.8,3.8-5.8c-1.4,2.7-3.8,5.8,0,4.6s7.1-4.6,9.8-6.4c0.6-0.4,1.2-0.7,1.7-1
		c-1.5-0.6-3.4-1.2-6.1-1.8c-5.5-1.5-9.1,0-6.7-4.4s2.9-4.9-0.7-2.4c-3.7,2.7-5.1,8.2-1.3,8.8c3.8,0.6,4.4,0.9,0.6,2.4
		c-3.7,1.5-9.3,8-9.6,10.2c-0.3,2.1-0.2,12.1-2,10.9s-8.8-8.2-12-14.1c-0.3-0.6-0.7-1.1-1.1-1.7c1.8,6,0.8,7.8,2.5,11.3
		c1.7,3.5,0.4,3.5-1.7,0c-2.1-3.5-7.3-9.4-10.8-14.3c-3.5-4.9-9.9-9.4-9.9-9.4c-10-4.7-29-12-33.1-13.2s-7.6-1.2-4.7,3.5
		c2.9,4.7,5.5,13.5,13.4,18.7s12.3,9.6,14.1,12c1.8,2.4,8.3,12.3,15.2,16.4c6.9,4.1,15.2,10.8,17.4,12.3c2.1,1.5,54.7,2.7,60.9,0
		c0.8-0.4-2.9-4.1-6.4-4.7c-3.5-0.6,7.3-0.9,8.2-2.7c0.9-1.8,4.9-3.2,6.4-4.9c1.5-1.8,2.9-4.1,5.2-5.2c2.4-1.2,7-4.4,5.8-5.8
		c-1.2-1.5-1.5-3.8-1.5-3.8s3.8,1.5,5.5,1.2c1.8-0.3,3.5-3.5,4.7-4.1c1.2-0.6,5.5-0.6,7-2.7c1.5-2.1,4.9-2.1,5.8-4.1
		c0.9-2.1,3.8-1.5,3.5-3.8s1.2-2.7,3.5-2.9s9.6-1.5,10.2-2.7c0.6-1.2,2.7-3.5,2.9-5.2c0.3-1.8,4.1-0.9,5.2-2.4
		c1.2-1.5,0.9-2.9,1.8-4.1c0.9-1.2,2.1-2.4,2.1-4.4C166,69.6,164.8,69.3,161.9,69.3z M64.9,89.3c1.5,0,2.7,0.5,2.7,1.1
		s-1.3,1.1-2.7,1.1s-2.7-0.5-2.7-1.1C62.1,89.7,63.4,89.3,64.9,89.3z M91.2,92.7c-2.1,3.8-2.8,11.4-10,16.4
		c-7.2,4.9-9.8,10.5-11.3,12.3c0,0-1.5-4.7,4.1-9.1c5.5-4.3,10.5-11.1,11.9-13.7c1.5-2.7,1.8-8.2,5.2-11.7c3.5-3.5,2.9-0.9,5.8-2.7
		C99.9,82.4,93.2,88.9,91.2,92.7z"/>
	<rect id="XMLID_1604_" x="-50.7" y="133.7" class="st0" width="219.7" height="11.1"/>
	<rect id="XMLID_1603_" x="-50.7" y="407.6" class="st0" width="219.7" height="11.1"/>
</g>
</svg>
