<?xml version="1.0" encoding="utf-8"?>
<!-- Generator: Adobe Illustrator 16.0.0, SVG Export Plug-In . SVG Version: 6.00 Build 0)  -->
<!DOCTYPE svg PUBLIC "-//W3C//DTD SVG 1.1//EN" "http://www.w3.org/Graphics/SVG/1.1/DTD/svg11.dtd">
<svg version="1.1" id="Layer_1" xmlns="http://www.w3.org/2000/svg" xmlns:xlink="http://www.w3.org/1999/xlink" x="0px" y="0px"
	 width="595.279px" height="841.891px" viewBox="0 0 595.279 841.891" enable-background="new 0 0 595.279 841.891"
	 xml:space="preserve">
<g>
	<path fill="#6D6E70" d="M518.598,491.396c0.018-0.049-0.407-0.093-1.683-0.113c-5.592,0.595-7.728-5.664-7.728-5.664l-0.057,0.044
		l-20.359-53.074v-0.232h-2.388l-0.119-0.057l-19.295,53.708c-1.146,2.411-3.012,4.888-6.166,4.95
		c-5.27,0.107-13.699-10.631-13.699-10.631l0,0l-9.186-11.642c7.59-5.237,10.865-14.022,7.296-20.585
		c-2.534-4.663-6.993-6.201-12.948-6.601c0,0.013-0.005,0.02-0.005,0.03h-9.626h-6.133v0.013h-5.73v0.661
		c-0.087,0.024-0.096,0.045,0,0.063v0.053h1.614c3.94,0,4.112,2.818,4.116,3.216v40.692c-0.055,1.634-0.477,5.021-3.005,5.055
		c-0.521,0.01-0.899,0.02-1.166,0.035h-0.526v1.061h4.698v0.078h6.132v-0.078h6.845v-1.061h-0.525
		c-0.268-0.015-0.644-0.024-1.166-0.035c-0.339,0.04-0.656,0.049-0.952,0.035h-0.035c-3.592-0.161-4.106-3.611-4.166-5.061V470.72
		h9.812l14.029,17.608c0.011-0.007,0.028-0.007,0.04-0.015c1.033,1.064,4.061,3.77,8.326,4.099v0.044h20.964v-1.061
		c-4.312-0.078-5.037-1.658-3.923-5.647c0.076-0.268,0.119-0.48,0.139-0.663l5.426-16.246h18.468l7.465,20.443
		c0.113,0.655,0.121,1.645-0.758,2.001c-0.104,0.046-0.174,0.077-0.267,0.113h-1.428v1.061h17.673v-1.061L518.598,491.396
		L518.598,491.396z M440.302,456.055c0,8.945-1.947,12.345-12.131,12.345c-2.014-0.006-3.88-0.548-5.535-1.448v-22.394
		c1.414-0.625,3.192-0.887,5.581-0.887C434.908,443.683,440.217,448.074,440.302,456.055z M478.408,465.965l7.863-23.546
		l8.596,23.546H478.408z"/>
	<path fill="#6D6E70" d="M398.686,441.499h-15.551v1.061h0.116c-0.006,0.015-0.012,0.021-0.012,0.034
		c5.717-0.294,5.424,1.941,5.639,3.884v26h-0.003c0,0.025,0.003,0.038,0.003,0.082c0,10.208-4.866,17.657-15.185,17.796
		c-9.579,0-15.188-5.926-15.188-17.176c0-0.121,0.016-0.24,0.016-0.361c-0.001-0.003-0.007-0.01-0.016-0.013v-24.384
		c0,0-0.197-5.782,3.021-5.829c0.505-0.008,0.871-0.02,1.127-0.033h0.508v-1.062h-17.079v1.062c0,0,2.266-0.013,2.553,0h0.027
		c2.873,0.135,3.568,2.554,3.713,4.195v28.002h0.059c0.604,12.177,8.153,18.595,20.717,18.595c12.669,0,20.777-9.038,20.777-20.18
		c0-0.206-0.025-0.41-0.031-0.612h0.031v-26.613c0,0-0.095-3.307,3.121-3.353c0.506-0.009,0.871-0.02,1.129-0.034h0.506
		L398.686,441.499L398.686,441.499z"/>
	<path fill="#6D6E70" d="M184.004,441.499h-15.549v1.061h0.109c0,0.015-0.006,0.021-0.009,0.034
		c5.719-0.294,5.429,1.941,5.641,3.884v26h-0.003c0,0.025,0.003,0.038,0.003,0.082c0,10.208-4.865,17.657-15.188,17.796
		c-9.576,0-15.184-5.926-15.184-17.176c0-0.121,0.015-0.24,0.018-0.361c-0.006-0.003-0.012-0.01-0.018-0.013v-24.384
		c0,0-0.197-5.782,3.022-5.829c0.505-0.008,0.871-0.02,1.125-0.033h0.508v-1.062h-17.081v1.062c0,0,2.266-0.013,2.55,0h0.035
		c2.869,0.135,3.569,2.554,3.708,4.195v28.002h0.061c0.604,12.177,8.155,18.595,20.716,18.595c12.669,0,20.778-9.038,20.778-20.18
		c0-0.206-0.023-0.41-0.029-0.612h0.029v-26.613c0,0-0.098-3.307,3.122-3.353c0.504-0.009,0.871-0.02,1.128-0.034h0.508
		L184.004,441.499L184.004,441.499z"/>
	<path fill="#6D6E70" d="M285.484,441.494h-13.595v1.059c2.89,0.148,2.628,2.273,1.91,3.588c-0.9,1.521-12.604,21.192-12.604,21.192
		l-12.744-21.422c-0.415-0.741-1.467-3.036,1.175-3.358v-1.059h-14.801v1.059h0.51c0.255,0.015,0.621,0.027,1.126,0.032
		c2.413,0.268,4.677,3.104,5.372,4.056l13.682,21.052c0.74,1.42,1.88,3.911,1.88,5.8v12.738c-0.058,1.633-0.478,5.019-3.005,5.053
		c-0.523,0.011-0.899,0.02-1.167,0.035h-0.527v1.06h17.673v-1.061h-0.522c-0.267-0.015-0.643-0.024-1.167-0.035
		c-0.342,0.04-0.655,0.049-0.951,0.035h-0.035c-3.592-0.161-4.108-3.611-4.166-5.061v-12.578c0-4.126,1.073-5.95,1.073-5.95l0,0
		l13.595-20.918c0,0,0.273-0.338,0.702-0.798l0.088-0.003l-0.012-0.084c1.091-1.165,3.154-3.117,5.007-3.341
		c0.464-0.005,0.8-0.019,1.039-0.032h0.464v-1.059H285.484z"/>
	<path fill="#6D6E70" d="M240.563,491.396L240.563,491.396h-1.299c-4.74-0.412-7.213-5.777-7.213-5.777l-18.833-45.901h-1.45v0.069
		l-17.923,45.582l-0.043-0.038c0,0-2.037,5.648-6.736,6.065h-1.535v1.061h15.915v-1.061c-4.038-0.214-3.753-3.212-3.586-4.085
		l4.996-14.01h17.36l6.08,15.574c0.14,0.421,0.528,1.935-0.905,2.52v1.062h15.468v-1.062L240.563,491.396L240.563,491.396z
		 M203.883,470.428l7.261-20.354l7.947,20.354H203.883z"/>
	<path fill="#6D6E70" d="M334.628,480.434c-0.005,0.004-0.018,0.004-0.025,0.004c-0.01,0.032-0.005,0.074-0.015,0.108
		c-0.063,0.265-0.158,0.646-0.269,1.092c-1.414,5.259-4.403,8.136-16.088,7.829c-14.064,0-23.082-14.87-23.082-23.016
		c0-11.896,3.504-23.863,23.082-23.863c6.318,0,12.672,2.214,14.794,6.337c0.778,1.512,0.981,3.292,0.939,5.295
		c0.005-0.004,0.015,0,0.02,0c0.058,0.596,1.213,0.596,1.315-0.433c0.083-0.932,0.345-10.58,0.424-11.228
		c0.082-0.644,0.134-0.685-0.477-0.764c-0.611-0.081-5.537-0.741-5.537-0.741l0.008,0.017c-3.179-0.714-6.822-1.102-11.009-1.102
		c-22.115,0-30.275,13.042-30.275,26.478c0,17.346,13.557,26.483,30.275,26.483c5.44,0,9.918-0.524,13.616-1.474v0.006
		c0,0,0.139-0.024,0.34-0.091c0.067-0.021,0.14-0.037,0.205-0.055c0.002-0.01,0.005-0.021,0.007-0.027
		c0.49-0.213,1.176-0.659,1.466-1.581c0.479-1.516,1.595-7.765,1.647-9.252C336.066,479.472,334.867,479.754,334.628,480.434z"/>
	<path fill="#6D6E70" d="M102.322,462.285v1.057h0.177c-0.002,0.015-0.008,0.021-0.008,0.032c5.718-0.289,6.496,2.743,6.708,4.683
		v16.522c-0.11,1.992-1.051,2.936-1.532,3.29c-1.938,1.204-4.545,1.832-8.047,1.837c-16.609,0.018-29.87-12.015-30.102-27.888
		c0.197-16.884,5.187-27.947,26.191-27.878c13.983,0.284,17.94,4.998,18.659,11.736c0,0.001,0,0.007,0,0.009
		c0.085,0.975,1.381,1.03,1.416-0.812c0.041-2.128,0.357-9.184,0.428-10.885c0.072-1.7-16.237-2.558-16.237-2.558l0.018,0.014
		c-1.869-0.107-3.833-0.168-5.941-0.168c-23.823,0.024-31.353,15.051-31.866,31.007c-0.647,19.988,16.411,31.036,36.618,31.016
		c5.994-0.01,11.186-1.25,15.544-3.418l0.029,0.013l0.139-0.071c0,0,0.082-0.044,0.2-0.119c0.05-0.025,0.108-0.049,0.157-0.074
		c-0.003-0.01-0.003-0.018-0.006-0.025c0.377-0.254,0.92-0.693,0.92-1.133v-19.525c0,0,0-5.479,3.705-5.569
		c0.386-0.009,0.669-0.021,0.909-0.033h0.998v-1.058H102.322L102.322,462.285z"/>
	<path fill="#6D6E70" d="M152.78,544.672c0,7.628-6.182,13.811-13.809,13.811c-7.627,0-13.807-6.183-13.807-13.811
		c0-7.623,6.18-13.81,13.807-13.81C146.598,530.862,152.78,537.049,152.78,544.672z M138.972,532.949
		c-4.401,0-7.97,5.25-7.97,11.723c0,6.475,3.568,11.725,7.97,11.725c4.401,0,7.97-5.25,7.97-11.725
		C146.94,538.199,143.372,532.949,138.972,532.949z"/>
	<path fill="#6D6E70" d="M427.603,544.672c0,7.628-6.186,13.811-13.81,13.811c-7.625,0-13.81-6.183-13.81-13.811
		c0-7.623,6.185-13.81,13.81-13.81S427.603,537.049,427.603,544.672z M413.793,532.949c-4.401,0-7.967,5.25-7.967,11.723
		c0,6.475,3.565,11.725,7.967,11.725s7.967-5.25,7.967-11.725C421.76,538.199,418.194,532.949,413.793,532.949z"/>
	<path fill="#6D6E70" d="M186.83,554.878c-0.853-0.107-3.243-0.424-3.243-2.899v-18.279l0,0c0-0.59,0-1.287,0-1.419
		c0-0.241,0.08-1.091-1.248-0.722c-2.126,0.665-7.792,1.118-7.792,1.118c-0.953,0.08-0.907,0.215-0.907,1.143
		c0,0.771-0.109,0.736,2.048,0.613c2.287-0.182,2.466,2.619,2.471,3.355v0.101c0,0.026,0,0.081,0,0.081l0,0v14.248
		c-1.554,1.726-3.75,2.847-5.006,2.847c-3.731,0-6.005-1.339-6.005-6.905c0-0.051,0.009-0.096,0.014-0.145
		c-0.002,0-0.009-0.005-0.014-0.005v-13.444v-0.867c0-0.59,0-1.287,0-1.42c0-0.24,0.083-1.09-1.246-0.72
		c-2.126,0.664-8.085,1.116-8.085,1.116c-0.946,0.081-0.905,0.216-0.903,1.144c0.004,0.771-0.109,0.735,2.046,0.613
		c2.205-0.198,2.681,1.487,2.765,2.599v12.854h0.038c0.377,6.881,3.78,8.596,9.166,8.596c1.805,0,4.891-1.422,7.231-3.648v0.549
		v0.595v2.118c0,0-0.104,0.748,0.294,0.72c0.396-0.029,0.612-0.134,1.54-0.665c0.932-0.532,4.549-1.701,6.62-1.754
		c1.068-0.057,0.823-0.146,0.823-0.418C187.44,555.703,187.681,554.985,186.83,554.878z"/>
	<path fill="#6D6E70" d="M296.375,554.878c-0.85-0.107-3.244-0.424-3.244-2.899v-18.279l0,0c0-0.59,0-1.287,0-1.419
		c0-0.241,0.084-1.091-1.248-0.722c-2.123,0.665-7.792,1.118-7.792,1.118c-0.948,0.08-0.906,0.215-0.906,1.143
		c0,0.771-0.11,0.736,2.048,0.613c2.29-0.182,2.466,2.619,2.475,3.355v0.101c-0.003,0.026-0.003,0.081-0.003,0.081h0.003v14.248
		c-1.555,1.726-3.754,2.847-5.007,2.847c-3.731,0-6.008-1.339-6.008-6.905c0-0.051,0.011-0.096,0.018-0.145
		c-0.007,0-0.013-0.005-0.018-0.005v-13.444v-0.867c0-0.59,0-1.287,0-1.42c0-0.24,0.086-1.09-1.245-0.72
		c-2.126,0.664-8.082,1.116-8.082,1.116c-0.948,0.081-0.906,0.216-0.902,1.144c0,0.771-0.11,0.735,2.045,0.613
		c2.201-0.198,2.678,1.487,2.762,2.599v12.854h0.039c0.376,6.881,3.783,8.596,9.166,8.596c1.802,0,4.891-1.422,7.233-3.648v0.549
		v0.595v2.118c0,0-0.107,0.748,0.29,0.72c0.396-0.029,0.611-0.134,1.54-0.665c0.934-0.532,4.549-1.701,6.623-1.754
		c1.064-0.057,0.823-0.146,0.823-0.418C296.987,555.703,297.228,554.985,296.375,554.878z"/>
	<path fill="#6D6E70" d="M209.157,554.06c-0.003,0-0.003-0.002-0.005-0.002c-1.001,0.635-1.991,1.007-2.683,1.007
		c-3.305,0-5.3-1.02-5.603-5.493v-14.263h0.372h7.74c1.277,0,1.462-0.13,1.462-1.46c0-1.519-0.267-1.462-1.462-1.462h-7.74v-5.546
		c0-0.997-1.14-0.837-1.353-0.467c-0.214,0.372-1.171,1.436-2.448,2.925c-1.273,1.49-4.96,4.294-5.334,4.55
		c-0.372,0.251-0.299,1.558-0.166,1.46h3.505v14.576h0.038c0.363,6.881,3.646,8.597,8.84,8.597c1.404,0,3.597-0.932,5.584-2.451
		c0.029-0.021,0.061-0.032,0.09-0.054c0.846-0.611,0.128-1.471-0.163-1.854C209.616,553.843,209.307,553.97,209.157,554.06z"/>
	<path fill="#6D6E70" d="M451.137,554.06c0,0,0-0.002-0.006-0.002c-0.998,0.635-1.991,1.007-2.681,1.007
		c-3.308,0-5.304-1.02-5.606-5.493v-14.263h0.372h7.74c1.276,0,1.461-0.13,1.461-1.46c0-1.519-0.265-1.462-1.461-1.462h-7.74v-5.546
		c0-0.997-1.136-0.837-1.351-0.467c-0.212,0.372-1.171,1.436-2.447,2.925c-1.275,1.49-4.962,4.294-5.337,4.55
		c-0.375,0.251-0.299,1.558-0.167,1.46h3.507v14.576h0.038c0.364,6.881,3.645,8.597,8.842,8.597c1.4,0,3.598-0.932,5.583-2.451
		c0.029-0.021,0.06-0.032,0.088-0.054c0.846-0.611,0.126-1.471-0.162-1.854C451.594,553.843,451.291,553.97,451.137,554.06z"/>
	<path fill="#6D6E70" d="M229.586,555.97h-0.049c-0.438-0.004-3.768-0.132-4.145-2.926v-17.149h0.414v-4.665
		c0-0.548-1.141-0.462-1.352-0.256c-0.212,0.205-1.169,0.789-2.446,1.609c-1.277,0.821-4.967,1.553-5.338,1.69
		c-0.372,0.141-0.299,1.673-0.168,1.622h0.191c0.711,0.013,3.272,0.295,3.272,3.644v12.977c0,3.312-3.722,3.452-4.189,3.455h-0.046
		h-0.185v1.701h14.226v-1.701L229.586,555.97L229.586,555.97z"/>
	<path fill="#6D6E70" d="M499.728,555.97h-0.051c-0.436-0.004-3.771-0.132-4.144-2.937V519.1h0.411v-4.665
		c0-0.551-1.137-0.461-1.348-0.258c-0.211,0.206-1.169,0.792-2.445,1.612c-1.277,0.818-4.968,1.551-5.34,1.689
		c-0.37,0.138-0.302,1.673-0.167,1.622h0.191c0.708,0.014,3.272,0.297,3.272,3.642v29.773c0,3.312-3.724,3.45-4.186,3.454h-0.053
		h-0.185v1.702h14.228v-1.702H499.728L499.728,555.97z"/>
	<circle fill="#6D6E70" cx="222.729" cy="520.775" r="2.976"/>
	<path fill="#6D6E70" d="M265.008,571.445h-0.046c-0.447-0.004-3.841-0.137-4.155-3.022v-35.069h-0.006c0-0.697,0-1.428,0.006-1.768
		c0.005-0.744-0.644-1.489-1.815,0c-1.172,1.491-4.282,0.695-4.282,0.695v0.012c-1.834-0.908-3.889-1.43-6.076-1.43
		c-7.624,0-13.809,6.186-13.809,13.81c0,7.627,6.185,13.811,13.809,13.811c2.461,0,4.75-0.679,6.748-1.808v11.415
		c-0.075,3.212-3.719,3.353-4.181,3.356h-0.045h-0.19v1.704h14.228v-1.704h-0.186V571.445z M248.634,556.396
		c-4.398,0.031-7.966-5.25-7.966-11.725c0-6.473,3.568-11.723,7.966-11.723c2.35,0,5.199,1.262,6.748,3.6v16.562
		C253.79,555.122,251.513,556.37,248.634,556.396z"/>
	<path fill="#6D6E70" d="M324.022,541.436c1.203,0,1.271-0.194,1.254-0.912c-0.051-1.61-0.482-2.857-0.915-3.717
		c0.015-0.022,0.021-0.043,0.033-0.066c-0.094-0.147-0.204-0.273-0.301-0.416c-0.35-0.591-0.646-0.912-0.646-0.912l-0.028-0.011
		c-2.28-2.781-5.563-4.538-9.226-4.538c-6.889,0-12.476,6.186-12.476,13.81c0,7.627,5.587,13.811,12.476,13.811
		c4.501,0,8.418-2.412,10.611-6.354c0.121-0.127,0.231-0.277,0.284-0.468c0.187-0.663-0.637-0.877-0.928-1.091
		c-0.207-0.147-0.512,0.126-0.683,0.303c-0.01-0.007-0.02-0.007-0.024-0.013c-2.232,2.905-6.047,3.871-9.263,3.9
		c-3.014,0.032-6.572-3.614-6.572-10.088c0-1.146,0.087-2.253,0.243-3.299C311.406,541.521,322.896,541.436,324.022,541.436z
		 M313.911,532.972c-0.054,0.022,0.021,0.02,0.283-0.022c2.349,0,4.429,1.84,5.74,4.677c0.021,1.035-0.334,1.913-0.867,1.885
		c-0.783-0.04-8.646,0.165-10.885,0.226C309.112,535.867,311.164,533.148,313.911,532.972z"/>
	<path fill="#6D6E70" d="M479.272,541.436c1.198,0,1.268-0.194,1.246-0.912c-0.048-1.61-0.478-2.857-0.911-3.717
		c0.015-0.022,0.023-0.043,0.035-0.066c-0.093-0.147-0.203-0.273-0.303-0.416c-0.351-0.591-0.648-0.912-0.648-0.912l-0.022-0.011
		c-2.281-2.781-5.565-4.538-9.226-4.538c-6.892,0-12.474,6.186-12.474,13.81c0,7.627,5.582,13.811,12.474,13.811
		c4.494,0,8.417-2.412,10.611-6.354c0.121-0.127,0.229-0.277,0.284-0.468c0.18-0.663-0.639-0.877-0.936-1.091
		c-0.201-0.147-0.507,0.126-0.679,0.303c-0.005-0.007-0.017-0.007-0.022-0.013c-2.234,2.905-6.046,3.871-9.259,3.9
		c-3.019,0.032-6.577-3.614-6.577-10.088c0-1.146,0.085-2.253,0.239-3.299C466.651,541.521,478.146,541.436,479.272,541.436z
		 M469.157,532.972c-0.052,0.022,0.018,0.02,0.286-0.022c2.345,0,4.426,1.84,5.736,4.677c0.023,1.035-0.333,1.913-0.864,1.885
		c-0.783-0.04-8.646,0.165-10.891,0.226C464.357,535.867,466.412,533.148,469.157,532.972z"/>
	<path fill="#6D6E70" d="M107.486,595.981c1.201,0,1.264-0.193,1.247-0.914c-0.046-1.61-0.479-2.854-0.911-3.714
		c0.011-0.023,0.023-0.044,0.035-0.066c-0.092-0.147-0.204-0.275-0.302-0.418c-0.352-0.59-0.65-0.91-0.65-0.91l-0.023-0.013
		c-2.283-2.782-5.564-4.536-9.226-4.536c-6.894,0-12.475,6.182-12.475,13.81c0,7.623,5.581,13.81,12.475,13.81
		c4.497,0,8.419-2.413,10.613-6.354c0.122-0.127,0.229-0.276,0.282-0.468c0.182-0.661-0.636-0.874-0.929-1.089
		c-0.206-0.146-0.514,0.125-0.682,0.302c-0.006-0.006-0.018-0.006-0.027-0.016c-2.23,2.908-6.042,3.871-9.257,3.903
		c-3.017,0.031-6.576-3.614-6.576-10.088c0-1.149,0.084-2.25,0.241-3.299C94.866,596.067,106.36,595.981,107.486,595.981z
		 M97.373,587.518c-0.053,0.022,0.018,0.021,0.284-0.022c2.348,0,4.427,1.84,5.738,4.676c0.022,1.036-0.336,1.914-0.865,1.885
		c-0.783-0.038-8.646,0.167-10.891,0.226C92.574,590.41,94.625,587.696,97.373,587.518z"/>
	<path fill="#6D6E70" d="M389.863,552.513c0-0.088-0.007-0.143-0.01-0.214v-30.89c0.003-0.074,0.01-0.129,0.01-0.213
		c0-3.537,6.326-3.457,6.326-3.457l-0.104-0.034v-1.666h-18.632v1.628l-0.239,0.072c0,0,6.327-0.08,6.327,3.457v14.41h-22.756
		v-14.197c0-0.074,0.005-0.129,0.005-0.213c0-3.537,6.332-3.457,6.332-3.457l-0.106-0.034v-1.666h-19.06v1.7h0.187h0.073
		c0.691,0.005,6.256,0.143,6.256,3.457v31.317c0,3.313-5.564,3.452-6.256,3.456h-0.073h-0.187v1.701h19.06v-1.67l0.104-0.031
		c0,0-6.33,0.079-6.33-3.456c0-0.088-0.005-0.143-0.005-0.214v-14.509h22.756v14.723c0,3.535-6.327,3.456-6.327,3.456l0.238,0.07
		v1.631h18.633v-1.67l0.104-0.031C396.189,555.97,389.863,556.048,389.863,552.513z"/>
	<path fill="#6D6E70" d="M118.939,546.194c0-5.115-4.265-9.446-10.153-10.928c4.277-1.699,7.41-5.043,7.41-8.896
		c0-7.088-5.501-10.185-13.635-10.081c-0.186,0-0.363,0.035-0.549,0.048v-0.052h-17.92v1.703l0.206-0.011l-0.02,0.011
		c0,0,6.327-0.083,6.327,3.453v31.071c0,3.314-5.562,3.452-6.256,3.457h-0.07h-0.186v1.7h20.632v-0.017
		C112.61,557.485,118.939,552.424,118.939,546.194z M94.222,517.705h-1.329l1.329-0.043V517.705z M102.653,518.164
		c4.096,0,7.316,3.48,7.316,8.205c0,4.286-2.669,7.377-6.214,7.923H96.92v-13.688c0,0,0.252-2.392,2.919-2.42
		C100.729,518.173,101.654,518.164,102.653,518.164z M90.593,517.779h0.011v0.007L90.593,517.779z M104.324,555.938
		c-6.063,0-7.224-1.828-7.404-5.242v-14.146c1.805-0.056,3.911-0.088,6.354-0.096h0.65l0,0c0.139,0,0.261-0.003,0.4-0.003
		c4.659,0,8.436,4.366,8.436,9.744C112.76,551.574,108.983,555.938,104.324,555.938z"/>
	<path fill="#6D6E70" d="M79.589,600.502c0-5.114-4.264-9.444-10.157-10.928c4.279-1.697,7.413-5.041,7.413-8.893
		c0-7.088-5.5-10.188-13.635-10.082c-0.188,0-0.365,0.036-0.552,0.045v-0.051h-17.92v1.701l0.206-0.005l-0.02,0.005
		c0,0,6.327-0.082,6.327,3.454v31.072c0,3.315-5.561,3.452-6.255,3.455h-0.072h-0.187v1.703h20.636v-0.019
		C73.258,611.795,79.589,606.734,79.589,600.502z M54.869,572.015h-1.326l1.326-0.041V572.015z M63.302,572.476
		c4.093,0,7.317,3.478,7.317,8.206c0,4.284-2.669,7.377-6.215,7.92h-6.838v-13.687c0,0,0.256-2.393,2.921-2.421
		C61.377,572.484,62.305,572.476,63.302,572.476z M51.241,572.087h0.011v0.009L51.241,572.087z M64.974,610.245
		c-6.064,0-7.225-1.823-7.407-5.242v-14.146c1.804-0.055,3.914-0.087,6.356-0.093h0.65v-0.003c0.14,0,0.261,0,0.401,0
		c4.659,0,8.434,4.362,8.434,9.741S69.632,610.245,64.974,610.245z"/>
	<path fill="#6D6E70" d="M165.989,606.784c-0.169-0.096-0.459,0.049-0.673,0.184c-0.018-0.023-0.039-0.044-0.059-0.063
		c-2.24,2.474-5.552,2.633-8.07,2.633c-4.178,0-7.563-4.984-7.563-11.136c0-6.148,2.994-11.139,7.563-11.139
		c0.29,0,0.589,0.027,0.896,0.073c0.003,0,0.003,0,0.005,0c0.14,0.021,0.284,0.064,0.426,0.096c0.551,0.155,1.37,0.517,1.886,1.35
		c0.838,1.357,1.197,3.511,3.075,3.63c1.873,0.123,3.945-0.675,3.09-3.231s-6.287-3.788-9.318-3.77l0.009,0.028
		c-0.178-0.009-0.352-0.028-0.531-0.028c-7.366,0-13.336,6.18-13.336,13.809c0,7.623,5.97,13.81,13.336,13.81
		c3.542,0,6.748-1.45,9.135-3.785c0.033-0.018,0.065-0.029,0.093-0.059c0.145-0.14,0.242-0.241,0.317-0.346
		c0.026-0.023,0.052-0.046,0.079-0.07c-0.006-0.011-0.008-0.016-0.012-0.022c0.104-0.176,0.157-0.377,0.212-0.763
		C166.65,607.295,166.271,606.943,165.989,606.784z"/>
	<path fill="#6D6E70" d="M138.841,608.449c-0.473,0.444-0.917,1.297-2.464,1.012c-1.152-0.214-1.355-1.233-1.383-1.733v-15.946
		c0,0,0.342-3.285-2.53-5.022c-2.867-1.731-7.166-1.213-8.97-0.492c-2.936,0.982-7.275,3.538-7.368,6.082
		c-0.099,2.695,2.109,2.876,3.875,2.231c1.764-0.643,1.503-2.813,1.927-4.352c0.42-1.538,1.961-2.105,1.961-2.105l0.002-0.012
		c0.746-0.333,2.408-0.841,4.12,0.259c1.559,1.22,1.575,1.957,1.563,2.918h-0.004v5.828c0,0-12.261,2.651-14.062,8.715
		c-1.798,6.063,4.517,7.104,6.472,7.009c1.839-0.091,4.787-0.484,7.438-2.903c0.562,0.844,1.555,2.657,4.625,2.713
		c3.412,0.062,5.398-1.987,5.808-2.771C140.262,609.096,139.317,608.009,138.841,608.449z M121.051,604.794
		c0.847-3.459,6.841-5.197,8.518-5.62v8.201c-1.597,1.519-3.265,2.438-4.37,2.495C123.953,609.932,119.865,609.619,121.051,604.794z
		"/>
	<path fill="#6D6E70" d="M203.453,610.274h-0.049c-0.449-0.003-3.96-0.142-4.166-3.185v-0.182c0,0,0.002,0,0.002-0.002
		c0-0.022,0-0.04-0.002-0.064v-12.837H199.2c-0.376-6.882-3.783-8.595-9.168-8.595c-1.885,0-5.564,1.559-8.268,3.965v-15.972h0.418
		v-4.663c0-0.549-1.138-0.463-1.352-0.26c-0.212,0.205-1.169,0.792-2.446,1.613c-1.276,0.818-4.964,1.55-5.335,1.688
		c-0.372,0.144-0.303,1.674-0.168,1.622h0.188c0.711,0.017,3.272,0.298,3.272,3.644v29.772c0,3.315-3.721,3.449-4.186,3.455h-0.046
		h-0.186v1.703h14.222v-1.703h-0.187h-0.046c-0.44-0.003-3.773-0.133-4.148-2.934v-15.156c1.798-2.009,4.668-3.357,6.042-3.357
		c3.731,0,6.007,1.339,6.007,6.903c0,0.054-0.01,0.099-0.017,0.146c0.007,0,0.013,0.003,0.017,0.003v11.08
		c-0.08,2.323-1.812,3.074-2.912,3.315h-0.881v1.703h13.85v-1.703H203.453z M197.82,610.189h0.151l0.035,0.085h-0.174
		C197.82,610.249,197.828,610.215,197.82,610.189z"/>
	<path fill="#6D6E70" d="M262.003,602.224c-0.006,0.003-0.015,0.003-0.024,0.003c-0.005,0.029-0.002,0.062-0.008,0.086
		c-0.052,0.214-0.125,0.513-0.212,0.861c-1.121,4.156-3.475,6.43-12.712,6.187c-11.105,0-18.23-11.745-18.23-18.183
		c0-9.392,2.768-18.85,18.23-18.85c4.996,0,10.011,1.752,11.688,5.007c0.615,1.197,0.774,2.603,0.739,4.183
		c0.005-0.004,0.011,0,0.018,0c0.047,0.472,0.959,0.472,1.039-0.341c0.063-0.736,0.272-8.356,0.336-8.865
		c0.065-0.515,0.105-0.543-0.377-0.61c-0.481-0.062-4.375-0.583-4.375-0.583l0.005,0.012c-2.506-0.562-5.39-0.871-8.691-0.871
		c-17.471,0-23.917,10.307-23.917,20.919c0,13.701,10.705,20.92,23.917,20.92c4.293,0,7.833-0.416,10.751-1.164v0.006
		c0,0,0.11-0.022,0.272-0.07c0.052-0.02,0.109-0.031,0.16-0.046c0.002-0.01,0.002-0.014,0.006-0.022
		c0.389-0.17,0.926-0.52,1.158-1.244c0.377-1.199,1.259-6.137,1.302-7.313C263.14,601.468,262.189,601.69,262.003,602.224z"/>
	<path fill="#6D6E70" d="M335.852,585.379c-2.461,0-4.75,0.68-6.746,1.811v-13.786v-1.597v-3.065c0-0.549-1.14-0.463-1.354-0.26
		c-0.213,0.205-1.171,0.792-2.447,1.612c-1.275,0.819-4.961,1.551-5.334,1.689c-0.371,0.143-0.301,1.673-0.166,1.621h0.209
		c0.797,0.016,3.667,0.298,3.667,3.644v33.46h0.002c0,0.7,0,1.433-0.002,1.768c-0.006,0.744,0.644,1.49,1.816,0
		c1.164-1.486,4.28-0.695,4.28-0.695v-0.012c1.835,0.908,3.888,1.43,6.074,1.43c7.627,0,13.809-6.182,13.809-13.808
		S343.479,585.379,335.852,585.379z M335.852,610.911c-2.351,0-5.198-1.261-6.746-3.596v-16.562c1.591-2.012,3.87-3.264,6.746-3.286
		c4.4-0.035,7.966,5.249,7.966,11.723C343.818,605.662,340.252,610.911,335.852,610.911z"/>
	<path fill="#6D6E70" d="M491.026,570.529v-0.05H470.39v1.702h0.189h0.068c0.698,0.006,6.256,0.143,6.256,3.455v31.07
		c0,3.537-6.324,3.454-6.324,3.454l0.021,0.011l-0.21-0.011v1.704h17.922v-1.132l-3.007-0.094c1.242-0.297,2.447-0.661,0.853-0.672
		c-2.686-0.017-2.938-2.421-2.938-2.421v-12.251h6.356v-0.474c0.126,0.003,0.243,0.022,0.371,0.022
		c7.58,0,13.723-5.455,13.723-12.182C503.669,576.258,498.098,571.017,491.026,570.529z M476.903,610.363v0.01h-0.012
		L476.903,610.363z M479.194,610.446h1.328v0.041L479.194,610.446z M489.946,593.004c-0.127,0-0.243,0-0.371,0v-0.003h-0.545
		c-2.224-0.005-4.148-0.039-5.812-0.092v-16.891c0.527-2.417,2.109-3.693,6.728-3.693c4.372,0,7.921,4.627,7.921,10.339
		C497.867,588.371,494.318,593.004,489.946,593.004z"/>
	<path fill="#6D6E70" d="M549.447,611.148L549.447,611.148h-1.041c-3.808-0.329-5.793-4.637-5.793-4.637l-15.121-36.853h-1.162
		v0.054l-14.391,36.595l-0.034-0.027c0,0-1.639,4.535-5.406,4.868h-1.236V612h12.777v-0.852c-3.243-0.174-3.015-2.581-2.878-3.276
		l4.016-11.248h13.933l4.883,12.504c0.109,0.336,0.431,1.549-0.726,2.021V612h12.417v-0.852H549.447L549.447,611.148z
		 M520.001,594.316l5.829-16.344l6.38,16.344H520.001z"/>
	<path fill="#6D6E70" d="M461.598,570.866c0,0-4.856-1.308-8.921-1.206c-4.063,0.101-9.715,1.589-11.799,6.446
		c-2.077,4.856-1.683,9.512,3.966,13.678c5.65,4.163,12.591,7.337,13.978,11.598c1.389,4.262-1.089,8.959-5.353,9.634
		c-4.262,0.675-9.714-0.318-13.084-9.338c-0.477-1.236-1.885-1.09-1.686-0.098c0.197,0.991,0.595,8.466,0.693,9.436
		c0.1,0.973,3.766,0.675,6.94,1.468c3.173,0.792,13.579,1.626,16.948-6.868c3.371-8.495-1.19-11.864-6.54-15.734
		c-5.354-3.864-12.944-6.397-11.598-12.686c1.343-6.295,6.045-5.425,8.622-5.39c2.58,0.036,6.047,2.81,6.742,7.271
		c0.766,2.114,2.083,0.877,1.788-0.7C461.991,576.799,461.4,572.167,461.598,570.866z"/>
	<path fill="#6D6E70" d="M410.349,589.911c2.052-1.83,6.218-2.054,6.218-2.054v-1.553l-17.593-0.054c0,0-0.238,1.572,0.389,1.664
		c2.273,0.11,4.996,0.274,5.162,2.882c0.165,2.609-5.271,8.714-5.271,8.714s-6.603-7.216-9.266-10.542
		c2.05-1.557,6.822-4.106,7.27-8.214c0.442-4.105-5.271-6.436-6.66-6.715c-1.387-0.276-6.991-0.606-9.433,5.939
		c-2.439,6.549,2.331,10.319,2.331,10.319c-2.719,1.277-10.374,5.271-10.821,11.653c-0.441,6.38,4.886,11.099,11.987,11.045
		c7.103-0.052,12.207-7.05,12.207-7.05s1.329,0.943,4.329,4.205c2.994,3.264,6.104,3.062,8.709,2.845
		c2.607-0.218,4.938-2.726,5.939-3.927c0.997-1.2,0.221-2.514-1.057-1.518c-2.389,1.721-2.997,1.666-5.716,1.332
		c-2.718-0.33-8.322-8.044-8.322-8.044S408.3,591.745,410.349,589.911z M389.654,576.32c6.158-0.11,3.996,9.596-0.945,11.041
		C386.102,585.42,383.257,576.477,389.654,576.32z M380.388,606.227c-5.936-6.214,3.773-13.426,4.553-14.095l10.429,12.04
		C395.368,604.173,387.225,613.721,380.388,606.227z"/>
	<path fill="#6D6E70" d="M316.354,608.953c-0.851-0.103-3.244-0.424-3.244-2.898v-18.278l0,0c0-0.592,0-1.289,0-1.422
		c0-0.241,0.086-1.09-1.244-0.718c-2.129,0.665-7.795,1.115-7.795,1.115c-0.947,0.082-0.901,0.213-0.901,1.147
		c0,0.766-0.111,0.731,2.046,0.606c2.287-0.181,2.465,2.62,2.475,3.357v0.102c0,0.025,0,0.079,0,0.079l0,0v14.249
		c-1.556,1.725-3.755,2.849-5.008,2.849c-3.73,0-6.006-1.343-6.006-6.909c0-0.048,0.004-0.095,0.011-0.144
		c-0.007,0-0.009-0.003-0.011-0.003V588.64v-0.864c0-0.592,0-1.289,0-1.422c0-0.241,0.082-1.09-1.248-0.718
		c-2.126,0.665-8.082,1.114-8.082,1.114c-0.946,0.083-0.906,0.214-0.906,1.148c0,0.766-0.11,0.731,2.048,0.606
		c2.202-0.195,2.678,1.49,2.762,2.601v12.856h0.038c0.38,6.879,3.779,8.594,9.165,8.594c1.804,0,4.891-1.418,7.236-3.646v0.551
		v0.594v2.117c0,0-0.111,0.745,0.289,0.72c0.401-0.025,0.611-0.133,1.543-0.664c0.928-0.534,4.547-1.704,6.621-1.756
		c1.068-0.059,0.824-0.146,0.824-0.416C316.968,609.781,317.204,609.061,316.354,608.953z"/>
	<path fill="#6D6E70" d="M283.613,610.274h-0.049c-0.438-0.003-3.771-0.133-4.145-2.934v-33.938h0.415v-4.663
		c0-0.549-1.137-0.463-1.352-0.26c-0.209,0.205-1.166,0.792-2.442,1.613c-1.276,0.818-4.968,1.55-5.338,1.688
		c-0.371,0.144-0.302,1.674-0.168,1.622h0.192c0.708,0.017,3.272,0.298,3.272,3.644v29.772c0,3.315-3.722,3.452-4.189,3.455h-0.046
		h-0.186v1.703h14.224v-1.703H283.613z"/>
	<g>
		<path fill="#6D6E70" d="M145.746,279.911c3.15,3.15,30.456,0.394,38.258,0c7.805-0.392,13.317-5.596,14.105-13.624
			c0.787-8.028-1.973-19.446,0-22.988c1.967-3.545,7.341-9.452,12.33,0c4.989,9.445,4.973,19.289,9.312,22.045
			c7.096,5.511,42.23,9.844,46.709,9.45c4.479-0.395,6.396-0.787,8.785-3.148c2.387-2.364,13.411-13.385,16.168-14.96
			c2.755-1.578,5.117,0.322,7.086,1.735c1.971,1.413,12.601,12.042,16.929,12.436c4.331,0.395,8.268-2.361,16.141-7.086
			c7.876-4.724,19.292-14.567,21.654-20.471c2.361-5.906-0.789-10.633-3.15-14.569c-2.362-3.937-0.689-16.142,3.985-17.322
			c4.676-1.181,11.76,6.692,14.517,15.355c2.756,8.659,10.236,11.811,16.535,11.416c6.303-0.394,27.561-1.967,38.585-7.874
			c11.019-5.904,15.781-18.053,20.882-23.397c-0.475-0.59-0.943-1.175-1.468-1.799c-7.602-7.328-17.447-11.077-34.77-9.281
			c-17.322,1.798-78.947,10.069-111.323,7.706c-32.376-2.365-75.683-0.395-93.792-1.181c-18.111-0.789-66.145,5.121-75.984,6.692
			c0,0-1.796,23.621-2.077,32.284c-0.079,2.347-0.33,7.336-0.673,13.577C130.5,262.127,143.349,277.514,145.746,279.911z"/>
		<path fill="#6D6E70" d="M209.476,406.363c8.118,1.39,17.42,2.524,23.012,3.188l0,0c0,0-16.806-52.865-19.292-58.772
			C212.737,367.646,211.176,393.543,209.476,406.363z"/>
		<path fill="#6D6E70" d="M191.826,299.989c-1.453-7.084-1.453-7.084-7.822-7.084c-6.37,0-31.96-1.184-37.078-3.15
			c-5.117-1.97-7.087,0.789-10.235-6.299c-2.237-5.03-8.068-12.234-12.808-17.685c-0.892,15.507-1.996,33.455-2.489,40.125
			c-0.844,11.415-2.486,36.22-2.455,42.913c0.035,6.692,3.186,37.795,10.27,44.488c7.087,6.693,12.992,8.663,21.654,9.449
			c8.662,0.789,40.305-0.394,50.27,1.967C201.133,404.712,189.876,313.374,191.826,299.989z"/>
		<path fill="#6D6E70" d="M351.256,268.1c-3.3-0.789-22.048,17.323-31.104,16.536c-9.051-0.787-25.195-14.566-27.949-17.717
			c-2.756-3.149-13.78,15.747-20.476,18.898c-6.689,3.15-35.039,0.394-40.156,1.967c0.394,7.873,1.575,53.15,1.575,58.268
			c0,4.836,8.776,52.492,11.74,64.737c6.904,0.667,14.686,1.621,18.181,3.371c5.513,2.758,11.811,1.575,15.75,1.575
			c3.935,0,69.291-2.753,80.709-4.329c5.728-0.792,11.159-2.176,15.941-3.261C375.467,408.146,352.83,289.359,351.256,268.1z"/>
		<path fill="#6D6E70" d="M448.107,244.48c4.415-15.608,5.884-22.185,1.519-30.272c-5.85,11.766-3.882,11.766-10.971,16.887
			c-7.084,5.118-32.282,14.171-36.217,16.928c-3.939,2.756,7.355,62.992,11.354,90.943c3.999,27.955,9.511,67.717,9.511,67.717
			s4.862,0.835,10.498,2.779c5.744-0.78,11.671-2.806,13.912-7.896c4.328-9.844,4.328-17.717-6.303-48.031
			C433.932,316.525,442.2,265.347,448.107,244.48z"/>
		<path fill="#6D6E70" d="M387.083,322.823l-4.958,0.395c0,0,0.911,64.913,2.009,83.433c1.202-0.09,2.332-0.093,3.344,0.032
			c4.246,0.531,16.368,1.778,25.021,2.532C407.435,391.41,389.116,327.231,387.083,322.823z"/>
	</g>
</g>
</svg>
