<?xml version="1.0" encoding="utf-8"?>
<!-- Generator: Adobe Illustrator 16.0.0, SVG Export Plug-In . SVG Version: 6.00 Build 0)  -->
<!DOCTYPE svg PUBLIC "-//W3C//DTD SVG 1.1//EN" "http://www.w3.org/Graphics/SVG/1.1/DTD/svg11.dtd">
<svg version="1.1" id="Layer_1" xmlns="http://www.w3.org/2000/svg" xmlns:xlink="http://www.w3.org/1999/xlink" x="0px" y="0px"
	 width="135px" height="135px" viewBox="444.5 222.5 135 135" enable-background="new 444.5 222.5 135 135" xml:space="preserve">
<g id="ozZNyh_2_">
	<g id="XMLID_636_">
		<path id="XMLID_656_" fill="#6D6E70" d="M472.11,289.606c0-1.238,0-2.521,0-3.758c0-0.973,0.442-1.592,1.415-1.592
			c1.857,0,3.714-0.044,5.527,0.31c1.99,0.398,2.741,2.21,1.813,3.802c-0.442,0.796-0.088,1.503,0.265,2.21
			c1.238,2.477,0.354,4.599-2.387,5.085c-1.68,0.309-3.449,0.221-5.173,0.221c-0.929,0-1.503-0.619-1.503-1.592
			C472.066,292.7,472.066,291.153,472.11,289.606L472.11,289.606z M476.841,293.895c0.044-0.089,0.088-0.133,0.088-0.222
			c0.133,0,0.265,0,0.398,0c1.017-0.044,1.724-0.751,1.68-1.636c-0.044-0.796-0.619-1.193-1.68-1.238c-0.31,0-0.619,0-0.928,0.045
			c-1.238,0.132-1.901,1.105-1.194,2.166C475.514,293.452,476.31,293.629,476.841,293.895z M476.841,286.466
			c-1.282,0.044-1.857,0.354-1.813,1.106c0,0.751,0.796,1.282,1.813,1.282c0.973-0.045,1.636-0.575,1.592-1.327
			C478.344,286.511,477.636,286.466,476.841,286.466z"/>
		<path id="XMLID_655_" fill="#6D6E70" d="M549.307,290.048c-0.354,0.486-0.751,0.973-1.017,1.503
			c-0.354,0.796-0.574,1.681-0.884,2.477c-0.266,0.618-0.53,1.592-1.371,1.37c-0.531-0.133-1.062-0.84-1.37-1.415
			c-0.398-0.707-0.531-1.547-0.84-2.255c-0.266-0.574-0.664-1.061-0.974-1.591c-0.133,0-0.265,0.044-0.398,0.044
			c-0.132,0.707-0.265,1.37-0.353,2.077c-0.088,0.752,0,1.548-0.133,2.344c-0.045,0.31-0.442,0.796-0.707,0.84
			c-0.266,0.045-0.752-0.309-0.885-0.619c-0.222-0.574-0.354-1.237-0.354-1.856c0-2.344,0.044-4.687,0.132-7.03
			c0-0.31,0.133-0.663,0.266-0.973c0.486-1.061,1.459-1.194,2.167-0.266c0.397,0.531,0.618,1.194,0.84,1.813
			c0.486,1.327,0.885,2.697,1.415,4.023c0.221,0.574,0.796,0.973,1.238,1.459c0.397-0.486,0.972-0.885,1.193-1.415
			c0.619-1.458,1.105-2.962,1.68-4.465c0.222-0.531,0.397-1.149,0.796-1.503c0.31-0.265,0.93-0.398,1.326-0.31
			c0.31,0.089,0.752,0.575,0.752,0.929c0.177,2.564,0.266,5.128,0.354,7.693c0,0.574-0.044,1.149-0.266,1.68
			c-0.132,0.354-0.53,0.575-0.84,0.885c-0.309-0.31-0.796-0.575-0.84-0.974c-0.133-0.84-0.044-1.769-0.133-2.652
			c-0.044-0.574-0.176-1.149-0.31-1.724C549.616,290.137,549.44,290.092,549.307,290.048z"/>
		<path id="XMLID_649_" fill="#6D6E70" d="M531.179,290.048c0,3.14-2.917,6.057-6.057,6.013c-3.271,0-6.146-2.873-6.146-6.057
			s2.83-6.013,5.97-6.013C528.306,283.991,531.179,286.776,531.179,290.048z M526.14,285.848c0.176,0.221,0.31,0.397,0.485,0.53
			c1.637,1.547,1.681,1.725,0.53,3.67c-0.485,0.796-0.441,1.636,0.178,2.343c0.265,0.31,0.84,0.619,1.193,0.575
			s0.84-0.53,0.93-0.929c0.176-1.105,0.353-2.298,0.22-3.404C529.41,286.953,527.775,285.715,526.14,285.848z M522.248,286.732
			c-1.414,0.354-1.989,1.503-1.9,3.67c0.088,1.679,0.618,2.564,1.9,2.741C522.248,291.021,522.248,288.898,522.248,286.732z
			 M524.989,294.911c0.354,0,0.575,0,0.752-0.044c1.238-0.178,1.548-0.84,0.84-1.901c-0.31-0.486-0.707-0.973-1.105-1.415
			c-0.177-0.177-0.486-0.397-0.663-0.354c-1.193,0.442-0.619,1.857-1.326,2.608c-0.044,0.045,0.398,0.707,0.707,0.973
			C524.415,294.911,524.812,294.867,524.989,294.911z M525.388,289.827c0.397-0.575,0.796-0.884,0.84-1.238
			c0.133-0.664-0.398-1.062-0.973-0.973c-0.398,0.088-0.752,0.619-1.105,0.928C524.547,288.898,524.856,289.252,525.388,289.827z"/>
		<path id="XMLID_648_" fill="#6D6E70" d="M456.016,290.313c0,1.282,0,2.564,0,3.846c0,0.929-0.575,1.637-1.415,1.637
			c-0.928,0-1.326-0.619-1.371-1.459c-0.044-0.664-0.044-1.282,0-1.946c0-0.707-0.265-1.193-1.017-1.282
			c-0.707-0.088-1.415-0.221-2.122-0.088c-0.354,0.088-0.841,0.574-0.929,0.929c-0.177,0.795-0.132,1.636-0.221,2.432
			c-0.088,0.707-0.354,1.238-1.194,1.282c-0.84,0.088-1.326-0.266-1.503-1.062c-0.575-3.007-0.531-6.013-0.089-9.02
			c0.089-0.53,0.619-1.149,1.105-1.458c0.575-0.354,1.415,0.176,1.548,0.972c0.088,0.664,0.044,1.282,0.088,1.946
			c0.044,0.928,0.53,1.503,1.503,1.547c0.398,0,0.795,0.044,1.238,0c1.238-0.132,1.636-0.575,1.68-1.813
			c0-0.486-0.088-1.061,0.044-1.503c0.177-0.442,0.53-0.973,0.929-1.062c0.619-0.177,1.326,0.088,1.459,0.884
			c0.132,0.884,0.132,1.769,0.176,2.609c0,0.442-0.044,0.884-0.044,1.326c0,0.442,0,0.884,0,1.326
			C455.927,290.313,455.972,290.313,456.016,290.313z"/>
		<path id="XMLID_645_" fill="#6D6E70" d="M467.556,295.707c-0.221-0.221-0.751-0.574-1.061-1.062
			c-1.149-1.901-3.935-1.901-5.173-0.044c-0.31,0.486-0.796,0.973-1.282,1.105c-0.884,0.221-1.415-0.442-1.149-1.326
			c0.265-0.885,0.663-1.681,0.972-2.564c0.796-2.078,1.548-4.2,2.344-6.278c0.354-0.929,0.973-1.592,2.078-1.415
			c0.398,0.088,0.84,0.265,1.105,0.574c0.354,0.398,0.575,0.929,0.796,1.415c0.972,2.653,1.945,5.305,2.918,8.002
			C469.457,295.265,469.147,295.707,467.556,295.707z M464.019,291.374c0.398-0.619,0.84-0.972,0.795-1.237
			c-0.088-0.398-0.53-0.664-0.84-1.017c-0.265,0.309-0.751,0.619-0.751,0.972C463.179,290.402,463.621,290.755,464.019,291.374z"/>
		<path id="XMLID_642_" fill="#6D6E70" d="M501.822,295.796c-1.282,0-1.68-0.619-1.327-1.592c0.663-1.813,1.371-3.582,2.034-5.395
			c0.398-1.017,0.663-2.078,1.149-3.006c0.31-0.619,0.884-1.194,1.46-1.547c0.795-0.442,1.635-0.044,1.989,0.84
			c1.194,3.007,2.344,5.969,3.449,8.976c0.221,0.574,0.485,1.237-0.398,1.636c-0.884,0.397-1.415-0.044-1.769-0.707
			c-0.618-1.194-1.458-1.812-2.874-1.769c-1.193,0.044-2.033,0.397-2.652,1.503C502.662,295.221,502.087,295.574,501.822,295.796z
			 M506.817,290.092c-0.619-0.442-0.973-0.884-1.327-0.884c-0.265,0-0.751,0.575-0.751,0.884c0,0.265,0.486,0.707,0.84,0.796
			C505.845,290.932,506.199,290.534,506.817,290.092z"/>
		<path id="XMLID_641_" fill="#6D6E70" d="M494.836,284.079c1.458,0.089,2.697,0.045,3.891,0.221
			c0.398,0.044,0.929,0.531,1.061,0.973c0.221,0.663-0.354,1.017-0.929,1.193c-2.343,0.708-2.343,0.708-2.343,3.228
			c0,1.371,0.044,2.697,0.044,4.068c0,0.354-0.044,0.84-0.221,1.061c-0.354,0.398-0.884,0.929-1.282,0.885
			c-0.487-0.044-1.105-0.619-1.238-1.062c-0.221-0.795-0.177-1.68-0.177-2.52c0-1.238,0.088-2.432,0.088-3.669
			c0-1.017-0.398-1.681-1.503-1.769c-0.045,0-0.133-0.045-0.177-0.045c-0.796-0.132-1.636-0.221-1.636-1.282
			c0-0.751,0.664-1.193,1.901-1.237c0.221,0,0.398,0,0.619,0C493.642,284.079,494.349,284.079,494.836,284.079z"/>
		<path id="XMLID_640_" fill="#6D6E70" d="M487.806,289.959c0,1.194,0.044,2.387,0,3.537c0,0.486-0.044,1.105-0.31,1.459
			c-0.265,0.354-0.84,0.664-1.326,0.664c-0.354,0-0.929-0.442-0.973-0.752c-0.708-3.272-0.664-6.543,0-9.815
			c0.088-0.398,0.796-0.884,1.282-0.973c0.663-0.088,1.149,0.531,1.149,1.238c0.044,1.548,0,3.095,0,4.643
			C487.717,289.959,487.762,289.959,487.806,289.959z"/>
		<path id="XMLID_639_" fill="#6D6E70" d="M558.238,290.578c0-1.105,0.044-2.166,0-3.271s-0.442-1.503-1.548-1.636
			c-0.707-0.089-1.769-0.089-1.68-1.017c0.089-0.84,1.149-0.708,1.901-0.708c1.503,0,3.051,0,4.554,0c0.089,0,0.222,0,0.31,0
			c0.664,0.044,1.503,0,1.548,0.796c0.044,0.84-0.84,0.84-1.46,0.884c-1.326,0.088-1.591,0.221-1.68,1.636
			c-0.089,1.503,0.044,3.051,0.044,4.554c0,0.884-0.044,1.769-0.221,2.608c-0.088,0.354-0.53,0.663-0.796,1.017
			c-0.31-0.354-0.84-0.663-0.884-1.061C558.194,293.188,558.282,291.904,558.238,290.578
			C558.282,290.578,558.282,290.578,558.238,290.578z"/>
		<path id="XMLID_638_" fill="#6D6E70" d="M575.039,284.521c-0.177,0.62-0.309,1.282-0.618,1.813
			c-0.531,0.928-1.149,1.769-1.769,2.608c-0.797,1.017-1.194,2.166-1.15,3.493c0.045,0.752,0.045,1.503-0.132,2.21
			c-0.089,0.354-0.531,0.575-0.841,0.885c-0.265-0.266-0.707-0.486-0.751-0.796c-0.177-0.973-0.177-2.034-0.354-3.007
			c-0.133-0.752-0.309-1.547-0.663-2.166c-0.796-1.326-1.724-2.564-2.52-3.935c-0.177-0.31-0.089-0.84-0.089-1.238
			c0.398,0.132,1.017,0.088,1.194,0.354c0.662,0.84,1.193,1.769,1.812,2.697c1.105,1.724,2.078,1.68,3.007-0.088
			c0.354-0.663,0.618-1.371,1.062-1.945c0.353-0.487,0.973-0.752,1.459-1.15C574.774,284.3,574.906,284.389,575.039,284.521z"/>
		<path id="XMLID_637_" fill="#6D6E70" d="M577.295,293.496c0.441,0.619,0.928,0.974,0.884,1.282c-0.044,0.31-0.53,0.841-0.84,0.841
			s-0.929-0.442-0.929-0.708C576.41,294.513,576.853,294.159,577.295,293.496z"/>
	</g>
</g>
</svg>
