<?xml version="1.0" encoding="utf-8"?>
<!-- Generator: Adobe Illustrator 16.0.0, SVG Export Plug-In . SVG Version: 6.00 Build 0)  -->
<!DOCTYPE svg PUBLIC "-//W3C//DTD SVG 1.1//EN" "http://www.w3.org/Graphics/SVG/1.1/DTD/svg11.dtd">
<svg version="1.1" id="Layer_1" xmlns="http://www.w3.org/2000/svg" xmlns:xlink="http://www.w3.org/1999/xlink" x="0px" y="0px"
	 width="595.279px" height="841.891px" viewBox="0 0 595.279 841.891" enable-background="new 0 0 595.279 841.891"
	 xml:space="preserve">
<g>
	<g>
		<g>
			<path fill="#6D6E70" d="M214.137,653.912c-2.681,1.612-6.076,1.914-9.125,0.462c-4.809-2.285-6.826-8.077-4.541-12.883
				c2.309-4.863,8.063-6.928,12.873-4.643c3.051,1.451,4.983,4.283,5.426,7.385c0.405-0.085-4.59,0.763-4.59,0.763
				c-0.179-1.668-1.204-3.213-2.816-3.981c-2.528-1.201-5.49-0.09-6.703,2.465c-1.213,2.554-0.196,5.532,2.33,6.729
				c1.638,0.782,3.452,0.612,4.882-0.293L214.137,653.912z"/>
			<path fill="#6D6E70" d="M235.423,645.081c5.156,1.518,8.033,6.881,6.518,12.036c-1.503,5.1-6.838,8.077-11.991,6.561
				c-5.104-1.509-7.999-6.904-6.498-12.008C224.969,646.514,230.322,643.578,235.423,645.081z M231.248,659.257
				c2.684,0.791,5.476-0.735,6.274-3.44c0.797-2.71-0.718-5.527-3.4-6.319c-2.681-0.786-5.429,0.772-6.228,3.483
				C227.099,655.689,228.567,658.465,231.248,659.257z"/>
			<path fill="#6D6E70" d="M248.831,668.126l3.388-18.587l4.562,0.83l-2.672,14.646l6.689,1.226l-0.716,3.938L248.831,668.126z"/>
			<path fill="#6D6E70" d="M269.078,671.391l1.944-18.792l4.611,0.476l-1.534,14.811l6.765,0.702l-0.415,3.979L269.078,671.391z"/>
			<path fill="#6D6E70" d="M289.485,673.149l0.57-18.897l12.257,0.372l-0.12,4.001l-7.679-0.23l-0.108,3.624l6.744,0.198
				l-0.119,3.92l-6.745-0.202l-0.102,3.346l7.927,0.24l-0.123,4.005L289.485,673.149z"/>
			<path fill="#6D6E70" d="M328.128,668.55c-1.6,2.69-4.446,4.562-7.818,4.731c-5.32,0.264-9.842-3.879-10.105-9.199
				c-0.27-5.372,3.822-9.919,9.14-10.183c3.374-0.166,6.421,1.408,8.277,3.929c0.315-0.258-3.681,2.852-3.681,2.852
				c-0.947-1.385-2.584-2.262-4.366-2.178c-2.797,0.142-4.877,2.526-4.738,5.354c0.142,2.818,2.446,4.957,5.243,4.821
				c1.809-0.091,3.326-1.1,4.161-2.569L328.128,668.55z"/>
			<path fill="#6D6E70" d="M334.112,657.089l-0.542-3.968l14.213-1.933l0.542,3.969l-4.838,0.654l2.01,14.76l-4.537,0.617
				l-2.01-14.759L334.112,657.089z"/>
			<path fill="#6D6E70" d="M355.418,649.714l4.481-0.942l3.893,18.487l-4.481,0.942L355.418,649.714z"/>
			<path fill="#6D6E70" d="M376.661,644.05c5.125-1.617,10.507,1.238,12.119,6.361c1.598,5.075-1.174,10.514-6.301,12.13
				c-5.073,1.598-10.488-1.268-12.086-6.343C368.782,651.071,371.587,645.647,376.661,644.05z M381.096,658.145
				c2.67-0.839,4.138-3.657,3.29-6.353c-0.846-2.691-3.674-4.185-6.341-3.345c-2.67,0.838-4.079,3.665-3.23,6.361
				C375.663,657.504,378.429,658.983,381.096,658.145z"/>
			<path fill="#6D6E70" d="M414.199,648.912l-3.702,1.843l-11.875-6.852l5.096,10.235l-4.123,2.05l-8.424-16.913l3.787-1.885
				l11.701,6.796l-5.035-10.113l4.151-2.074L414.199,648.912z"/>
		</g>
		<g id="LUXURY_4_">
			<path fill="#6D6E70" d="M194.528,589.842l-0.059,0.197c-0.407,1.396-0.829,2.658-1.251,3.742
				c-0.422,1.074-0.872,1.998-1.333,2.743c-0.462,0.754-1.009,1.525-1.617,2.294c-1.001,1.216-2.201,2.183-3.565,2.861
				c-1.354,0.678-2.815,1.022-4.35,1.022h-7.737v-23.394c0-1.832,0.436-3.199,1.291-4.057c0.858-0.857,2.218-1.292,4.037-1.292
				h2.509v-1.366h-21.652v1.366h1.384c3.602,0,5.348,1.754,5.348,5.349v17.998c0,3.628-1.746,5.396-5.348,5.396h-1.431l0.057,1.997
				h35.014v-14.857H194.528z"/>
			<path fill="#6D6E70" d="M232.455,572.594v1.673l0.266,0.01c1.223,0.022,1.817,0.118,2.444,0.26
				c0.617,0.141,1.213,0.386,1.776,0.739c1.97,1.211,2.969,3.559,2.969,6.993l0.316,10.514c0,3.016-0.502,5.825-2.323,7.7
				c-0.926,0.905-2.738,1.63-4.314,2.149c-1.588,0.531-3.32,0.801-5.162,0.801c-1.992,0-3.516-0.302-5.106-1.019
				c-1.494-0.669-2.653-1.631-3.447-2.865c-0.761-1.178-1.194-2.921-1.194-4.773v-15.15c0-1.819,0.443-3.181,1.315-4.048
				c0.872-0.867,2.229-1.301,4.034-1.301h2.733v-1.683h-22.003v1.683h1.534c3.603,0,5.349,1.749,5.349,5.349v15.23
				c0,3.309,1.333,6.052,3.753,7.72c1.308,0.881,2.974,1.574,4.96,2.055c1.897,0.452,5.513,0.717,8.023,0.717
				c3.277,0,6.149-0.453,8.529-1.349c1.15-0.425,2.249-1.131,3.261-2.097c1.782-1.739,2.764-4.595,2.764-8.044v-12.329
				c0-1.386,0.217-2.605,0.641-3.623c0.427-1.009,1.044-1.824,1.833-2.423c0.551-0.391,1.093-0.679,1.609-0.849
				c0.556-0.173,0.955-0.292,1.835-0.357l0.252-0.023v-1.659H232.455z"/>
			<path fill="#6D6E70" d="M299.644,603.018c-1.174,0-2.458-0.419-3.822-1.244c-1.386-0.839-2.74-2.017-4.029-3.506l-9.818-11.518
				l5.363-5.489c2.106-2.154,4.46-3.884,6.988-5.151c0.21-0.104,0.422-0.216,0.631-0.32c1.176-0.613,2.394-1.253,4.025-1.517
				l0.226-0.038v-1.641h-17.153v1.673l0.408,0.01c1.55,0.042,2.403,0.065,3.181,0.608c0.801,0.556,1.188,1.291,1.188,2.253
				c0,0.951-0.568,2.03-1.69,3.194l-4.663,4.75l-5.728-6.664c-0.337-0.438-0.612-0.895-0.817-1.352
				c-0.196-0.438-0.297-0.815-0.297-1.117c0-0.5,0.283-0.886,0.862-1.188c0.629-0.32,1.482-0.485,2.54-0.485h0.671v-1.683H256.99
				v1.683h1.072c3.017,0,5.735,1.4,8.094,4.176l9.771,11.314l-6.016,6.126c-2.213,2.187-4.604,3.893-7.1,5.061
				c-1.067,0.5-2.019,0.877-2.832,1.131c-0.306,0.095-0.589,0.217-0.889,0.349c-0.537,0.241-1.093,0.486-1.861,0.585l-0.24,0.033
				v1.648h19.034v-1.682h-1.176c-1.508,0-2.684-0.301-3.51-0.881c-0.759-0.538-0.884-0.947-0.884-1.984
				c0-0.396,0.066-0.792,0.195-1.159c0.128-0.377,0.352-0.782,0.658-1.188c0.321-0.434,0.737-0.923,1.24-1.442l4.877-4.995
				l6.652,7.86c0.671,0.721,1.013,1.404,1.013,2.027c0,0.527-0.294,0.941-0.893,1.252c-0.648,0.341-1.6,0.51-2.818,0.51h-2.048
				v1.682h21.14v-1.682H299.644z"/>
			<path fill="#6D6E70" d="M386.678,586.359c-1.288,0.494-2.964,0.739-4.98,0.739h-8.454v-12.846h8.588
				c5.872,0,8.605,2.036,8.605,6.39c0,1.475-0.26,2.46-0.934,3.525C388.888,585.143,387.932,585.879,386.678,586.359
				 M401.079,602.679c-1.708,0-3.027-0.303-3.916-0.891c-0.457-0.344-1.061-0.977-1.781-1.871c-0.734-0.909-1.515-1.988-2.323-3.214
				c-0.309-0.453-0.577-0.857-0.81-1.206c-0.234-0.349-0.59-0.877-1.072-1.574l-0.785-1.193l-0.104-0.022
				c-1.207-0.273-2.303-0.58-3.262-0.924c-0.947-0.334-1.9-0.754-2.834-1.244c-0.766-0.4-1.609-0.891-2.521-1.461
				c1.973-0.009,3.49-0.057,4.523-0.132c1.523-0.132,3.08-0.391,4.621-0.772c1.362-0.339,2.451-0.943,3.324-1.424l0.39-0.216
				c2.477-1.447,3.729-3.402,3.729-5.807c0-0.877-0.197-1.771-0.582-2.667c-0.381-0.886-0.904-1.668-1.558-2.319
				c-1.126-1.14-2.664-1.96-4.577-2.44c-1.886-0.471-4.475-0.707-7.695-0.707h-24.021v1.659h1.104c1.817,0,3.172,0.434,4.023,1.281
				c0.848,0.854,1.279,2.206,1.279,4.016v17.832c0,1.8-0.437,3.147-1.294,4.006c-0.853,0.856-2.203,1.291-4.009,1.291h-1.104v2.021
				h19.882v-2.021h-1.168c-1.787,0-3.135-0.443-3.996-1.301c-0.867-0.867-1.301-2.215-1.301-3.996v-8.304h6.465l10.514,15.504
				l0.083,0.117h11.901v-2.021H401.079z"/>
			<path fill="#6D6E70" d="M431.723,572.594v1.668h1.974c1.527,0,2.491,0.208,3.13,0.688c0.634,0.471,0.94,1.216,0.94,2.281
				c0,0.726-0.387,1.338-1.324,2.525l-6.596,8.681l-7.078-9.892c-0.881-1.272-1.186-1.753-1.281-1.938
				c-0.123-0.226-0.185-0.471-0.185-0.734c0-0.523,0.208-0.914,0.634-1.202c0.458-0.306,1.122-0.456,1.966-0.456h2.554v-1.622
				h-20.169v1.668h0.821c1.726,0,3.15,0.297,4.23,0.896c1.086,0.599,2.213,1.696,3.355,3.261l9.111,12.451v6.513
				c0,1.8-0.432,3.147-1.289,4.006c-0.857,0.856-2.208,1.291-4.008,1.291h-2.42v2.021h22.361v-2.021h-2.334
				c-1.79,0-3.133-0.435-3.998-1.301c-0.862-0.867-1.298-2.206-1.298-3.996v-7.003l7.655-10.127c0.695-0.891,1.421-1.711,2.16-2.427
				c0.733-0.717,1.457-1.286,2.133-1.706c0.684-0.415,1.439-0.764,2.246-1.027s1.731-0.452,2.752-0.565l0.242-0.028v-1.904H431.723z
				"/>
			<path fill="#6D6E70" d="M336.089,572.594v1.673l0.267,0.01c1.224,0.022,1.819,0.118,2.444,0.26
				c0.619,0.141,1.213,0.386,1.778,0.739c1.968,1.211,2.966,3.559,2.966,6.993l0.316,10.514c0,3.016-0.502,5.825-2.324,7.7
				c-0.923,0.905-2.736,1.63-4.313,2.149c-1.586,0.531-3.319,0.801-5.162,0.801c-1.991,0-3.514-0.302-5.104-1.019
				c-1.493-0.669-2.652-1.631-3.449-2.865c-0.759-1.178-1.194-2.921-1.194-4.773v-15.15c0-1.819,0.445-3.181,1.315-4.048
				c0.871-0.867,2.23-1.301,4.033-1.301h2.733v-1.683h-22.001v1.683h1.532c3.603,0,5.349,1.749,5.349,5.349v15.23
				c0,3.309,1.334,6.052,3.756,7.72c1.305,0.881,2.971,1.574,4.957,2.055c1.897,0.452,5.514,0.717,8.023,0.717
				c3.28,0,6.15-0.453,8.531-1.349c1.15-0.425,2.248-1.131,3.262-2.097c1.781-1.739,2.762-4.595,2.762-8.044v-12.329
				c0-1.386,0.219-2.605,0.641-3.623c0.427-1.009,1.044-1.824,1.836-2.423c0.551-0.391,1.094-0.679,1.606-0.849
				c0.556-0.173,0.956-0.292,1.835-0.357l0.253-0.023v-1.659H336.089z"/>
		</g>
		<g>
			<path fill="#6D6E70" d="M274.429,519.447v-4.03h14.443v4.03h-4.917v14.994h-4.611v-14.994H274.429z"/>
			<path fill="#6D6E70" d="M307.501,515.417h4.693v19.024h-4.693v-7.398h-5.799v7.398h-4.611v-19.024h4.611v7.507h5.799V515.417z"/>
			<path fill="#6D6E70" d="M321.74,534.441v-19.024h12.345v4.03h-7.733v3.646h6.792v3.949h-6.792v3.369h7.98v4.029H321.74z"/>
		</g>
	</g>
	<g>
		<path fill="#6D6E70" d="M232.964,450.785c-1.735,2.46-4.656,4.053-8.101,4.053c-5.674,0-10.042-4.6-10.042-10.217
			c0-5.674,4.369-10.245,10.042-10.245c3.384,0,6.277,1.536,8.016,3.94l-2.95,2.11c-1.159-1.508-2.955-2.544-5.066-2.544
			c-3.619,0-6.338,3.007-6.338,6.738c0,3.705,2.719,6.716,6.338,6.716c2.14,0,4.024-1.07,5.179-2.69L232.964,450.785z"/>
		<path fill="#6D6E70" d="M250.428,449.716h-7.436l-1.824,4.83h-3.935l7.464-19.934h3.997l7.464,19.934h-3.906L250.428,449.716z
			 M244.236,446.478h4.977l-2.517-7.615L244.236,446.478z"/>
		<path fill="#6D6E70" d="M279.405,434.612h3.186l2.432,19.934h-3.704l-1.536-13.279l-5.207,11.026h-2.95l-5.24-11.026
			l-1.564,13.279h-3.704l2.46-19.934h3.129l6.367,13.482L279.405,434.612z"/>
		<path fill="#6D6E70" d="M292.501,434.612h8.102c4.43,0,6.338,3.209,6.338,6.451c0,3.237-1.908,6.395-6.338,6.395h-4.397v7.088
			h-3.704V434.612z M296.205,437.911v6.249h4.228c1.908,0,2.804-1.621,2.804-3.097c0-1.446-0.839-3.152-2.69-3.152H296.205z"/>
		<path fill="#6D6E70" d="M313.839,434.612h12.328v3.299h-8.652v5.179h7.583v3.266h-7.583v4.893h8.94v3.298h-12.616V434.612z"/>
		<path fill="#6D6E70" d="M350.568,450.785c-1.733,2.46-4.655,4.053-8.101,4.053c-5.674,0-10.042-4.6-10.042-10.217
			c0-5.674,4.368-10.245,10.042-10.245c3.384,0,6.277,1.536,8.016,3.94l-2.949,2.11c-1.16-1.508-2.955-2.544-5.066-2.544
			c-3.619,0-6.338,3.007-6.338,6.738c0,3.705,2.719,6.716,6.338,6.716c2.14,0,4.024-1.07,5.179-2.69L350.568,450.785z"/>
		<path fill="#6D6E70" d="M372.722,434.612v19.934h-3.732v-8.247h-7.987v8.247h-3.676v-19.934h3.676v8.359h7.987v-8.359H372.722z"/>
		<path fill="#6D6E70" d="M381.327,434.612h12.328v3.299h-8.652v5.179h7.582v3.266h-7.582v4.893h8.939v3.298h-12.615V434.612z"/>
	</g>
	<g>
		<g>
			<path fill="#6D6E70" d="M93.929,379.705h10.806c5.9,0,8.449,4.281,8.449,8.602c0,4.322-2.549,8.527-8.449,8.527h-5.867v9.453
				h-4.938V379.705z M98.867,384.102v8.334h5.636c2.545,0,3.742-2.16,3.742-4.129c0-1.927-1.122-4.205-3.591-4.205H98.867z"/>
			<path fill="#6D6E70" d="M137.354,396.912v-17.207h4.938v17.207c0,5.942-4.67,9.762-10.07,9.762
				c-5.401,0-10.109-3.819-10.109-9.762v-17.207h5.014v17.207c0,3.086,2.394,5.092,5.095,5.092
				C134.922,402.004,137.354,399.998,137.354,396.912z"/>
			<path fill="#6D6E70" d="M153.499,379.705h16.438v4.396H158.4v6.906h10.108v4.361H158.4v6.52h11.922v4.398h-16.824V379.705z"/>
			<path fill="#6D6E70" d="M199.583,406.287h-5.942l-6.249-9.453h-2.045v9.453h-4.938v-26.582h10.65
				c5.863,0,8.487,4.281,8.487,8.602c0,3.82-2.045,7.564-6.753,8.334L199.583,406.287z M185.346,384.102v8.334h5.325
				c2.588,0,3.742-2.16,3.742-4.129c0-1.927-1.117-4.205-3.586-4.205H185.346z"/>
			<path fill="#6D6E70" d="M207.16,379.705h19.948v4.512h-7.483v22.07h-4.976v-22.07h-7.488V379.705z"/>
			<path fill="#6D6E70" d="M248.611,399.844h-9.915l-2.432,6.443h-5.245l9.953-26.582h5.325l9.958,26.582h-5.212L248.611,399.844z
				 M240.355,395.521h6.64l-3.36-10.146L240.355,395.521z"/>
			<path fill="#6D6E70" d="M300.19,401.271c-2.314,3.279-6.212,5.402-10.807,5.402c-7.559,0-13.388-6.136-13.388-13.621
				c0-7.562,5.83-13.656,13.388-13.656c4.515,0,8.375,2.045,10.688,5.246l-3.935,2.816c-1.542-2.008-3.935-3.396-6.753-3.396
				c-4.821,0-8.449,4.013-8.449,8.989c0,4.938,3.628,8.951,8.449,8.951c2.856,0,5.363-1.426,6.908-3.588L300.19,401.271z"/>
			<path fill="#6D6E70" d="M323.474,399.844h-9.92l-2.427,6.443h-5.249l9.953-26.582h5.324l9.957,26.582h-5.211L323.474,399.844z
				 M315.213,395.521h6.64l-3.359-10.146L315.213,395.521z"/>
			<path fill="#6D6E70" d="M362.106,379.705h4.246l3.238,26.582h-4.939l-2.04-17.709l-6.946,14.701h-3.936l-6.982-14.701
				l-2.084,17.709h-4.938l3.28-26.582h4.166l8.486,17.978L362.106,379.705z"/>
			<path fill="#6D6E70" d="M379.567,379.705h10.805c5.9,0,8.45,4.281,8.45,8.602c0,4.322-2.55,8.527-8.45,8.527h-5.867v9.453h-4.938
				V379.705z M384.505,384.102v8.334h5.633c2.549,0,3.746-2.16,3.746-4.129c0-1.927-1.121-4.205-3.592-4.205H384.505z"/>
			<path fill="#6D6E70" d="M408.021,379.705h16.438v4.396h-11.536v6.906h10.108v4.361h-10.108v6.52h11.923v4.398h-16.824V379.705z"
				/>
			<path fill="#6D6E70" d="M457.003,401.271c-2.314,3.279-6.211,5.402-10.807,5.402c-7.559,0-13.387-6.136-13.387-13.621
				c0-7.562,5.828-13.656,13.387-13.656c4.515,0,8.375,2.045,10.688,5.246l-3.935,2.816c-1.541-2.008-3.936-3.396-6.754-3.396
				c-4.82,0-8.449,4.013-8.449,8.989c0,4.938,3.629,8.951,8.449,8.951c2.855,0,5.363-1.426,6.909-3.588L457.003,401.271z"/>
			<path fill="#6D6E70" d="M486.536,379.705v26.582h-4.977v-10.996h-10.65v10.996h-4.9v-26.582h4.9v11.148h10.65v-11.148H486.536z"
				/>
			<path fill="#6D6E70" d="M498.011,379.705h16.438v4.396h-11.537v6.906h10.108v4.361h-10.108v6.52h11.924v4.398h-16.824V379.705z"
				/>
		</g>
	</g>
	<g>
		<g>
			<path fill="#6D6E70" d="M214.199,333.881v26.582h-4.977v-10.996h-10.651v10.996h-4.9v-26.582h4.9v11.149h10.651v-11.149H214.199z
				"/>
			<path fill="#6D6E70" d="M239.947,354.02h-9.915l-2.431,6.443h-5.245l9.953-26.582h5.325l9.957,26.582h-5.211L239.947,354.02z
				 M231.691,349.697h6.64l-3.36-10.146L231.691,349.697z"/>
			<path fill="#6D6E70" d="M277.817,355.447c-2.313,3.279-6.211,5.402-10.805,5.402c-7.559,0-13.388-6.135-13.388-13.621
				c0-7.561,5.829-13.656,13.388-13.656c4.514,0,8.374,2.044,10.688,5.246l-3.935,2.816c-1.541-2.008-3.935-3.396-6.753-3.396
				c-4.821,0-8.45,4.014-8.45,8.99c0,4.938,3.629,8.951,8.45,8.951c2.855,0,5.362-1.426,6.908-3.588L277.817,355.447z"/>
			<path fill="#6D6E70" d="M286.822,333.881h4.901v26.582h-4.901V333.881z"/>
			<path fill="#6D6E70" d="M303.189,333.881h16.437v4.396h-11.535v6.906h10.107v4.361h-10.107v6.52h11.922v4.398h-16.823V333.881z"
				/>
			<path fill="#6D6E70" d="M349.776,360.463h-4.514l-10.264-17.479v17.479h-4.901v-26.582h4.59l10.151,17.285v-17.285h4.938V360.463
				z"/>
			<path fill="#6D6E70" d="M361.251,360.463v-26.582h10.383c7.596,0,11.998,5.787,11.998,13.348c0,7.525-4.402,13.234-11.998,13.234
				H361.251z M366.19,355.949h5.443c4.703,0,7.059-3.936,7.059-8.721c0-4.82-2.355-8.836-7.059-8.836h-5.443V355.949z"/>
			<path fill="#6D6E70" d="M407.448,354.02h-9.915l-2.432,6.443h-5.245l9.953-26.582h5.325l9.957,26.582h-5.212L407.448,354.02z
				 M399.192,349.697h6.64l-3.36-10.146L399.192,349.697z"/>
		</g>
	</g>
	<g>
		<rect x="261.988" y="225.177" fill="#6D6E70" width="12.797" height="1.986"/>
		<rect x="334.37" y="225.177" fill="#6D6E70" width="12.799" height="1.986"/>
		<rect x="232.337" y="290.594" fill="#6D6E70" width="27.75" height="1.661"/>
		<rect x="348.681" y="290.594" fill="#6D6E70" width="27.745" height="1.661"/>
		<rect x="276.177" y="290.594" fill="#6D6E70" width="56.416" height="1.661"/>
		<rect x="232.542" y="150.895" fill="#6D6E70" width="143.672" height="1.353"/>
		<polygon fill="#6D6E70" points="374.31,195.727 373.577,186.485 376.207,186.485 376.207,195.727 		"/>
		<path fill="#6D6E70" d="M376.214,163.17H232.57l-0.014,22.488h3.464l-0.778,7.823h0.111c14.97,1.09,26.258,13.588,26.258,28.838
			h13.871c0-15.191,11.715-27.642,26.597-28.81l-0.57-6.986h5.674l-0.464,6.986c14.88,1.183,26.585,13.623,26.585,28.81h14.199
			c0-15.104,11.171-27.512,25.942-28.805h0.05l-0.646-7.543h3.365V163.17z"/>
		<polygon fill="#6D6E70" points="302.263,187.301 302.925,195.616 305.85,195.616 306.403,187.301 		"/>
		<polygon fill="#6D6E70" points="260.242,222.833 276.445,222.833 275.466,224.676 261.227,224.676 		"/>
		<rect x="261.074" y="227.671" fill="#6D6E70" width="14.547" height="0.734"/>
		<polygon fill="#6D6E70" points="262.019,228.771 274.674,228.771 274.148,229.301 262.522,229.301 		"/>
		<rect x="262.777" y="287.655" fill="#6D6E70" width="11.138" height="0.735"/>
		<polygon fill="#6D6E70" points="274.259,288.709 274.629,289.399 262.063,289.399 262.431,288.709 		"/>
		<rect x="261.095" y="289.677" fill="#6D6E70" width="14.503" height="0.785"/>
		<rect x="334.984" y="287.655" fill="#6D6E70" width="11.143" height="0.735"/>
		<polygon fill="#6D6E70" points="346.464,288.709 346.834,289.399 334.271,289.399 334.634,288.709 		"/>
		<rect x="333.302" y="289.677" fill="#6D6E70" width="14.49" height="0.785"/>
		<polygon fill="#6D6E70" points="332.478,222.833 348.681,222.833 347.696,224.676 333.458,224.676 		"/>
		<rect x="333.302" y="227.671" fill="#6D6E70" width="14.547" height="0.734"/>
		<polygon fill="#6D6E70" points="334.247,228.771 346.907,228.771 346.377,229.301 334.756,229.301 		"/>
		<polygon fill="#6D6E70" points="281.83,222.34 281.83,229.706 299.142,229.706 295.018,222.34 		"/>
		<polygon fill="#6D6E70" points="295.934,222.34 300.056,229.706 308.613,229.706 312.739,222.34 		"/>
		<polygon fill="#6D6E70" points="326.888,222.34 313.653,222.34 309.527,229.706 326.888,229.706 		"/>
		<g>
			<path fill="#6D6E70" d="M280.819,231.184c0,0-0.269-0.165-0.523-0.492c-0.254-0.335-0.306-0.493-0.306-0.493h9.852v0.985H280.819
				z"/>
		</g>
		<rect x="281.248" y="231.552" fill="#6D6E70" width="8.593" height="0.581"/>
		<rect x="281.738" y="232.56" fill="#6D6E70" width="8.103" height="2.3"/>
		<g>
			<path fill="#6D6E70" d="M280.819,236.452c0,0-0.269-0.163-0.523-0.49c-0.254-0.33-0.306-0.49-0.306-0.49h9.852v0.98H280.819z"/>
		</g>
		<rect x="281.248" y="236.824" fill="#6D6E70" width="8.593" height="0.577"/>
		<g>
			<path fill="#6D6E70" d="M280.819,287.907c0,0-0.269,0.158-0.523,0.486c-0.254,0.332-0.306,0.497-0.306,0.497h9.852v-0.983
				H280.819z"/>
		</g>
		<rect x="281.248" y="286.949" fill="#6D6E70" width="8.593" height="0.586"/>
		<rect x="281.738" y="237.83" fill="#6D6E70" width="8.103" height="14.97"/>
		<rect x="281.738" y="254.088" fill="#6D6E70" width="8.103" height="14.024"/>
		<rect x="281.738" y="269.661" fill="#6D6E70" width="8.103" height="16.176"/>
		<g>
			<path fill="#6D6E70" d="M327.706,231.184c0,0,0.271-0.165,0.522-0.492c0.255-0.335,0.31-0.493,0.31-0.493h-9.85v0.985H327.706z"
				/>
		</g>
		<rect x="318.688" y="231.552" fill="#6D6E70" width="8.588" height="0.581"/>
		<rect x="318.688" y="232.56" fill="#6D6E70" width="8.101" height="2.3"/>
		<g>
			<path fill="#6D6E70" d="M327.706,236.452c0,0,0.271-0.163,0.522-0.49c0.255-0.33,0.31-0.49,0.31-0.49h-9.85v0.98H327.706z"/>
		</g>
		<rect x="318.688" y="236.824" fill="#6D6E70" width="8.588" height="0.577"/>
		<g>
			<path fill="#6D6E70" d="M327.706,287.907c0,0,0.271,0.158,0.522,0.486c0.255,0.332,0.31,0.497,0.31,0.497h-9.85v-0.983H327.706z"
				/>
		</g>
		<rect x="318.688" y="286.949" fill="#6D6E70" width="8.588" height="0.586"/>
		<rect x="318.688" y="237.83" fill="#6D6E70" width="8.101" height="14.97"/>
		<rect x="318.688" y="254.088" fill="#6D6E70" width="8.101" height="14.024"/>
		<rect x="318.688" y="269.661" fill="#6D6E70" width="8.101" height="16.176"/>
		<path fill="#6D6E70" d="M271.641,158.017h-1.809v-2.087h1.809V158.017z M271.641,160.934h-0.398v-2.398h0.398V160.934z
			 M270.23,160.934h-0.398v-2.398h0.398V160.934z M269.405,161.511h-1.981v-5.956h1.981V161.511z M266.903,158.017h-1.812v-2.087
			h1.812V158.017z M266.903,160.934H266.5v-2.398h0.403V160.934z M265.487,160.934h-0.396v-2.398h0.396V160.934z M304.28,155.555
			v-1.225h-71.72v1.225h32.146v5.956h-32.146v0.816h71.72v-0.816h-32.158v-5.956H304.28z"/>
		<path fill="#6D6E70" d="M271.641,158.017h-1.809v-2.087h1.809V158.017z M271.641,160.934h-0.398v-2.398h0.398V160.934z
			 M270.23,160.934h-0.398v-2.398h0.398V160.934z M269.405,161.511h-1.981v-5.956h1.981V161.511z M266.903,158.017h-1.812v-2.087
			h1.812V158.017z M266.903,160.934H266.5v-2.398h0.403V160.934z M265.487,160.934h-0.396v-2.398h0.396V160.934z M304.28,155.555
			v-1.225h-71.72v1.225h32.146v5.956h-32.146v0.816h71.72v-0.816h-32.158v-5.956H304.28z"/>
		<path fill="#6D6E70" d="M271.641,158.017h-1.809v-2.087h1.809V158.017z M271.641,160.934h-0.398v-2.398h0.398V160.934z
			 M270.23,160.934h-0.398v-2.398h0.398V160.934z M269.405,161.511h-1.981v-5.956h1.981V161.511z M266.903,158.017h-1.812v-2.087
			h1.812V158.017z M266.903,160.934H266.5v-2.398h0.403V160.934z M265.487,160.934h-0.396v-2.398h0.396V160.934z M304.28,155.555
			v-1.225h-71.72v1.225h32.146v5.956h-32.146v0.816h71.72v-0.816h-32.158v-5.956H304.28z"/>
		<path fill="#6D6E70" d="M271.641,158.017h-1.809v-2.087h1.809V158.017z M271.641,160.934h-0.398v-2.398h0.398V160.934z
			 M270.23,160.934h-0.398v-2.398h0.398V160.934z M269.405,161.511h-1.981v-5.956h1.981V161.511z M266.903,158.017h-1.812v-2.087
			h1.812V158.017z M266.903,160.934H266.5v-2.398h0.403V160.934z M265.487,160.934h-0.396v-2.398h0.396V160.934z M304.28,155.555
			v-1.225h-71.72v1.225h32.146v5.956h-32.146v0.816h71.72v-0.816h-32.158v-5.956H304.28z"/>
		<rect x="265.209" y="158.838" fill="#6D6E70" width="0.144" height="1.745"/>
		<rect x="266.623" y="158.838" fill="#6D6E70" width="0.151" height="1.745"/>
		<rect x="269.961" y="158.838" fill="#6D6E70" width="0.146" height="1.745"/>
		<rect x="271.373" y="158.838" fill="#6D6E70" width="0.151" height="1.745"/>
		<rect x="265.327" y="156.247" fill="#6D6E70" width="1.32" height="1.518"/>
		<rect x="270.082" y="156.247" fill="#6D6E70" width="1.322" height="1.518"/>
		<path fill="#6D6E70" d="M271.759,286.918h-6.873v-56.72h6.873V286.918z M262.909,287.333h10.865v-57.5h-10.865V287.333z"/>
		<rect x="265.67" y="230.72" fill="#6D6E70" width="5.42" height="55.68"/>
		<rect x="335.183" y="229.833" fill="#6D6E70" width="10.867" height="57.5"/>
		<rect x="337.938" y="230.72" fill="#6D6E70" width="5.424" height="55.68"/>
		<rect x="232.613" y="156.811" fill="#6D6E70" width="29.884" height="3.824"/>
		<rect x="346.262" y="156.811" fill="#6D6E70" width="29.894" height="3.824"/>
		<polyline fill="#6D6E70" points="304.28,156.811 274.059,156.811 274.059,160.635 304.222,160.635 		"/>
		<path fill="#6D6E70" d="M343.208,158.017h-1.803v-2.087h1.803V158.017z M343.208,160.934h-0.395v-2.398h0.395V160.934z
			 M341.806,160.934h-0.4v-2.398h0.4V160.934z M341.142,161.511h-1.982v-5.956h1.982V161.511z M338.472,158.017h-1.81v-2.087h1.81
			V158.017z M338.472,160.934h-0.394v-2.398h0.394V160.934z M337.062,160.934h-0.403v-2.398h0.403V160.934z M376.214,155.555v-1.225
			h-71.915v1.225h32.146v5.956h-32.146v0.816h71.915v-0.816h-32.357v-5.956H376.214z"/>
		<path fill="#6D6E70" d="M343.208,158.017h-1.803v-2.087h1.803V158.017z M343.208,160.934h-0.395v-2.398h0.395V160.934z
			 M341.806,160.934h-0.4v-2.398h0.4V160.934z M341.142,161.511h-1.982v-5.956h1.982V161.511z M338.472,158.017h-1.81v-2.087h1.81
			V158.017z M338.472,160.934h-0.394v-2.398h0.394V160.934z M337.062,160.934h-0.403v-2.398h0.403V160.934z M376.214,155.555v-1.225
			h-71.915v1.225h32.146v5.956h-32.146v0.816h71.915v-0.816h-32.357v-5.956H376.214z"/>
		<path fill="#6D6E70" d="M343.208,158.017h-1.803v-2.087h1.803V158.017z M343.208,160.934h-0.395v-2.398h0.395V160.934z
			 M341.806,160.934h-0.4v-2.398h0.4V160.934z M341.142,161.511h-1.982v-5.956h1.982V161.511z M338.472,158.017h-1.81v-2.087h1.81
			V158.017z M338.472,160.934h-0.394v-2.398h0.394V160.934z M337.062,160.934h-0.403v-2.398h0.403V160.934z M376.214,155.555v-1.225
			h-71.915v1.225h32.146v5.956h-32.146v0.816h71.915v-0.816h-32.357v-5.956H376.214z"/>
		<path fill="#6D6E70" d="M343.208,158.017h-1.803v-2.087h1.803V158.017z M343.208,160.934h-0.395v-2.398h0.395V160.934z
			 M341.806,160.934h-0.4v-2.398h0.4V160.934z M341.142,161.511h-1.982v-5.956h1.982V161.511z M338.472,158.017h-1.81v-2.087h1.81
			V158.017z M338.472,160.934h-0.394v-2.398h0.394V160.934z M337.062,160.934h-0.403v-2.398h0.403V160.934z M376.214,155.555v-1.225
			h-71.915v1.225h32.146v5.956h-32.146v0.816h71.915v-0.816h-32.357v-5.956H376.214z"/>
		<rect x="336.775" y="158.838" fill="#6D6E70" width="0.153" height="1.745"/>
		<rect x="338.191" y="158.838" fill="#6D6E70" width="0.148" height="1.745"/>
		<rect x="341.534" y="158.838" fill="#6D6E70" width="0.151" height="1.745"/>
		<rect x="342.95" y="158.838" fill="#6D6E70" width="0.156" height="1.745"/>
		<rect x="336.896" y="156.247" fill="#6D6E70" width="1.319" height="1.518"/>
		<rect x="341.652" y="156.247" fill="#6D6E70" width="1.322" height="1.518"/>
		<rect x="304.03" y="156.811" fill="#6D6E70" width="30.037" height="3.824"/>
	</g>
</g>
</svg>
