<?xml version="1.0" encoding="utf-8"?>
<!-- Generator: Adobe Illustrator 19.0.0, SVG Export Plug-In . SVG Version: 6.00 Build 0)  -->
<svg version="1.1" id="Layer_1" xmlns="http://www.w3.org/2000/svg" xmlns:xlink="http://www.w3.org/1999/xlink" x="0px" y="0px"
	 viewBox="-89 119.8 300 286.2" style="enable-background:new -89 119.8 300 286.2;" xml:space="preserve">
<style type="text/css">
	.st0{fill-rule:evenodd;clip-rule:evenodd;fill:none;}
	.st1{fill:#6D6E71;}
	.st2{font-family:'Arial-Black';}
	.st3{font-size:23.3005px;}
	.st4{fill-rule:evenodd;clip-rule:evenodd;fill:#6D6E71;}
	.st5{fill-rule:evenodd;clip-rule:evenodd;fill:#BCBEC0;}
	.st6{fill-rule:evenodd;clip-rule:evenodd;fill:#FFFFFF;}
	.st7{fill-rule:evenodd;clip-rule:evenodd;fill:#414042;}
</style>
<g id="XMLID_2161_">
	<rect id="XMLID_95_" x="-34.2" y="350.6" class="st0" width="195.4" height="32.2"/>
	<text id="XMLID_2173_" transform="matrix(1 0 0 1 -34.1549 367.3247)" class="st1 st2 st3">RIVIERA MAYA</text>
	<path id="XMLID_2542_" class="st4" d="M66.1,143.9c23.2,0,44.2,9.4,59.4,24.5c15.2,15.2,24.7,36,24.7,59.1c0,23-9.4,43.9-24.7,59.1
		c-15.2,15.2-36.2,24.6-59.4,24.6c-23.1,0-44.1-9.4-59.3-24.6c-15.2-15.1-24.7-36-24.7-59.1c0-23,9.4-43.9,24.7-59.1
		C22,153.2,43,143.9,66.1,143.9L66.1,143.9z"/>
	<path id="XMLID_2541_" class="st5" d="M66.1,148c22,0,42,8.9,56.5,23.3c14.5,14.4,23.5,34.3,23.5,56.2c0,21.9-9,41.8-23.5,56.2
		C108.1,298,88.1,307,66.1,307c-22,0-42-8.9-56.4-23.3c-14.5-14.4-23.5-34.3-23.5-56.2c0-21.9,9-41.8,23.5-56.2
		C24.1,156.9,44.1,148,66.1,148L66.1,148z"/>
	<path id="XMLID_2535_" class="st6" d="M66.1,148.4c21.9,0,41.8,8.9,56.2,23.2c9.4,9.3,16.4,20.9,20.2,34c0.3-0.4,0.5-0.9,0.8-1.3
		c-3.9-12.8-10.9-24.3-20.2-33.5c-14.6-14.5-34.8-23.6-57-23.6c-22.1,0-42.3,9-56.9,23.6c-7.1,7.1-12.9,15.5-17,24.7h1.2
		c4-9,9.7-17.1,16.6-24C24.4,157.3,44.2,148.4,66.1,148.4L66.1,148.4L66.1,148.4L66.1,148.4z M145.5,230.9
		c-0.9,20.4-9.6,38.8-23.3,52.4c-14.4,14.3-34.2,23.2-56.2,23.2c-21.8,0-41.7-8.9-56.1-23.2c-13.2-13.1-21.8-30.8-23.1-50.5
		c-0.4,0-0.8-0.1-1.2-0.2c1.3,20.1,10,38.1,23.5,51.5c14.6,14.5,34.8,23.5,56.9,23.5c22.2,0,42.4-9,57-23.5
		c13.7-13.6,22.6-32.2,23.6-52.7C146.2,231.3,145.8,231.1,145.5,230.9L145.5,230.9L145.5,230.9L145.5,230.9z M66.1,144.1
		c-23,0-44,9.4-59.2,24.4C-1.4,176.8-8,186.9-12.2,198c-0.2-0.2-0.6-0.5-0.9-0.8c4.3-11.1,10.9-21.1,19.3-29.4
		C21.5,152.5,42.7,143,66.1,143c23.4,0,44.6,9.5,60,24.8c9.1,9.1,16.2,20.2,20.5,32.6c-0.3,0.3-0.6,0.6-0.9,0.9
		c-4.2-12.5-11.2-23.7-20.3-32.8C110.1,153.5,89.1,144.1,66.1,144.1L66.1,144.1L66.1,144.1L66.1,144.1z M149.2,216.7
		c0.3,1.8,0.4,3.7,0.6,5.6c0.3,0.6,0.7,1,1.2,1.4c-0.1-3.5-0.5-6.9-1.1-10.2C149.6,214.4,149.3,215.5,149.2,216.7L149.2,216.7
		L149.2,216.7L149.2,216.7z M149.7,232.1c0.4,0,0.7,0,1.2,0c-1.2,21.4-10.5,40.7-24.8,55c-15.4,15.3-36.6,24.8-60,24.8
		c-23.3,0-44.6-9.5-59.9-24.8c-14.9-14.8-24.3-35.1-24.9-57.4c0.2,0.2,0.6,0.7,1.2,1.3c0.9,21.5,10.1,41,24.5,55.3
		c15.2,15.1,36.1,24.5,59.2,24.5c23.1,0,44-9.4,59.2-24.5C139.4,272.3,148.6,253.2,149.7,232.1L149.7,232.1z"/>
	<path id="XMLID_2526_" class="st7" d="M38.4,267.1v-9h6.7v24.7h-6.7v-9.5h-5.5v9.5h-6.7v-24.7h6.7v9H38.4L38.4,267.1L38.4,267.1
		L38.4,267.1z M69.6,270.1c0,3.5-1.1,6.8-3.1,9.4c-2,2.6-5,4.2-8.7,4.2c-3.7,0-6.7-1.6-8.7-4.1c-2-2.5-3.1-5.9-3.1-9.5
		c0-3.6,1.1-6.8,3.2-9.1c2-2.3,5-3.6,8.7-3.6c3.7,0,6.7,1.4,8.7,3.8C68.5,263.4,69.6,266.6,69.6,270.1L69.6,270.1L69.6,270.1
		L69.6,270.1z M52.8,270.1c0,1.5,0.4,3,1.3,4.2c0.9,1.2,2.1,2,3.7,2c1.6,0,2.8-0.8,3.7-2c0.8-1.2,1.3-2.7,1.3-4.2
		c0-1.5-0.5-2.8-1.4-3.8c-0.9-1-2.1-1.6-3.5-1.6c-1.4,0-2.7,0.6-3.5,1.6C53.3,267.3,52.8,268.6,52.8,270.1L52.8,270.1L52.8,270.1
		L52.8,270.1z M80.2,282.9v-18.1h4.3v-6.6H69.2v6.6h4.3v18.1H80.2L80.2,282.9L80.2,282.9L80.2,282.9z M92,264.7v2.4h5.9v6.6H92v2.5
		h6.2v6.6h-13v-24.7h13v6.6H92L92,264.7L92,264.7L92,264.7z M105.9,276.3h7.6v6.6H99.2v-24.7h6.7V276.3L105.9,276.3z"/>
	<path id="XMLID_2519_" class="st6" d="M36.6,265.3v-9h6.7V281h-6.7v-9.5h-5.5v9.5h-6.7v-24.7h6.7v9H36.6L36.6,265.3L36.6,265.3
		L36.6,265.3z M67.8,268.3c0,3.5-1.1,6.8-3.1,9.4c-2,2.6-5,4.2-8.7,4.2c-3.7,0-6.7-1.6-8.7-4.1c-2-2.5-3.1-5.9-3.1-9.5
		c0-3.6,1.1-6.8,3.2-9.1c2-2.3,5-3.6,8.7-3.6c3.7,0,6.7,1.4,8.7,3.8C66.7,261.6,67.8,264.8,67.8,268.3L67.8,268.3L67.8,268.3
		L67.8,268.3z M51,268.3c0,1.5,0.4,3,1.3,4.2c0.9,1.2,2.1,2,3.7,2c1.6,0,2.8-0.8,3.7-2c0.8-1.2,1.3-2.7,1.3-4.2
		c0-1.5-0.5-2.8-1.4-3.8c-0.9-1-2.1-1.6-3.5-1.6c-1.4,0-2.7,0.6-3.5,1.6C51.5,265.5,51,266.8,51,268.3L51,268.3L51,268.3L51,268.3z
		 M78.4,281v-18.1h4.3v-6.6H67.4v6.6h4.3V281H78.4L78.4,281L78.4,281L78.4,281z M90.2,262.9v2.4h5.9v6.6h-5.9v2.6h6.2v6.6h-13v-24.7
		h13v6.6H90.2L90.2,262.9L90.2,262.9L90.2,262.9z M104.1,274.4h7.6v6.6H97.4v-24.7h6.7V274.4L104.1,274.4z"/>
	<path id="XMLID_2512_" class="st4" d="M37.3,266v-9h5.2v23.3h-5.2v-9.5h-6.9v9.5h-5.2V257h5.2v9H37.3L37.3,266L37.3,266L37.3,266z
		 M67.1,268.3c0,3.8-1.2,7-3.1,9.2c-2,2.3-4.8,3.6-8,3.6c-3.2,0-6-1.3-8-3.6c-2-2.3-3.1-5.5-3.1-9.2c0-3.5,1.3-6.5,3.4-8.6
		c2.1-2.1,4.8-3.4,7.8-3.4c2.9,0,5.7,1.2,7.8,3.4C65.8,261.7,67.1,264.7,67.1,268.3L67.1,268.3L67.1,268.3L67.1,268.3z M50.3,268.3
		c0,2,0.6,3.8,1.7,5c1,1.2,2.4,2,4,2c1.6,0,3-0.7,4-2c1.1-1.2,1.7-2.9,1.7-5c0-1.6-0.6-3.1-1.7-4.3c-1-1.1-2.4-1.9-4-1.9
		c-1.6,0-3,0.7-4,1.9C50.9,265.1,50.3,266.7,50.3,268.3L50.3,268.3L50.3,268.3L50.3,268.3z M77.7,280.3h-5.2v-18.1h-4.3V257H82v5.1
		h-4.3V280.3L77.7,280.3L77.7,280.3L77.7,280.3z M89.4,262.2v3.9h5.9v5.1h-5.9v4h6.3v5.1H84.2V257h11.5v5.1H89.4L89.4,262.2
		L89.4,262.2L89.4,262.2z M103.4,275.2h7.6v5.1H98.1V257h5.2V275.2L103.4,275.2z"/>
	<path id="XMLID_2507_" class="st7" d="M159.6,243.2c-0.7,0.7-1,1.5-1,2.4c0,1,0.3,1.8,1,2.4c0.7,0.7,1.5,1,2.4,1c1,0,1.8-0.3,2.4-1
		c0.7-0.7,1-1.5,1-2.4c0-0.9-0.3-1.8-1-2.4c-0.7-0.7-1.5-1-2.4-1C161.1,242.2,160.3,242.5,159.6,243.2L159.6,243.2L159.6,243.2z
		 M164.8,248.5c-0.8,0.8-1.7,1.2-2.8,1.2c-1.1,0-2-0.4-2.8-1.2c-0.8-0.8-1.2-1.7-1.2-2.8c0-1.1,0.4-2,1.2-2.8
		c0.8-0.8,1.7-1.2,2.8-1.2c1.1,0,2,0.4,2.8,1.2c0.8,0.8,1.2,1.7,1.2,2.8C166,246.7,165.6,247.7,164.8,248.5L164.8,248.5L164.8,248.5
		z M162.8,244.1c-0.2-0.1-0.5-0.2-0.9-0.2h-0.7v1.6h0.7c0.3,0,0.6,0,0.7-0.1c0.3-0.1,0.5-0.3,0.5-0.7
		C163.1,244.4,163,244.2,162.8,244.1L162.8,244.1L162.8,244.1z M161.9,243.4c0.5,0,0.9,0.1,1.2,0.2c0.5,0.2,0.7,0.6,0.7,1.1
		c0,0.4-0.1,0.7-0.4,0.9c-0.2,0.1-0.4,0.2-0.6,0.2c0.3,0.1,0.6,0.2,0.8,0.4c0.2,0.2,0.2,0.5,0.2,0.7v0.3c0,0.1,0,0.2,0,0.3
		c0,0.1,0,0.2,0,0.2l0,0.1h-0.7c0,0,0,0,0,0c0,0,0,0,0,0l0-0.1v-0.3c0-0.5-0.1-0.8-0.4-1c-0.2-0.1-0.4-0.1-0.9-0.1h-0.6v1.7h-0.8
		v-4.4H161.9L161.9,243.4z"/>
	<path id="XMLID_2496_" class="st7" d="M53.1,180.1l-5.3,20c-1.7-0.9-3.6-1.5-5.5-1.5c-5.9,0.1-10.6,4.5-13.8,9.1l1.9-7.3
		c-1.2-1-1.9-1.4-3.6-1.4c-1.8,0-3.9,0.5-5.4,1.4l0.4-1.4H7.7l-6.8,25.5c-1,1-2.1,1.7-3.4,2.3L4.8,199H-9.6l-0.6,1.7
		c-1.8-1.3-3.9-2-6.2-2c-9.8-0.1-16.5,11.2-18.6,19.2c-1,4-1.2,9.2,0.2,13.5c1.4,4.3,4.5,7.5,9.9,7.6c2.9,0.1,5.7-1,8.1-2.6
		c1.9,1.9,4.3,2.8,6.9,2.7c2.7,0,5.2-0.8,7.5-2.1l-0.3,1.1h13.9l5.8-21.7c0.8-2.6,2.7-5.4,5.8-5.4c1,0,2.2,0.5,3.1,0.9
		c-1.2,2.4-2.1,4.9-2.6,7.5c-1,4.6-1,9.2,0.4,12.7c1.4,3.5,4.3,5.9,9.1,6.1c1.8,0,3.6-0.4,5.2-1.2l-0.2,0.9h14.6l15.5-58H53.1
		L53.1,180.1L53.1,180.1z M-14.1,217.9c-0.6,2.6-2.9,9.3-6.2,9.3c-3.4,0-2.4-7.4-1.8-9.4c0.9-3.3,3.4-8.5,6.9-8.5
		C-12.8,209.3-13.7,216.3-14.1,217.9L-14.1,217.9L-14.1,217.9z M43.2,218c-0.8,2.7-2.5,9.3-6.6,9.3c-2.9,0-0.5-9-0.4-9.4
		c0.8-2.2,3.6-8.5,6.9-8.5C45.9,209.3,43.4,217.4,43.2,218L43.2,218L43.2,218z M155.4,227.5c-4,0-2.4-7.1-1.6-9.5
		c1-3.1,3.8-8.8,7.5-8.8c3.8,0,5.3,4.6,6.6,7.4l3.2-12.6c-2.7-3.5-6.4-5.2-10.9-5.2c-8.8,0.1-16,7.3-18.8,15.2
		c-0.2-8.5-4.8-15.2-13.9-15.4c-10.9,0.3-18.1,10.1-20.1,19.8c-2.1,10.1,2.2,19.9,13.1,20c9.1,0.1,16.4-6.8,19.3-14.9
		c0.5,9.1,4.9,14.7,13.3,14.8c3.6,0.1,7.3-1.3,10.1-3.5l3.3-13.9C163.7,223.4,159.4,227.6,155.4,227.5L155.4,227.5L155.4,227.5z
		 M128.3,218c-1.1,3.5-3.9,9.4-7.8,9.4c-3,0-1-7.3-0.2-9.3c1-2.6,3.6-8.8,7-8.8C130.7,209.2,128.9,216.1,128.3,218L128.3,218
		L128.3,218z M-24.6,176.3L-41.3,238h-16.1l7.5-27.8h-5.7l-7.5,27.8h-15.9l12.4-46.4c-1,0.2-2.1,0.3-3.1,0.2c-1.3,0-2.4-0.4-3.7-0.8
		l2.5-8.9c2.1,0,4.1-0.1,6-1.1c1.9-1.1,3.6-2.9,4.8-4.7h13.7l-6,22h5.7l5.9-22H-24.6L-24.6,176.3L-24.6,176.3z M200.2,236.9
		c-1.2,1.4-2.3,3.3-4.5,3.3c-1.6,0-1.7-3.4-1.7-4c0-4-0.8-8.9-2.9-12.2c6.6-2.9,11.7-8.7,11.9-16.3c-0.1-6.1-4.2-8.9-10-9
		c-2.3,0-4.6,0.7-6.6,1.7l5.4-20.2h-12.9l-15.4,57.8h12.9l3.1-12c2.5,1.2,2.6,5.4,2.5,7.8c0,2.4-0.4,4.7-0.6,7.1
		c-0.6,6.5,3.9,11.6,10.6,11.6c4.6,0,8.2-2.1,11.5-4.9L200.2,236.9L200.2,236.9L200.2,236.9z M186.3,215.8c-1.3,0.6-2.9,1.1-4.4,1.1
		c0.6-2.3,1.9-4.1,3.8-5.5c1.1-0.9,2.4-1.5,3.8-1.9c2.4-0.6,2.4,1.1,1.5,2.6C189.9,213.9,188.2,215,186.3,215.8L186.3,215.8
		L186.3,215.8z M107.5,238.4c-2,0.2-2.4-1.4-2.2-3.5c0.5-4,0.9-7.9,1-11.9c0-1.7-0.1-3.3-0.3-5c-0.4-2.3-1-4.4-2.2-6.4
		c7.9-2.3,13.7-9.7,14.5-17.7c0.6-9.7-7.6-17.9-17.5-17.9L88,176.1c-1.7,1.4-3.5,2.8-5.5,3.8c-2.2,1.2-4.5,1.3-7,1l-2.6,9.6
		c1.6,0.6,3,1.1,4.7,1.2c1,0,1.9-0.1,2.8-0.4l-12.6,46.7H84l6.7-25c2.4,2.3,2.1,6.7,1.8,9.7c-0.5,5.5-3.1,11.6-3.2,17.1
		c-0.1,7.8,4.8,12.5,12.5,12.5c5,0,9.8-1.6,13.1-5.5l-3-11C110.6,236.9,109.2,238.3,107.5,238.4L107.5,238.4L107.5,238.4z
		 M94.1,202.5h-0.6l4.3-15.9h1.5c4.6,0,6.2,3.2,5.3,6.8C103.4,197.6,98.8,202.5,94.1,202.5L94.1,202.5z"/>
	<path id="XMLID_2485_" class="st4" d="M51.9,178l-5.3,20c-1.7-0.9-3.6-1.5-5.5-1.5c-5.9,0.1-10.6,4.5-13.8,9.1l1.9-7.3
		c-1.2-1-1.9-1.4-3.6-1.4c-1.8,0-3.9,0.5-5.4,1.4l0.4-1.4H6.4l-6.8,25.5c-1,1-2.1,1.7-3.4,2.3l7.3-27.8h-14.3l-0.6,1.7
		c-1.8-1.3-3.9-2-6.2-2c-9.8-0.1-16.5,11.2-18.6,19.2c-1,4-1.2,9.3,0.2,13.5c1.4,4.3,4.5,7.5,9.9,7.6c2.9,0.1,5.7-1,8.1-2.6
		c1.9,1.9,4.3,2.8,6.9,2.7c2.7,0,5.2-0.8,7.5-2.1l-0.3,1.1H10l5.8-21.7c0.8-2.6,2.7-5.3,5.8-5.3c1,0,2.2,0.5,3.1,0.9
		c-1.2,2.4-2.1,4.9-2.6,7.5c-1,4.6-1,9.2,0.4,12.7c1.4,3.5,4.3,5.9,9.1,6.1c1.8,0,3.6-0.4,5.2-1.1l-0.1,0.9h14.6l15.5-58H51.9
		L51.9,178L51.9,178z M-15.4,215.8c-0.6,2.6-2.9,9.3-6.2,9.3c-3.4,0-2.4-7.4-1.8-9.4c0.9-3.3,3.4-8.5,6.9-8.5
		C-14,207.2-15,214.2-15.4,215.8L-15.4,215.8L-15.4,215.8z M41.9,215.9c-0.8,2.7-2.5,9.3-6.6,9.3c-2.9,0-0.5-9-0.4-9.4
		c0.8-2.2,3.6-8.5,6.9-8.5C44.6,207.2,42.1,215.3,41.9,215.9L41.9,215.9L41.9,215.9z M154.1,225.4c-4,0-2.4-7.1-1.6-9.5
		c1-3.1,3.8-8.8,7.5-8.8c3.8,0,5.3,4.6,6.6,7.4l3.2-12.6c-2.7-3.5-6.4-5.2-10.9-5.2c-8.8,0.1-16,7.3-18.8,15.2
		c-0.2-8.5-4.8-15.2-13.9-15.4c-10.9,0.3-18.1,10.1-20.1,19.8c-2.1,10.1,2.2,20,13.1,20c9.1,0.1,16.4-6.8,19.3-14.9
		c0.5,9.1,4.9,14.7,13.3,14.8c3.6,0.1,7.3-1.3,10.1-3.5l3.3-13.9C162.4,221.3,158.1,225.5,154.1,225.4L154.1,225.4L154.1,225.4z
		 M127.1,215.8c-1.1,3.5-3.9,9.4-7.8,9.4c-3,0-1-7.3-0.2-9.3c1-2.6,3.6-8.8,7-8.8C129.5,207.1,127.7,214,127.1,215.8L127.1,215.8
		L127.1,215.8z M-25.9,174.2l-16.7,61.7h-16.1l7.5-27.8h-5.7l-7.5,27.8h-15.9l12.4-46.4c-1,0.2-2.1,0.3-3.1,0.2
		c-1.3,0-2.4-0.4-3.7-0.8l2.5-8.9c2.1,0,4.1-0.1,6-1.1c1.9-1.1,3.6-2.9,4.8-4.7h13.7l-6,22h5.7l5.9-22H-25.9L-25.9,174.2
		L-25.9,174.2z M198.9,234.8c-1.2,1.4-2.3,3.3-4.5,3.3c-1.6,0-1.7-3.4-1.7-4c0-4-0.8-8.9-2.9-12.2c6.6-2.9,11.7-8.7,11.9-16.3
		c-0.1-6.1-4.2-8.9-10-9c-2.3,0-4.6,0.7-6.6,1.7l5.4-20.2h-12.9L162.2,236h12.9l3.1-12c2.5,1.2,2.6,5.4,2.5,7.8
		c0,2.4-0.4,4.7-0.6,7.1c-0.6,6.5,3.9,11.6,10.6,11.6c4.6,0,8.2-2.1,11.5-4.9L198.9,234.8L198.9,234.8L198.9,234.8z M185.1,213.7
		c-1.3,0.6-2.9,1.1-4.4,1.1c0.6-2.3,1.9-4.1,3.8-5.5c1.1-0.9,2.4-1.5,3.8-1.9c2.4-0.6,2.4,1.1,1.5,2.6
		C188.7,211.8,186.9,212.9,185.1,213.7L185.1,213.7L185.1,213.7z M106.3,236.3c-2,0.2-2.4-1.4-2.2-3.5c0.5-4,0.9-7.9,1-11.9
		c0-1.7-0.1-3.3-0.3-5c-0.4-2.3-1-4.4-2.2-6.4c7.9-2.3,13.7-9.7,14.5-17.7c0.6-9.7-7.6-17.9-17.5-17.9l-12.9,0.1
		c-1.7,1.4-3.5,2.7-5.5,3.8c-2.2,1.2-4.5,1.3-7,1l-2.6,9.6c1.6,0.6,3,1.1,4.7,1.2c1,0,1.9-0.1,2.8-0.4L66.6,236h16.1l6.7-25
		c2.4,2.3,2.1,6.7,1.8,9.7c-0.5,5.5-3.1,11.6-3.2,17.1c-0.1,7.8,4.8,12.5,12.5,12.5c5,0,9.8-1.6,13.1-5.5l-3-11
		C109.3,234.8,108,236.2,106.3,236.3L106.3,236.3L106.3,236.3z M92.9,200.4h-0.6l4.3-15.9h1.5c4.6,0,6.2,3.2,5.3,6.8
		C102.2,195.5,97.5,200.4,92.9,200.4L92.9,200.4z"/>
	<path id="XMLID_2463_" class="st6" d="M50.7,176.2l-5.3,20c-1.7-0.9-3.6-1.5-5.5-1.5c-5.9,0.1-10.6,4.5-13.8,9.1l1.9-7.3
		c-1.2-1-1.9-1.4-3.6-1.4c-1.8,0-3.9,0.5-5.4,1.4l0.4-1.4H5.2l-6.8,25.5c-1,1-2.1,1.7-3.4,2.3l7.3-27.8H-12l-0.6,1.7
		c-1.8-1.3-3.9-2-6.2-2c-9.8-0.1-16.5,11.2-18.6,19.2c-1,4-1.2,9.3,0.2,13.5c1.4,4.3,4.5,7.5,9.9,7.6c2.9,0.1,5.7-1,8.1-2.6
		c1.9,1.9,4.3,2.8,6.9,2.7c2.7,0,5.2-0.8,7.5-2.1l-0.3,1.1H8.8l5.8-21.7c0.8-2.6,2.7-5.3,5.8-5.3c1,0,2.2,0.5,3.1,0.9
		c-1.2,2.4-2.1,4.9-2.6,7.5c-1,4.6-1,9.2,0.4,12.7c1.4,3.5,4.3,5.9,9.1,6.1c1.8,0,3.6-0.4,5.2-1.2l-0.2,0.9H50l15.5-58H50.7
		L50.7,176.2L50.7,176.2z M-16.6,214c-0.6,2.6-2.9,9.3-6.2,9.3c-3.4,0-2.4-7.4-1.8-9.4c0.9-3.3,3.4-8.5,6.9-8.5
		C-15.2,205.4-16.2,212.4-16.6,214L-16.6,214L-16.6,214z M40.7,214.1c-0.8,2.7-2.5,9.3-6.6,9.3c-2.9,0-0.5-9-0.4-9.4
		c0.8-2.2,3.6-8.5,6.9-8.5C43.4,205.4,40.9,213.5,40.7,214.1L40.7,214.1L40.7,214.1z M152.9,223.6c-4,0-2.4-7.1-1.6-9.5
		c1-3.1,3.8-8.8,7.5-8.8c3.8,0,5.3,4.6,6.6,7.4l3.2-12.6c-2.7-3.5-6.4-5.2-10.9-5.2c-8.8,0.1-16,7.3-18.8,15.2
		c-0.2-8.5-4.8-15.2-13.9-15.4c-10.9,0.3-18.1,10.1-20.1,19.8c-2.1,10.1,2.2,19.9,13.1,20c9.1,0.1,16.4-6.8,19.3-14.9
		c0.5,9.1,4.9,14.7,13.3,14.8c3.6,0.1,7.3-1.3,10.1-3.5l3.3-13.9C161.2,219.5,156.9,223.7,152.9,223.6L152.9,223.6L152.9,223.6z
		 M125.9,214.1c-1.1,3.5-3.9,9.4-7.8,9.4c-3,0-1-7.3-0.2-9.3c1-2.6,3.6-8.8,7-8.8C128.3,205.3,126.5,212.2,125.9,214.1L125.9,214.1
		L125.9,214.1z M-27.1,172.4l-16.7,61.7h-16.1l7.5-27.8h-5.7l-7.5,27.8h-15.9l12.4-46.4c-1,0.2-2.1,0.3-3.1,0.2
		c-1.3,0-2.4-0.4-3.7-0.8l2.5-8.9c2.1,0,4.1-0.1,6-1.1c1.9-1.1,3.6-2.9,4.8-4.7h13.7l-6,22h5.7l5.9-22H-27.1L-27.1,172.4
		L-27.1,172.4z M197.7,233c-1.2,1.4-2.3,3.3-4.5,3.3c-1.6,0-1.7-3.4-1.7-4c0-4-0.8-8.9-2.9-12.2c6.6-2.9,11.7-8.7,11.9-16.3
		c-0.1-6.1-4.2-8.9-10-9c-2.3,0-4.6,0.7-6.6,1.7l5.4-20.2h-12.9L161,234.2h12.9l3.1-12c2.5,1.2,2.6,5.4,2.5,7.8
		c0,2.4-0.4,4.7-0.6,7.1c-0.6,6.5,3.9,11.6,10.6,11.6c4.6,0,8.2-2.1,11.5-4.9L197.7,233L197.7,233L197.7,233z M183.9,211.9
		c-1.3,0.6-2.9,1.1-4.4,1.1c0.6-2.3,1.9-4.1,3.8-5.5c1.1-0.9,2.4-1.5,3.8-1.9c2.4-0.6,2.4,1.1,1.5,2.6
		C187.5,210,185.7,211.1,183.9,211.9L183.9,211.9L183.9,211.9z M105,234.5c-2,0.2-2.4-1.4-2.2-3.5c0.5-4,0.9-7.9,1-11.9
		c0-1.7-0.1-3.3-0.3-5c-0.4-2.3-1-4.4-2.2-6.4c7.9-2.3,13.7-9.7,14.5-17.7c0.6-9.7-7.6-17.9-17.5-17.9l-12.9,0.1
		c-1.7,1.4-3.5,2.7-5.5,3.8c-2.2,1.2-4.5,1.3-7,1l-2.6,9.6c1.6,0.6,3,1.1,4.7,1.2c1,0,1.9-0.1,2.8-0.4l-12.6,46.7h16.1l6.7-25
		c2.4,2.3,2.1,6.7,1.8,9.7c-0.5,5.5-3.1,11.6-3.2,17.1c-0.1,7.8,4.8,12.5,12.5,12.5c5,0,9.8-1.6,13.1-5.5l-3-11
		C108.1,233,106.8,234.4,105,234.5L105,234.5L105,234.5z M91.7,198.6h-0.6l4.3-15.9h1.5c4.6,0,6.2,3.2,5.3,6.8
		C101,193.7,96.3,198.6,91.7,198.6L91.7,198.6z"/>
	<path id="XMLID_2382_" class="st4" d="M-42.2,173.8l-6,22h-8.7l5.9-22h-11c0,0-1.3,1.9-4.2,4c-2.4,1.8-6.3,1.8-6.3,1.8l-1.8,6.4
		c0,0,1,0.3,2.1,0.3c4.1,0,5.1-1.3,5.1-1.3l-12.7,47.4h12.9l7.5-27.8h8.7l-7.5,27.8H-45l15.9-58.8H-42.2L-42.2,173.8L-42.2,173.8
		L-42.2,173.8z M-7.1,224.6l7.4-28.1H-11l-1,3c-0.3-0.8-3.2-3.3-6.6-3.3c-7.8,0-14.8,8.4-17.3,17.6c-1,3.5-1.3,8.4-0.1,12.5
		c1.2,4,3.8,7.2,8.7,7.2c4.7,0,8.3-3.2,8.3-3.2s2,3.3,6.7,3.3c4.6,0,8.1-2.9,8.1-2.9l1.9-7.9C-3.5,223.9-5.5,224.8-7.1,224.6
		L-7.1,224.6L-7.1,224.6z M-15.2,214c-0.6,2.8-3.6,10.8-7.7,10.8c-4.6,0-4.2-7.6-3.3-11c0.9-3.5,3.9-10,8.4-10
		C-13.8,203.9-14.6,211.3-15.2,214L-15.2,214L-15.2,214z M-3.3,232.7l10.9,0l5.5-20.6c1.7-5.7,6.2-6.5,7.3-6.4
		c1.5,0.1,3.3,0.9,3.3,0.9l2.4-9.6c0,0-0.6-0.5-1.9-0.5c-3.9,0-7.9,3-7.9,3l0.9-3.1h-11L-3.3,232.7L-3.3,232.7L-3.3,232.7
		L-3.3,232.7z M46.2,198.5l5.5-20.9h11.8l-14.8,55.1H37.1l0.4-2.2c0,0-3.4,2.4-7.3,2.4c-5,0-7.4-3.1-8.2-7.1
		c-0.9-3.9-0.3-8.7,0.7-12c2.7-9.1,9.8-17.7,17-17.7C43.6,196.1,46.2,198.5,46.2,198.5L46.2,198.5L46.2,198.5L46.2,198.5z
		 M42.2,214.1c0.9-3.2,2.7-10.2-1.6-10.2c-3.2,0-6.8,4.6-8.5,10c-0.7,2.3-2.5,10.9,1.9,10.9C38.8,224.8,41.1,217.8,42.2,214.1
		L42.2,214.1L42.2,214.1L42.2,214.1z M67.2,232.7L80,185.3c0,0-3,1-4.6,1c-1.6,0-3.3-0.6-3.3-0.6l1.9-7.1c0,0,3.6,0.4,6.4-1.2
		c3-1.6,5.6-3.8,5.6-3.8l12.4-0.1c8.6,0,16.8,7.4,16,16.3c-0.7,8.1-7.7,16.1-15.9,16.9c3.3,2.4,4,9.1,3.9,12.4
		c-0.2,6.2-0.7,9-1,12.1c-0.3,2.6,0.8,4.9,3.5,4.9c1.8,0,3.7-1.5,3.7-1.5l2.2,8.2c0,0-3.7,4.3-11.5,4.3c-7.7,0-11.3-5.2-11-11.6
		c0.3-5.8,3.2-9.9,3.4-19.8c0-2.9-0.9-6.2-2.7-7.7l2-7.9c5.1,0.4,11.6-5.6,12.7-10.7c1-4.9-1.7-8-6.8-8.2h-2.7l-13.9,51.5H67.2
		L67.2,232.7L67.2,232.7L67.2,232.7z M125,196.1c-9.6,0-16.3,9.5-18.5,17.8c-2.1,8.3,0.9,19.1,11.5,19.1c10.6,0,17.9-9.5,19.1-19.1
		C138.3,205.7,135,196.1,125,196.1L125,196.1L125,196.1z M127.3,214.1c-1.1,3.8-4.5,10.8-9.2,10.8c-5.1,0-2.4-9.1-1.8-10.8
		c1.9-5.2,5.4-10.2,8.6-10.2C128.8,203.8,128.8,208.9,127.3,214.1L127.3,214.1L127.3,214.1z M161.5,221l-2.1,9.1
		c0,0-3.6,2.9-8.8,2.9c-10.6,0-13.2-10.8-11.4-19.1c2.2-10.1,10.5-17.5,18.4-17.5c6.4,0,9.3,4.1,9.3,4.1l-2.1,8c0,0-2.1-4.6-6.2-4.6
		c-3.8,0-7.5,5-9.1,10.4c-1,3.3-2.2,10.9,3.1,10.9C156.6,225.1,161.5,221,161.5,221L161.5,221L161.5,221L161.5,221z M197,236
		c0,0-1.5,1.8-3.8,1.8c-1.7,0-3.2-1.6-3.2-5.4c0-3-0.8-10.5-4-12.9c6.5-2,13-8,13-15.7c0-5.4-3.8-7.5-8.6-7.5c-4,0-7.9,2.6-9,3.4
		l5.8-21.8h-9.8l-14.6,54.9h9.9l5.3-20.3c0.9-3.3,3.2-5.6,5.2-6.8c1.6-1,3.1-1.4,4-1.6c2.9-0.4,4,1.7,3,4.1c-0.6,1.6-2,2.9-3.7,4
		c-2.3,1.5-5.1,2.4-7.1,2.3l-1.7,6.5c3,1.3,3.4,6.1,3.3,8.7c-0.1,3.9-0.4,4.7-0.7,7.5c-0.6,6,3.8,10.1,9.2,10.1
		c5.3,0,9.8-3.9,9.8-3.9L197,236L197,236L197,236z"/>
</g>
</svg>
