<?xml version="1.0" encoding="utf-8"?>
<!-- Generator: Adobe Illustrator 16.0.0, SVG Export Plug-In . SVG Version: 6.00 Build 0)  -->
<!DOCTYPE svg PUBLIC "-//W3C//DTD SVG 1.1//EN" "http://www.w3.org/Graphics/SVG/1.1/DTD/svg11.dtd">
<svg version="1.1" id="Layer_1" xmlns="http://www.w3.org/2000/svg" xmlns:xlink="http://www.w3.org/1999/xlink" x="0px" y="0px"
	 width="595.279px" height="841.891px" viewBox="0 0 595.279 841.891" enable-background="new 0 0 595.279 841.891"
	 xml:space="preserve">
<g>
	<g>
		<path fill="#6D6E70" d="M138.534,561.44c-3.25,0-6.608-0.864-9.424-2.057l0.703-4.391c2.6,1.354,6.122,2.44,8.938,2.44
			c3.142,0,5.362-1.41,5.362-3.738c0-2.274-1.463-3.142-5.417-4.496c-5.742-2.002-8.667-3.791-8.667-8.071
			c0-4.711,3.9-7.906,9.208-7.906c3.141,0,5.903,0.705,7.962,1.626l-0.705,4.495c-2.491-1.301-4.929-2.059-7.42-2.059
			c-2.708,0-4.55,1.463-4.55,3.251c0,2.112,1.517,2.871,5.796,4.33c5.742,2.007,8.287,3.957,8.287,8.235
			C148.609,558.191,144.546,561.44,138.534,561.44z"/>
		<path fill="#6D6E70" d="M156.68,561.062h-4.767l10.833-27.788h5.416l10.725,27.192l-4.821,1.083l-2.708-7.367h-12.133
			L156.68,561.062z M165.346,537.989h-0.108l-4.441,11.915h8.937C169.788,549.904,165.346,537.989,165.346,537.989z"/>
		<path fill="#6D6E70" d="M202.125,561.062l-13.759-20.259v20.259h-4.441v-27.461h4.875l13.162,19.445v-19.445h4.441v27.461H202.125
			z"/>
		<path fill="#6D6E70" d="M226.119,561.062v-27.461h4.875v23.236h10.4l0.704,4.225H226.119z"/>
		<path fill="#6D6E70" d="M258.888,561.603c-6.878,0-11.157-4.062-11.157-11.211v-16.79h4.875v16.575
			c0,4.44,2.058,7.257,6.337,7.257c4.17,0,6.391-2.546,6.391-7.151v-16.681h4.929v16.575
			C270.263,557.597,265.876,561.603,258.888,561.603z"/>
		<path fill="#6D6E70" d="M278.117,561.062v-27.461h4.929v27.461H278.117z"/>
		<path fill="#6D6E70" d="M298.539,561.44c-3.25,0-6.608-0.864-9.425-2.057l0.704-4.391c2.6,1.354,6.122,2.44,8.938,2.44
			c3.14,0,5.361-1.41,5.361-3.738c0-2.274-1.463-3.142-5.416-4.496c-5.741-2.002-8.667-3.791-8.667-8.071
			c0-4.711,3.9-7.906,9.209-7.906c3.143,0,5.903,0.705,7.963,1.626l-0.705,4.495c-2.493-1.301-4.931-2.059-7.422-2.059
			c-2.708,0-4.549,1.463-4.549,3.251c0,2.112,1.516,2.871,5.795,4.33c5.741,2.007,8.288,3.957,8.288,8.235
			C308.614,558.191,304.552,561.44,298.539,561.44z"/>
		<path fill="#6D6E70" d="M334.939,550.554h-3.467v10.509h-4.878v-27.461h8.939c5.957,0,9.805,3.086,9.805,8.394
			C345.339,547.684,341.219,550.554,334.939,550.554z M335.045,537.718h-3.572v8.773h3.467c3.519,0,5.632-1.302,5.632-4.388
			C340.571,539.234,338.567,537.718,335.045,537.718z"/>
		<path fill="#6D6E70" d="M362.29,561.603c-7.095,0-13.217-5.36-13.217-14.243c0-8.937,6.175-14.301,13.217-14.301
			c7.096,0,13.161,5.308,13.161,14.244C375.451,556.186,369.333,561.603,362.29,561.603z M362.29,537.23
			c-5.197,0-8.23,4.331-8.23,10.072c0,5.579,3.195,10.184,8.23,10.184c5.146,0,8.178-4.439,8.178-10.127
			C370.468,541.724,367.273,537.23,362.29,537.23z"/>
		<path fill="#6D6E70" d="M391.976,537.933v23.13h-4.928v-23.13h-8.61v-4.331h21.882l0.648,4.331H391.976z"/>
		<path fill="#6D6E70" d="M417.221,561.603c-7.095,0-13.217-5.36-13.217-14.243c0-8.937,6.175-14.301,13.217-14.301
			c7.096,0,13.161,5.308,13.161,14.244C430.383,556.186,424.264,561.603,417.221,561.603z M417.221,537.23
			c-5.201,0-8.233,4.331-8.233,10.072c0,5.579,3.194,10.184,8.233,10.184c5.146,0,8.179-4.439,8.179-10.127
			C425.4,541.724,422.205,537.23,417.221,537.23z"/>
		<path fill="#6D6E70" d="M444.143,561.44c-3.252,0-6.609-0.864-9.427-2.057l0.705-4.391c2.599,1.354,6.122,2.44,8.937,2.44
			c3.142,0,5.364-1.41,5.364-3.738c0-2.274-1.464-3.142-5.417-4.496c-5.741-2.002-8.668-3.791-8.668-8.071
			c0-4.711,3.899-7.906,9.211-7.906c3.139,0,5.903,0.705,7.959,1.626l-0.701,4.495c-2.494-1.301-4.931-2.059-7.424-2.059
			c-2.708,0-4.549,1.463-4.549,3.251c0,2.112,1.516,2.871,5.798,4.33c5.74,2.007,8.287,3.957,8.287,8.235
			C454.219,558.191,450.155,561.44,444.143,561.44z"/>
		<path fill="#6D6E70" d="M460.499,561.062v-27.461h4.931v27.461H460.499z"/>
	</g>
	<g>
		<g>
			<g>
				<path fill="#6D6E70" d="M331.62,301.231c0-12.1-8.272-21.792-23.331-26.472v-27.531h27.898v67.437h-8.721
					C330.534,310.345,331.62,305.444,331.62,301.231 M293.125,218.636c-50.573,0-87.823,32.139-87.823,66.483
					c0,17.746,10.004,32.69,22.591,43.051l0.956-0.65c-9.983-8.249-18.997-21.187-18.997-38.904
					c2.638-37.573,48.986-58.754,90.172-58.754c29.16,0,81.518,6.737,81.518,55.462c0,25.424-27.172,58.489-84.211,58.489
					c-29.214,0-51.907-15.642-51.907-38.118c0-19.468,15.238-33.325,37.969-33.325c6.267,0,12.135,1.463,16.61,2.68
					c-9.479-1.707-24.195,0.729-31.812,6.709v32.907h27.933v-37.409c5.272,0.95,9.353,2.923,12.166,4.678v22.326v10.405h7.278
					c-5.723,6.416-16.377,10.322-25.602,8.885v1.376c26.54,2.088,37.772-10.497,37.772-24.656c0-16.657-15.637-26.439-31.615-28.442
					v-24.601H268.19v24.893c-18.073,3.639-35.769,14.379-35.769,32.165c0,27.381,38.276,44.343,71.573,44.343
					c50.608,0,89.555-24.465,89.555-58.786C393.549,248.292,337.323,218.636,293.125,218.636"/>
				<path fill="#6D6E70" d="M381.072,341.768c0-3.439,2.782-6.233,6.267-6.233c3.445,0,6.228,2.793,6.228,6.233
					c0,3.471-2.782,6.26-6.228,6.26C383.854,348.028,381.072,345.238,381.072,341.768 M392.467,341.768
					c0-2.826-2.293-5.134-5.128-5.134c-2.854,0-5.167,2.308-5.167,5.134c0,2.855,2.313,5.164,5.167,5.164
					C390.174,346.931,392.467,344.623,392.467,341.768 M386.002,342.179v3.173h-1.139v-7.342h2.37c1.351,0,2.739,0.367,2.739,2.027
					c0,0.846-0.524,1.514-1.498,1.711v0.033c1.015,0.199,1.14,0.647,1.244,1.44c0.109,0.702,0.181,1.469,0.435,2.13h-1.46
					c-0.074-0.414-0.201-0.88-0.254-1.31c-0.071-0.631-0.071-1.215-0.417-1.564c-0.271-0.299-0.648-0.262-1.047-0.299H386.002z
					 M387.212,341.037c1.083-0.039,1.337-0.482,1.337-1.049c0-0.548-0.254-0.831-1.175-0.831h-1.372v1.88H387.212z"/>
			</g>
			<g>
				<path fill="#6D6E70" d="M171.434,389.041v97.01l7.525,1.002v5.685h-37.286v-5.685l8.025-1.002v-44.14h-47.651v44.14l7.356,1.002
					v5.685H72.788v-5.685l7.356-1.002v-97.01l-7.356-1.005v-5.521h36.616v5.521l-7.356,1.005v41.495h47.651v-41.495l-8.025-1.005
					v-5.521h37.286v5.521L171.434,389.041z"/>
				<path fill="#6D6E70" d="M220.889,486.721l7.021,1.002v5.015h-34.277v-5.015l7.025-1.002v-66.392l-7.025-1.005v-5.022h27.256
					V486.721z M223.396,389.541c0,7.361-5.015,12.884-11.874,12.884c-7.021,0-11.867-5.018-11.867-12.379
					c0-7.03,4.846-12.551,11.867-12.551C218.382,377.495,223.396,383.016,223.396,389.541z"/>
				<path fill="#6D6E70" d="M242.799,487.723l6.855-1.002V385.19l-6.855-1.004v-5.018h27.252v107.553l7.021,1.002v5.015h-34.273
					V487.723z"/>
				<path fill="#6D6E70" d="M318.718,414.302h18.39v7.364h-18.39v46.661c0,12.039,2.507,15.887,13.375,15.887
					c4.014,0,7.522,0,10.869-0.839v5.354c-9.864,3.508-18.229,5.015-25.249,5.015c-15.715,0-19.396-7.191-19.396-20.902v-51.175
					h-14.378v-7.364h14.882v-16.394l19.896-6.023V414.302z"/>
				<path fill="#6D6E70" d="M428.856,454.281c0,24.414-16.381,40.798-42.132,40.798c-24.91,0-40.797-10.699-40.797-40.798
					c0-25.252,16.388-42.151,42.134-42.151C413.476,412.13,428.856,427.354,428.856,454.281z M406.452,453.781
					c0-24.752-7.353-35.632-19.227-35.632c-11.535,0-18.891,10.379-18.891,35.632c0,24.914,7.355,35.278,18.891,35.278
					C399.599,489.06,406.452,479.195,406.452,453.781z"/>
				<path fill="#6D6E70" d="M523.919,487.723v5.015h-34.277v-5.015l6.855-1.002v-44.644c0-12.378-4.514-17.9-13.876-17.9
					c-4.345,0-11.204,3.011-16.219,6.523v56.021l7.021,1.002v5.015H438.98v-5.015l7.024-1.002V420.83l-7.024-1.005v-5.523h27.422
					v10.88c8.526-6.863,16.72-12.382,28.254-12.382c15.383,0,22.241,9.035,22.241,26.771v47.15L523.919,487.723z"/>
			</g>
		</g>
	</g>
</g>
</svg>
