<?xml version="1.0" encoding="utf-8"?>
<!-- Generator: Adobe Illustrator 16.0.0, SVG Export Plug-In . SVG Version: 6.00 Build 0)  -->
<!DOCTYPE svg PUBLIC "-//W3C//DTD SVG 1.1//EN" "http://www.w3.org/Graphics/SVG/1.1/DTD/svg11.dtd">
<svg version="1.1" id="Layer_1" xmlns="http://www.w3.org/2000/svg" xmlns:xlink="http://www.w3.org/1999/xlink" x="0px" y="0px"
	 width="135px" height="135px" viewBox="328.5 238.5 135 135" enable-background="new 328.5 238.5 135 135" xml:space="preserve">
<g id="XMLID_2142_">
	<g id="XMLID_2115_">
		<path id="XMLID_2140_" fill="#6D6E70" d="M355.899,267.305h3.224v9.357h4.718v-9.357h3.224v23.864h-3.224v-11.833h-4.718v11.833
			h-3.224V267.305z"/>
		<path id="XMLID_2137_" fill="#6D6E70" d="M385.857,279.846c0,4.207-0.472,7.195-1.415,9.003c-0.944,1.769-2.516,2.674-4.718,2.674
			c-2.32,0-3.971-0.944-4.915-2.87c-0.904-1.888-1.376-5.229-1.376-9.986c0-4.246,0.472-7.273,1.376-9.003
			c0.943-1.769,2.516-2.673,4.757-2.673c2.005,0,3.499,0.668,4.442,2.044c0.629,0.905,1.101,2.241,1.376,3.932
			C385.7,274.539,385.857,276.818,385.857,279.846z M382.476,280.161c0-4.128-0.197-6.88-0.55-8.217
			c-0.354-1.376-1.14-2.044-2.28-2.044s-1.887,0.629-2.28,1.887c-0.354,1.258-0.55,3.774-0.55,7.587c0,3.499,0.196,5.937,0.59,7.273
			c0.393,1.298,1.14,1.927,2.241,1.927s1.809-0.59,2.241-1.809C382.279,285.547,382.476,283.384,382.476,280.161z"/>
		<path id="XMLID_2135_" fill="#6D6E70" d="M393.052,267.305h10.458v2.831h-3.617v21.073h-3.146v-21.073h-3.695V267.305
			L393.052,267.305z"/>
		<path id="XMLID_2133_" fill="#6D6E70" d="M410.939,267.305h8.57v2.713h-5.347v7.548h4.718v2.713h-4.718v8.138h5.347v2.713h-8.57
			V267.305z"/>
		<path id="XMLID_2131_" fill="#6D6E70" d="M428.119,267.305h3.225v21.151h5.268v2.712h-8.492V267.305L428.119,267.305z"/>
		<path id="XMLID_2129_" fill="#6D6E70" d="M337.5,305.321h8.57v2.713h-5.347v7.549h4.718v2.713h-4.718v8.138h5.347v2.713h-8.57
			V305.321L337.5,305.321z"/>
		<path id="XMLID_2127_" fill="#6D6E70" d="M363.291,305.794v3.145c-0.983-0.707-1.848-1.062-2.634-1.062
			c-0.865,0-1.533,0.314-2.083,0.904c-0.55,0.55-0.786,1.337-0.786,2.28c0,0.825,0.196,1.533,0.589,2.162
			c0.196,0.314,0.511,0.747,0.983,1.219c0.433,0.511,1.022,1.101,1.73,1.809c1.297,1.337,2.202,2.477,2.673,3.46
			c0.472,0.943,0.708,2.083,0.708,3.459c0,1.849-0.511,3.381-1.572,4.561c-1.022,1.18-2.359,1.729-4.01,1.729
			c-1.376,0-2.555-0.393-3.499-1.14v-3.145c1.14,0.825,2.202,1.258,3.106,1.258c0.865,0,1.572-0.275,2.044-0.865
			c0.511-0.59,0.747-1.376,0.747-2.358c0-0.865-0.196-1.651-0.589-2.32c-0.197-0.314-0.472-0.708-0.826-1.141
			c-0.354-0.432-0.787-0.903-1.298-1.415c-0.825-0.786-1.494-1.533-2.044-2.122c-0.55-0.629-0.943-1.18-1.18-1.612
			c-0.511-0.904-0.747-2.044-0.747-3.421c0-1.848,0.472-3.342,1.455-4.442s2.28-1.651,3.932-1.651
			C361.167,304.968,362.268,305.243,363.291,305.794z"/>
		<path id="XMLID_2125_" fill="#6D6E70" d="M373.512,305.321h8.57v2.713h-5.386v7.549h4.718v2.713h-4.718v8.138h5.347v2.713h-8.531
			V305.321z"/>
		<path id="XMLID_2123_" fill="#6D6E70" d="M391.322,305.321h2.988l3.185,9.515c0.943,2.673,1.729,5.583,2.477,8.61
			c-0.275-1.849-0.433-3.5-0.59-4.994c-0.118-1.493-0.196-2.909-0.196-4.206v-8.925h3.224v23.864h-3.027l-3.538-10.732
			c-0.314-0.983-0.629-2.044-0.943-3.066c-0.275-1.062-0.55-2.163-0.826-3.303c-0.04-0.157-0.04-0.314-0.118-0.511
			c-0.079-0.197-0.118-0.434-0.157-0.708c0.04,0.275,0.04,0.511,0.079,0.708c0.04,0.196,0.04,0.354,0.04,0.472l0.157,2.438
			l0.196,2.948c0,0.157,0,0.354,0.04,0.59c0,0.236,0,0.511,0,0.786l0.157,10.418h-3.185v-23.903H391.322z"/>
		<path id="XMLID_2121_" fill="#6D6E70" d="M421.829,305.715v2.909c-0.825-0.393-1.533-0.59-2.083-0.59
			c-0.747,0-1.416,0.197-1.966,0.551c-0.551,0.393-0.982,0.943-1.337,1.729c-0.354,0.786-0.629,1.77-0.786,2.988
			s-0.236,2.634-0.236,4.245c0,5.898,1.494,8.847,4.521,8.847c0.512,0,1.18-0.157,1.887-0.512v2.948
			c-0.786,0.433-1.65,0.669-2.594,0.669c-4.837,0-7.274-3.932-7.274-11.834c0-4.285,0.59-7.431,1.77-9.514
			c1.18-2.084,2.988-3.105,5.426-3.105C420.061,304.968,420.965,305.243,421.829,305.715z"/>
		<path id="XMLID_2119_" fill="#6D6E70" d="M430.872,305.321h3.224v23.864h-3.224V305.321z"/>
		<path id="XMLID_2116_" fill="#6D6E70" d="M447.502,305.321h2.517l5.11,23.864h-3.185l-0.904-4.639h-4.718l-0.904,4.639h-3.105
			L447.502,305.321z M450.607,322.03l-0.707-3.813c-0.472-2.595-0.865-5.347-1.18-8.296c-0.157,1.416-0.314,2.87-0.551,4.364
			c-0.235,1.455-0.511,3.027-0.786,4.679l-0.59,3.066H450.607L450.607,322.03z"/>
	</g>
	<g id="XMLID_2087_">
		<path id="XMLID_2113_" fill="#6D6E70" d="M343.594,343.496h1.769l-0.04,0.157c-0.236,0.039-0.472,0.118-0.668,0.236
			c-0.197,0.117-0.433,0.354-0.747,0.668l-1.376,1.375l0.393,1.416c0.04,0.118,0.118,0.354,0.196,0.629
			c0.079,0.197,0.118,0.314,0.197,0.394c0.079,0.078,0.157,0.117,0.236,0.157c0.079,0.039,0.236,0.078,0.433,0.078l-0.04,0.157
			h-2.044l0.04-0.157c0.196,0,0.354-0.039,0.472-0.118c0.079-0.039,0.118-0.117,0.118-0.196c0-0.078-0.04-0.236-0.118-0.472
			l-0.354-1.337l-1.219,1.258c-0.236,0.236-0.394,0.394-0.432,0.473c-0.04,0.039-0.04,0.078-0.04,0.117
			c0,0.079,0.04,0.157,0.118,0.197c0.039,0.039,0.157,0.039,0.314,0.078l-0.04,0.157h-1.729l0.039-0.157
			c0.236-0.039,0.394-0.078,0.55-0.157c0.197-0.118,0.472-0.354,0.826-0.708l1.533-1.532l-0.432-1.494
			c-0.118-0.472-0.236-0.747-0.314-0.865c-0.079-0.118-0.275-0.157-0.511-0.196l0.04-0.157h1.887l-0.039,0.157
			c-0.157,0-0.275,0-0.354,0.039c-0.079,0.04-0.118,0.04-0.157,0.118c-0.039,0.039-0.039,0.079-0.039,0.157s0.039,0.196,0.079,0.433
			l0.354,1.297l0.826-0.825c0.315-0.314,0.551-0.59,0.668-0.786c0.04-0.079,0.079-0.118,0.079-0.196
			c0-0.079-0.039-0.118-0.079-0.157c-0.079-0.04-0.196-0.079-0.393-0.079V343.496L343.594,343.496z"/>
		<path id="XMLID_2110_" fill="#6D6E70" d="M349.57,343.496h2.083c0.55,0,0.943,0.118,1.219,0.354
			c0.275,0.236,0.393,0.512,0.393,0.865c0,0.275-0.079,0.511-0.236,0.786c-0.157,0.236-0.433,0.472-0.747,0.59
			s-0.708,0.236-1.101,0.236c-0.236,0-0.551-0.039-0.944-0.118l-0.432,1.415c-0.079,0.354-0.158,0.551-0.158,0.668
			c0,0.079,0.04,0.158,0.118,0.197s0.236,0.079,0.511,0.118l-0.04,0.157h-2.083l0.04-0.157c0.275,0,0.472-0.039,0.59-0.157
			c0.118-0.079,0.236-0.354,0.354-0.786l0.865-2.988c0.118-0.354,0.157-0.59,0.157-0.708c0-0.078-0.04-0.157-0.118-0.235
			s-0.236-0.078-0.472-0.118V343.496L349.57,343.496z M350.277,345.934c0.275,0.079,0.511,0.118,0.708,0.118
			c0.275,0,0.55-0.039,0.787-0.157c0.236-0.118,0.393-0.275,0.55-0.511c0.118-0.236,0.197-0.473,0.197-0.708
			c0-0.275-0.079-0.472-0.236-0.629s-0.393-0.236-0.708-0.236c-0.157,0-0.393,0.039-0.629,0.079L350.277,345.934z"/>
		<path id="XMLID_2108_" fill="#6D6E70" d="M358.14,343.496h2.202l-0.039,0.157c-0.236,0-0.394,0.039-0.472,0.079
			c-0.079,0.039-0.197,0.117-0.236,0.196c-0.079,0.078-0.157,0.274-0.197,0.511l-0.55,1.849c-0.079,0.313-0.157,0.55-0.157,0.668
			c-0.039,0.157-0.039,0.314-0.039,0.472c0,0.314,0.118,0.59,0.354,0.786c0.236,0.196,0.55,0.314,0.944,0.314
			c0.236,0,0.471-0.04,0.668-0.157c0.197-0.079,0.354-0.236,0.511-0.394s0.275-0.393,0.393-0.707
			c0.118-0.314,0.236-0.59,0.314-0.904l0.472-1.612c0.118-0.393,0.157-0.668,0.157-0.786c0-0.078-0.04-0.157-0.118-0.235
			c-0.079-0.079-0.236-0.079-0.472-0.118l0.04-0.157h1.651l-0.04,0.157c-0.196,0-0.354,0-0.433,0.039s-0.157,0.118-0.236,0.196
			c-0.079,0.079-0.118,0.276-0.236,0.551l-0.55,1.927c-0.197,0.629-0.354,1.101-0.511,1.415s-0.393,0.55-0.708,0.747
			c-0.314,0.196-0.708,0.314-1.14,0.314c-0.511,0-0.943-0.157-1.258-0.433c-0.314-0.314-0.472-0.629-0.472-1.022
			c0-0.157,0-0.314,0.04-0.472c0.039-0.118,0.079-0.314,0.157-0.589l0.511-1.77c0.079-0.275,0.118-0.433,0.118-0.551
			c0-0.078-0.039-0.157-0.118-0.235c-0.079-0.04-0.275-0.079-0.55-0.118V343.496L358.14,343.496z"/>
		<path id="XMLID_2106_" fill="#6D6E70" d="M369.148,346.759l-0.157,0.512h-2.005l0.158-0.512H369.148z"/>
		<path id="XMLID_2104_" fill="#6D6E70" d="M375.321,345.815h2.438l0.393-1.297c0.079-0.236,0.118-0.433,0.118-0.59
			c0-0.079,0-0.118-0.04-0.157s-0.079-0.079-0.157-0.118s-0.196-0.039-0.393-0.039l0.039-0.157h2.124l-0.04,0.157
			c-0.197,0-0.314,0-0.393,0.039c-0.118,0.039-0.197,0.118-0.275,0.196c-0.079,0.118-0.158,0.314-0.275,0.629l-0.944,3.185
			c-0.079,0.275-0.118,0.433-0.118,0.551c0,0.078,0.039,0.157,0.118,0.235c0.079,0.04,0.236,0.079,0.472,0.118l-0.04,0.157h-2.044
			l0.04-0.157c0.197,0,0.354-0.039,0.393-0.039c0.118-0.04,0.197-0.118,0.236-0.196c0.079-0.118,0.157-0.314,0.236-0.669
			l0.472-1.612h-2.398l-0.472,1.612c-0.079,0.275-0.118,0.433-0.118,0.551c0,0.078,0.04,0.157,0.118,0.235
			c0.079,0.039,0.236,0.079,0.472,0.118l-0.04,0.157h-2.083l0.039-0.157c0.197,0,0.354-0.039,0.394-0.039
			c0.118-0.04,0.196-0.118,0.236-0.197c0.079-0.117,0.157-0.314,0.236-0.668l0.943-3.185c0.079-0.275,0.118-0.472,0.118-0.59
			c0-0.078,0-0.118-0.039-0.157c-0.04-0.04-0.079-0.079-0.158-0.118s-0.196-0.039-0.393-0.039l0.04-0.157h2.083l-0.039,0.157
			c-0.157,0-0.314,0-0.394,0.039c-0.118,0.039-0.196,0.118-0.275,0.197c-0.079,0.117-0.157,0.314-0.236,0.628L375.321,345.815z"/>
		<path id="XMLID_2101_" fill="#6D6E70" d="M387.154,343.378l-0.393,4.363c-0.04,0.197-0.04,0.354-0.04,0.394
			c0,0.118,0,0.197,0.04,0.236c0.039,0.078,0.118,0.117,0.196,0.157c0.079,0.039,0.236,0.039,0.433,0.039l-0.04,0.157h-2.083
			l0.04-0.157h0.079c0.157,0,0.314-0.039,0.393-0.118c0.079-0.039,0.118-0.118,0.157-0.235c0.04-0.079,0.04-0.275,0.079-0.551
			l0.079-0.669h-1.494l-0.55,0.708c-0.118,0.157-0.196,0.275-0.236,0.354c-0.039,0.078-0.039,0.118-0.039,0.196
			c0,0.079,0.039,0.157,0.118,0.196c0.079,0.04,0.197,0.079,0.315,0.079l-0.04,0.157h-1.533l0.039-0.157
			c0.197,0,0.354-0.079,0.511-0.196c0.157-0.118,0.354-0.394,0.668-0.787l3.145-4.245h0.158L387.154,343.378L387.154,343.378z
			 M386.368,344.636l-1.533,2.084h1.336L386.368,344.636z"/>
		<path id="XMLID_2099_" fill="#6D6E70" d="M404.138,343.496l0.472,4.206l3.027-4.206h1.298v0.157c-0.275,0-0.433,0.039-0.472,0.039
			c-0.079,0.04-0.157,0.118-0.236,0.197c-0.078,0.117-0.157,0.275-0.235,0.59l-0.983,3.342c-0.039,0.196-0.078,0.354-0.078,0.471
			c0,0.119,0.039,0.158,0.118,0.236c0.078,0.079,0.235,0.118,0.472,0.118h0.078l-0.039,0.157h-2.202l0.04-0.157h0.118
			c0.196,0,0.354-0.039,0.433-0.078c0.078-0.04,0.157-0.118,0.196-0.236c0.078-0.118,0.157-0.354,0.275-0.747l0.865-3.027
			l-3.067,4.246h-0.156l-0.473-4.364l-0.943,3.264c-0.078,0.275-0.118,0.472-0.118,0.55c0,0.079,0.04,0.158,0.118,0.236
			c0.079,0.04,0.236,0.079,0.511,0.118l-0.039,0.157h-1.77l0.04-0.157h0.117c0.236,0,0.433-0.078,0.551-0.196
			c0.079-0.079,0.157-0.275,0.275-0.59l1.14-3.893c-0.078-0.079-0.156-0.157-0.235-0.196c-0.079-0.04-0.236-0.04-0.433-0.078
			l0.04-0.157L404.138,343.496L404.138,343.496z"/>
		<path id="XMLID_2097_" fill="#6D6E70" d="M414.753,343.771l-0.59,2.083h0.472c0.354,0,0.59-0.039,0.747-0.156
			c0.157-0.118,0.275-0.314,0.394-0.591h0.157l-0.551,1.888h-0.157c0.04-0.157,0.079-0.314,0.079-0.394
			c0-0.118-0.04-0.196-0.079-0.275c-0.039-0.078-0.118-0.118-0.196-0.157c-0.079-0.039-0.236-0.039-0.511-0.039h-0.512l-0.511,1.729
			c-0.04,0.158-0.079,0.315-0.079,0.394c0,0.079,0.039,0.118,0.079,0.196c0.039,0.04,0.157,0.04,0.314,0.04h0.472
			c0.511,0,0.904-0.079,1.219-0.275s0.59-0.472,0.825-0.943h0.157l-0.511,1.454h-4.05l0.039-0.157c0.197,0,0.354-0.039,0.394-0.039
			c0.118-0.04,0.196-0.118,0.235-0.197c0.079-0.117,0.158-0.314,0.236-0.668l0.904-3.146c0.078-0.235,0.118-0.433,0.118-0.59
			c0-0.078-0.04-0.157-0.118-0.235c-0.078-0.04-0.196-0.079-0.394-0.079h-0.078l0.039-0.157h3.774l-0.314,1.259h-0.157
			c0-0.118,0.039-0.236,0.039-0.315c0-0.117-0.039-0.235-0.118-0.354c-0.078-0.118-0.196-0.196-0.393-0.275
			c-0.118-0.039-0.393-0.078-0.865-0.078h-0.511V343.771L414.753,343.771z"/>
		<path id="XMLID_2095_" fill="#6D6E70" d="M425.053,343.496h1.77l-0.039,0.157c-0.236,0.039-0.472,0.118-0.669,0.236
			c-0.196,0.117-0.432,0.354-0.746,0.668l-1.376,1.375l0.394,1.416c0.038,0.118,0.117,0.354,0.196,0.629
			c0.078,0.197,0.117,0.314,0.196,0.394c0.078,0.078,0.157,0.117,0.235,0.157c0.079,0.039,0.236,0.078,0.433,0.078l-0.039,0.157
			h-2.045l0.04-0.157c0.196,0,0.354-0.039,0.472-0.118c0.079-0.039,0.118-0.117,0.118-0.196c0-0.078-0.039-0.236-0.118-0.472
			l-0.354-1.337l-1.219,1.258c-0.236,0.236-0.394,0.394-0.433,0.473c-0.04,0.039-0.04,0.078-0.04,0.117
			c0,0.079,0.04,0.157,0.118,0.197c0.04,0.039,0.157,0.039,0.314,0.078l-0.039,0.157h-1.729l0.039-0.157
			c0.236-0.039,0.394-0.078,0.55-0.157c0.197-0.118,0.472-0.354,0.826-0.708l1.533-1.532l-0.433-1.494
			c-0.118-0.472-0.235-0.747-0.314-0.865s-0.275-0.157-0.511-0.196l0.039-0.157h1.887l-0.039,0.157c-0.157,0-0.275,0-0.354,0.039
			c-0.079,0.04-0.118,0.04-0.157,0.118c-0.04,0.039-0.04,0.079-0.04,0.157s0.04,0.196,0.079,0.433l0.354,1.297l0.826-0.825
			c0.314-0.314,0.55-0.59,0.668-0.786c0.039-0.079,0.078-0.118,0.078-0.196c0-0.079-0.039-0.118-0.078-0.157
			c-0.079-0.04-0.197-0.079-0.394-0.079V343.496L425.053,343.496z"/>
		<path id="XMLID_2093_" fill="#6D6E70" d="M431.737,348.567l-0.04,0.157h-2.162l0.039-0.157c0.236,0,0.354-0.039,0.433-0.039
			c0.118-0.04,0.197-0.118,0.236-0.196c0.078-0.118,0.157-0.354,0.275-0.669l0.904-3.145c0.078-0.275,0.117-0.473,0.117-0.59
			c0-0.079,0-0.118-0.039-0.157c-0.039-0.04-0.078-0.079-0.157-0.118c-0.078-0.04-0.196-0.04-0.393-0.04l0.039-0.157h2.044
			l-0.039,0.157c-0.157,0-0.275,0-0.354,0.04c-0.117,0.039-0.196,0.118-0.274,0.235c-0.079,0.079-0.157,0.314-0.236,0.629
			l-0.904,3.146c-0.078,0.275-0.118,0.472-0.118,0.551c0,0.078,0,0.117,0.04,0.157c0.039,0.039,0.078,0.078,0.157,0.117
			C431.344,348.528,431.501,348.567,431.737,348.567z"/>
		<path id="XMLID_2091_" fill="#6D6E70" d="M441.919,343.378l-0.393,1.69h-0.157v-0.433c0-0.157-0.039-0.275-0.079-0.433
			c-0.039-0.118-0.118-0.235-0.196-0.313c-0.079-0.079-0.196-0.157-0.354-0.197c-0.157-0.039-0.314-0.078-0.473-0.078
			c-0.471,0-0.864,0.118-1.219,0.393c-0.432,0.314-0.786,0.786-1.021,1.376c-0.197,0.472-0.314,0.982-0.314,1.454
			c0,0.512,0.157,0.904,0.433,1.219c0.314,0.315,0.668,0.473,1.14,0.473c0.354,0,0.668-0.079,0.944-0.236
			c0.274-0.157,0.55-0.394,0.786-0.747h0.196c-0.275,0.433-0.59,0.786-0.943,0.983c-0.354,0.196-0.747,0.314-1.258,0.314
			c-0.433,0-0.826-0.079-1.141-0.276c-0.314-0.196-0.59-0.432-0.747-0.746c-0.157-0.315-0.275-0.669-0.275-1.062
			c0-0.59,0.157-1.141,0.472-1.651c0.314-0.512,0.708-0.982,1.259-1.259c0.55-0.313,1.062-0.471,1.611-0.471
			c0.236,0,0.551,0.078,0.865,0.196c0.157,0.039,0.236,0.078,0.314,0.078c0.079,0,0.118,0,0.157-0.039s0.118-0.118,0.236-0.235
			H441.919L441.919,343.378z"/>
		<path id="XMLID_2088_" fill="#6D6E70" d="M449.507,343.378c0.354,0,0.668,0.079,0.904,0.236s0.472,0.393,0.629,0.668
			c0.157,0.314,0.236,0.59,0.236,0.904c0,0.55-0.157,1.14-0.472,1.77c-0.315,0.628-0.748,1.101-1.298,1.415
			c-0.511,0.314-1.062,0.472-1.651,0.472c-0.393,0-0.746-0.079-1.022-0.275c-0.274-0.196-0.471-0.433-0.589-0.707
			c-0.118-0.276-0.197-0.59-0.197-0.866c0-0.471,0.118-0.982,0.354-1.453c0.236-0.473,0.512-0.866,0.826-1.181
			s0.668-0.55,1.062-0.746C448.682,343.457,449.074,343.378,449.507,343.378z M449.39,343.614c-0.275,0-0.512,0.078-0.748,0.196
			c-0.235,0.118-0.472,0.354-0.746,0.629c-0.275,0.275-0.472,0.668-0.669,1.141c-0.235,0.589-0.354,1.14-0.354,1.65
			c0,0.354,0.078,0.708,0.275,0.983c0.196,0.275,0.472,0.433,0.865,0.433c0.235,0,0.472-0.04,0.707-0.157
			c0.235-0.118,0.472-0.314,0.708-0.59c0.313-0.354,0.55-0.786,0.786-1.337c0.196-0.551,0.314-1.062,0.314-1.533
			c0-0.354-0.079-0.668-0.275-0.943C450.057,343.811,449.742,343.614,449.39,343.614z"/>
	</g>
</g>
</svg>
