<?xml version="1.0" encoding="utf-8"?>
<!-- Generator: Adobe Illustrator 16.0.0, SVG Export Plug-In . SVG Version: 6.00 Build 0)  -->
<!DOCTYPE svg PUBLIC "-//W3C//DTD SVG 1.1//EN" "http://www.w3.org/Graphics/SVG/1.1/DTD/svg11.dtd">
<svg version="1.1" id="Layer_1" xmlns="http://www.w3.org/2000/svg" xmlns:xlink="http://www.w3.org/1999/xlink" x="0px" y="0px"
	 width="792px" height="612px" viewBox="0 0 792 612" enable-background="new 0 0 792 612" xml:space="preserve">
<g id="XMLID_2142_">
	<g id="XMLID_2115_">
		<path id="XMLID_2140_" fill="#6D6E70" d="M205.381,126.401h15.29v44.376h22.374v-44.376h15.289v113.178h-15.289v-56.123h-22.374
			v56.123h-15.29V126.401z"/>
		<path id="XMLID_2137_" fill="#6D6E70" d="M347.459,185.879c0,19.951-2.238,34.122-6.712,42.698
			c-4.475,8.39-11.933,12.679-22.375,12.679c-11,0-18.832-4.475-23.307-13.61c-4.289-8.951-6.526-24.799-6.526-47.36
			c0-20.137,2.237-34.494,6.526-42.697c4.475-8.391,11.933-12.679,22.561-12.679c9.509,0,16.594,3.17,21.069,9.696
			c2.983,4.289,5.221,10.628,6.525,18.645C346.713,160.708,347.459,171.522,347.459,185.879z M331.425,187.372
			c0-19.578-0.933-32.63-2.611-38.969c-1.678-6.526-5.407-9.695-10.814-9.695c-5.407,0-8.95,2.983-10.814,8.95
			c-1.678,5.966-2.61,17.899-2.61,35.985c0,16.595,0.932,28.155,2.797,34.494c1.864,6.154,5.407,9.137,10.627,9.137
			c5.221,0,8.577-2.797,10.628-8.578C330.492,212.916,331.425,202.661,331.425,187.372z"/>
		<path id="XMLID_2135_" fill="#6D6E70" d="M381.581,126.401h49.597v13.425h-17.154v99.938h-14.916v-99.938h-17.527V126.401z"/>
		<path id="XMLID_2133_" fill="#6D6E70" d="M466.417,126.401h40.647v12.866h-25.358v35.799h22.375v12.865h-22.375v38.596h25.358
			v12.865h-40.647V126.401z"/>
		<path id="XMLID_2131_" fill="#6D6E70" d="M547.897,126.401h15.289v100.312h24.985v12.865h-40.274V126.401L547.897,126.401z"/>
		<path id="XMLID_2129_" fill="#6D6E70" d="M118.121,306.702h40.646v12.865H133.41v35.799h22.375v12.866H133.41v38.595h25.357
			v12.866h-40.646V306.702L118.121,306.702z"/>
		<path id="XMLID_2127_" fill="#6D6E70" d="M240.435,308.939v14.916c-4.662-3.356-8.764-5.033-12.493-5.033
			c-4.102,0-7.271,1.491-9.882,4.288c-2.61,2.609-3.729,6.339-3.729,10.814c0,3.915,0.932,7.271,2.796,10.255
			c0.932,1.491,2.424,3.543,4.662,5.779c2.051,2.424,4.848,5.221,8.204,8.577c6.153,6.34,10.442,11.747,12.679,16.408
			c2.238,4.475,3.356,9.882,3.356,16.407c0,8.764-2.424,16.035-7.458,21.629c-4.848,5.595-11.188,8.204-19.018,8.204
			c-6.526,0-12.12-1.864-16.595-5.406v-14.917c5.407,3.916,10.441,5.966,14.73,5.966c4.102,0,7.458-1.305,9.695-4.102
			c2.424-2.796,3.543-6.526,3.543-11.187c0-4.102-0.933-7.831-2.797-11.002c-0.932-1.491-2.238-3.355-3.916-5.407
			c-1.678-2.05-3.729-4.287-6.153-6.712c-3.916-3.729-7.085-7.271-9.695-10.068c-2.61-2.983-4.475-5.594-5.594-7.645
			c-2.424-4.288-3.542-9.695-3.542-16.222c0-8.764,2.237-15.849,6.899-21.068c4.661-5.221,10.814-7.832,18.646-7.832
			C230.366,305.024,235.587,306.329,240.435,308.939z"/>
		<path id="XMLID_2125_" fill="#6D6E70" d="M288.913,306.702h40.646v12.865h-25.544v35.799h22.375v12.866h-22.375v38.595h25.358
			v12.866h-40.46V306.702z"/>
		<path id="XMLID_2123_" fill="#6D6E70" d="M373.376,306.702h14.17l15.103,45.122c4.476,12.679,8.204,26.477,11.747,40.834
			c-1.306-8.765-2.052-16.595-2.797-23.681c-0.56-7.085-0.932-13.798-0.932-19.95v-42.325h15.289V419.88H411.6l-16.781-50.902
			c-1.491-4.661-2.983-9.695-4.475-14.543c-1.306-5.034-2.61-10.255-3.916-15.662c-0.187-0.745-0.187-1.492-0.56-2.424
			c-0.373-0.933-0.56-2.052-0.746-3.356c0.187,1.305,0.187,2.424,0.373,3.356c0.187,0.932,0.187,1.679,0.187,2.237l0.746,11.56
			l0.932,13.984c0,0.746,0,1.679,0.186,2.798c0,1.118,0,2.423,0,3.728l0.746,49.41H373.19V306.702H373.376z"/>
		<path id="XMLID_2121_" fill="#6D6E70" d="M518.064,308.566v13.798c-3.915-1.865-7.271-2.797-9.882-2.797
			c-3.543,0-6.712,0.932-9.323,2.61c-2.61,1.864-4.66,4.476-6.338,8.204c-1.679,3.729-2.984,8.391-3.729,14.171
			c-0.746,5.779-1.119,12.492-1.119,20.136c0,27.97,7.086,41.953,21.442,41.953c2.424,0,5.594-0.745,8.949-2.424v13.983
			c-3.729,2.051-7.831,3.17-12.305,3.17c-22.935,0-34.495-18.646-34.495-56.122c0-20.324,2.797-35.24,8.391-45.122
			c5.595-9.883,14.171-14.729,25.73-14.729C509.675,305.024,513.963,306.329,518.064,308.566z"/>
		<path id="XMLID_2119_" fill="#6D6E70" d="M560.949,306.702h15.29V419.88h-15.29V306.702z"/>
		<path id="XMLID_2116_" fill="#6D6E70" d="M639.819,306.702h11.934l24.238,113.178h-15.103l-4.288-22.002h-22.374l-4.289,22.002
			h-14.729L639.819,306.702z M654.549,385.944l-3.355-18.086c-2.237-12.306-4.103-25.357-5.593-39.342
			c-0.747,6.713-1.493,13.611-2.611,20.697c-1.119,6.898-2.424,14.356-3.729,22.188l-2.797,14.543H654.549L654.549,385.944z"/>
	</g>
	<g id="XMLID_2087_">
		<path id="XMLID_2113_" fill="#6D6E70" d="M147.021,487.749h8.39l-0.187,0.746c-1.119,0.186-2.237,0.56-3.169,1.119
			c-0.933,0.559-2.051,1.678-3.542,3.169l-6.526,6.525l1.865,6.713c0.187,0.559,0.56,1.678,0.932,2.983
			c0.373,0.933,0.56,1.491,0.932,1.864c0.374,0.373,0.746,0.56,1.119,0.746c0.373,0.187,1.119,0.373,2.051,0.373l-0.187,0.745
			h-9.696l0.187-0.745c0.932,0,1.678-0.187,2.237-0.56c0.373-0.187,0.559-0.56,0.559-0.933c0-0.372-0.187-1.118-0.559-2.237
			l-1.678-6.34l-5.781,5.967c-1.118,1.119-1.865,1.864-2.05,2.238c-0.187,0.186-0.187,0.373-0.187,0.56
			c0,0.373,0.187,0.745,0.56,0.932c0.186,0.187,0.746,0.187,1.492,0.373l-0.187,0.746h-8.204l0.187-0.746
			c1.119-0.187,1.865-0.373,2.61-0.746c0.932-0.559,2.237-1.678,3.915-3.356l7.272-7.271l-2.051-7.085
			c-0.559-2.237-1.119-3.543-1.491-4.102c-0.374-0.56-1.306-0.747-2.424-0.933l0.187-0.745h8.95l-0.187,0.745
			c-0.746,0-1.305,0-1.678,0.186c-0.373,0.188-0.559,0.188-0.746,0.56c-0.186,0.188-0.186,0.374-0.186,0.746
			c0,0.373,0.186,0.933,0.373,2.051l1.678,6.153l3.916-3.915c1.492-1.492,2.611-2.797,3.17-3.729
			c0.187-0.373,0.373-0.56,0.373-0.932c0-0.374-0.186-0.56-0.373-0.746c-0.373-0.188-0.932-0.373-1.864-0.373V487.749z"/>
		<path id="XMLID_2110_" fill="#6D6E70" d="M175.362,487.749h9.882c2.61,0,4.475,0.56,5.78,1.678s1.864,2.425,1.864,4.103
			c0,1.306-0.373,2.423-1.119,3.729c-0.746,1.119-2.051,2.238-3.542,2.797c-1.492,0.56-3.356,1.119-5.221,1.119
			c-1.119,0-2.611-0.187-4.475-0.56l-2.051,6.712c-0.373,1.679-0.746,2.611-0.746,3.17c0,0.373,0.186,0.746,0.559,0.933
			s1.119,0.373,2.424,0.56l-0.186,0.745h-9.882l0.187-0.745c1.305,0,2.238-0.187,2.797-0.746c0.56-0.373,1.119-1.678,1.678-3.729
			l4.103-14.172c0.559-1.678,0.746-2.797,0.746-3.355c0-0.372-0.187-0.746-0.56-1.118c-0.373-0.373-1.119-0.373-2.237-0.56V487.749z
			 M178.718,499.309c1.306,0.374,2.424,0.56,3.356,0.56c1.305,0,2.61-0.186,3.729-0.745c1.119-0.56,1.865-1.306,2.61-2.424
			c0.559-1.119,0.933-2.238,0.933-3.357c0-1.305-0.374-2.237-1.119-2.982c-0.746-0.745-1.865-1.119-3.356-1.119
			c-0.746,0-1.864,0.187-2.983,0.374L178.718,499.309z"/>
		<path id="XMLID_2108_" fill="#6D6E70" d="M216.009,487.749h10.441l-0.186,0.746c-1.119,0-1.865,0.186-2.238,0.373
			c-0.373,0.187-0.933,0.559-1.119,0.932c-0.373,0.373-0.746,1.305-0.933,2.424l-2.61,8.764c-0.373,1.491-0.746,2.61-0.746,3.17
			c-0.186,0.745-0.186,1.492-0.186,2.237c0,1.491,0.559,2.796,1.678,3.729c1.119,0.932,2.61,1.491,4.475,1.491
			c1.119,0,2.237-0.187,3.169-0.746c0.932-0.373,1.678-1.119,2.424-1.864c0.746-0.746,1.305-1.865,1.864-3.355
			c0.56-1.492,1.119-2.797,1.492-4.29l2.237-7.644c0.559-1.864,0.746-3.171,0.746-3.729c0-0.372-0.187-0.746-0.56-1.118
			c-0.373-0.373-1.119-0.373-2.237-0.56l0.186-0.746h7.832l-0.187,0.746c-0.932,0-1.678,0-2.051,0.187
			c-0.373,0.186-0.746,0.56-1.119,0.933c-0.373,0.372-0.56,1.305-1.119,2.609l-2.61,9.137c-0.932,2.983-1.678,5.221-2.424,6.712
			c-0.745,1.492-1.865,2.61-3.356,3.543c-1.492,0.933-3.356,1.492-5.407,1.492c-2.424,0-4.475-0.747-5.967-2.052
			c-1.491-1.491-2.237-2.983-2.237-4.848c0-0.746,0-1.491,0.187-2.238c0.186-0.559,0.373-1.49,0.746-2.796l2.424-8.391
			c0.373-1.305,0.559-2.052,0.559-2.61c0-0.372-0.186-0.746-0.559-1.118c-0.373-0.188-1.305-0.373-2.61-0.56V487.749z"/>
		<path id="XMLID_2106_" fill="#6D6E70" d="M268.216,503.225l-0.746,2.425h-9.509l0.746-2.425H268.216z"/>
		<path id="XMLID_2104_" fill="#6D6E70" d="M297.49,498.75h11.56l1.865-6.153c0.373-1.118,0.559-2.052,0.559-2.797
			c0-0.373,0-0.56-0.186-0.745c-0.187-0.187-0.373-0.374-0.746-0.56c-0.373-0.187-0.932-0.187-1.864-0.187l0.186-0.746h10.069
			l-0.187,0.746c-0.932,0-1.491,0-1.864,0.187c-0.56,0.186-0.932,0.56-1.305,0.932c-0.373,0.56-0.746,1.492-1.306,2.983
			l-4.475,15.104c-0.374,1.305-0.56,2.051-0.56,2.61c0,0.372,0.186,0.745,0.56,1.118c0.373,0.187,1.119,0.373,2.237,0.56
			l-0.187,0.745h-9.696l0.187-0.745c0.932,0,1.678-0.187,1.864-0.187c0.56-0.187,0.932-0.56,1.119-0.932
			c0.373-0.56,0.745-1.493,1.118-3.17l2.238-7.646h-11.374l-2.237,7.646c-0.373,1.305-0.559,2.051-0.559,2.61
			c0,0.372,0.186,0.745,0.559,1.118c0.373,0.187,1.119,0.373,2.237,0.56l-0.187,0.745h-9.882l0.187-0.745
			c0.932,0,1.678-0.187,1.864-0.187c0.56-0.187,0.932-0.56,1.119-0.932c0.373-0.56,0.746-1.493,1.119-3.17l4.475-15.104
			c0.373-1.306,0.56-2.237,0.56-2.796c0-0.374,0-0.56-0.187-0.746c-0.187-0.188-0.373-0.373-0.746-0.56
			c-0.373-0.188-0.932-0.188-1.864-0.188l0.187-0.745h9.882l-0.186,0.745c-0.746,0-1.492,0-1.865,0.188
			c-0.56,0.187-0.932,0.56-1.305,0.932c-0.373,0.56-0.746,1.492-1.119,2.983L297.49,498.75z"/>
		<path id="XMLID_2101_" fill="#6D6E70" d="M353.612,487.189l-1.865,20.696c-0.186,0.933-0.186,1.679-0.186,1.864
			c0,0.56,0,0.934,0.186,1.119c0.187,0.373,0.56,0.56,0.932,0.746c0.374,0.187,1.119,0.187,2.051,0.187l-0.186,0.745h-9.882
			l0.187-0.745h0.373c0.746,0,1.492-0.187,1.865-0.56c0.373-0.187,0.56-0.559,0.746-1.118c0.187-0.374,0.187-1.306,0.373-2.61
			l0.374-3.171h-7.086l-2.61,3.356c-0.559,0.746-0.932,1.306-1.118,1.679c-0.187,0.372-0.187,0.56-0.187,0.932
			c0,0.374,0.187,0.746,0.56,0.933s0.932,0.373,1.492,0.373l-0.187,0.746h-7.272l0.187-0.746c0.932,0,1.678-0.373,2.424-0.932
			c0.746-0.56,1.678-1.865,3.169-3.729l14.917-20.138h0.746V487.189z M349.883,493.156l-7.271,9.882h6.339L349.883,493.156z"/>
		<path id="XMLID_2099_" fill="#6D6E70" d="M434.16,487.749l2.237,19.95l14.356-19.95h6.155v0.746c-1.307,0-2.052,0.186-2.238,0.186
			c-0.373,0.188-0.746,0.56-1.119,0.934c-0.373,0.559-0.745,1.305-1.118,2.796l-4.662,15.849c-0.187,0.932-0.373,1.679-0.373,2.237
			c0,0.56,0.187,0.746,0.561,1.119c0.372,0.373,1.119,0.559,2.236,0.559h0.373l-0.186,0.747H439.94l0.188-0.747h0.559
			c0.932,0,1.679-0.186,2.051-0.372c0.373-0.187,0.746-0.56,0.933-1.118c0.372-0.56,0.746-1.679,1.306-3.544l4.103-14.356
			l-14.545,20.138h-0.745l-2.238-20.697l-4.475,15.476c-0.373,1.306-0.56,2.238-0.56,2.61c0,0.374,0.187,0.746,0.56,1.119
			c0.373,0.187,1.119,0.373,2.424,0.56l-0.186,0.745h-8.392l0.187-0.745h0.56c1.119,0,2.051-0.373,2.609-0.933
			c0.375-0.372,0.747-1.306,1.307-2.797l5.406-18.459c-0.372-0.373-0.745-0.745-1.117-0.932c-0.374-0.188-1.119-0.188-2.052-0.373
			l0.187-0.746H434.16z"/>
		<path id="XMLID_2097_" fill="#6D6E70" d="M484.504,489.055l-2.798,9.881h2.238c1.677,0,2.796-0.186,3.542-0.745
			s1.306-1.491,1.865-2.797h0.745l-2.61,8.949h-0.746c0.188-0.745,0.374-1.491,0.374-1.864c0-0.56-0.187-0.932-0.374-1.306
			c-0.186-0.372-0.56-0.56-0.932-0.745c-0.373-0.186-1.118-0.186-2.424-0.186h-2.424l-2.424,8.202
			c-0.188,0.746-0.373,1.493-0.373,1.865c0,0.374,0.186,0.56,0.373,0.933c0.187,0.187,0.746,0.187,1.491,0.187h2.237
			c2.425,0,4.289-0.373,5.78-1.306s2.797-2.237,3.916-4.475h0.745l-2.424,6.898h-19.205l0.187-0.745
			c0.933,0,1.678-0.187,1.865-0.187c0.56-0.187,0.932-0.56,1.118-0.932c0.373-0.56,0.746-1.493,1.119-3.17l4.287-14.917
			c0.374-1.118,0.56-2.052,0.56-2.797c0-0.373-0.186-0.745-0.56-1.119c-0.371-0.187-0.931-0.372-1.864-0.372h-0.372l0.187-0.746
			h17.899l-1.492,5.967h-0.745c0-0.56,0.186-1.119,0.186-1.492c0-0.559-0.186-1.118-0.559-1.678
			c-0.372-0.56-0.932-0.933-1.865-1.305c-0.559-0.187-1.863-0.374-4.101-0.374h-2.424V489.055z"/>
		<path id="XMLID_2095_" fill="#6D6E70" d="M533.354,487.749h8.39l-0.186,0.746c-1.119,0.186-2.237,0.56-3.171,1.119
			c-0.931,0.559-2.05,1.678-3.542,3.169l-6.526,6.525l1.866,6.713c0.186,0.559,0.559,1.678,0.931,2.983
			c0.374,0.933,0.56,1.491,0.934,1.864c0.372,0.373,0.745,0.56,1.118,0.746s1.118,0.373,2.051,0.373l-0.187,0.745h-9.696
			l0.188-0.745c0.932,0,1.678-0.187,2.236-0.56c0.374-0.187,0.56-0.56,0.56-0.933c0-0.372-0.186-1.118-0.56-2.237l-1.677-6.34
			l-5.78,5.967c-1.119,1.119-1.865,1.864-2.051,2.238c-0.188,0.186-0.188,0.373-0.188,0.56c0,0.373,0.188,0.745,0.56,0.932
			c0.188,0.187,0.746,0.187,1.492,0.373l-0.187,0.746h-8.204l0.187-0.746c1.119-0.187,1.864-0.373,2.609-0.746
			c0.934-0.559,2.237-1.678,3.916-3.356l7.272-7.271l-2.051-7.085c-0.56-2.237-1.119-3.543-1.492-4.102
			c-0.373-0.56-1.305-0.747-2.424-0.933l0.187-0.745h8.949l-0.187,0.745c-0.745,0-1.304,0-1.678,0.186
			c-0.373,0.188-0.56,0.188-0.745,0.56c-0.187,0.188-0.187,0.374-0.187,0.746c0,0.373,0.187,0.933,0.372,2.051l1.679,6.153
			l3.916-3.915c1.491-1.492,2.609-2.797,3.169-3.729c0.187-0.373,0.373-0.56,0.373-0.932c0-0.374-0.187-0.56-0.373-0.746
			c-0.373-0.188-0.933-0.373-1.864-0.373V487.749z"/>
		<path id="XMLID_2093_" fill="#6D6E70" d="M565.052,511.802l-0.188,0.745H554.61l0.187-0.745c1.118,0,1.678-0.187,2.051-0.187
			c0.56-0.187,0.932-0.56,1.119-0.932c0.372-0.56,0.745-1.679,1.305-3.17l4.288-14.917c0.373-1.305,0.56-2.237,0.56-2.797
			c0-0.373,0-0.56-0.187-0.745c-0.187-0.187-0.373-0.374-0.746-0.56c-0.373-0.187-0.932-0.187-1.864-0.187l0.187-0.746h9.696
			l-0.188,0.746c-0.745,0-1.305,0-1.678,0.187c-0.56,0.186-0.932,0.56-1.305,1.119c-0.373,0.372-0.746,1.49-1.119,2.982
			l-4.289,14.917c-0.372,1.305-0.559,2.236-0.559,2.61c0,0.372,0,0.56,0.187,0.745c0.187,0.187,0.372,0.373,0.745,0.56
			C563.187,511.615,563.933,511.802,565.052,511.802z"/>
		<path id="XMLID_2091_" fill="#6D6E70" d="M613.343,487.189l-1.864,8.018h-0.745v-2.051c0-0.746-0.188-1.305-0.374-2.052
			c-0.186-0.56-0.559-1.118-0.933-1.49c-0.372-0.374-0.931-0.746-1.678-0.934c-0.746-0.186-1.491-0.372-2.237-0.372
			c-2.237,0-4.102,0.56-5.78,1.864c-2.051,1.491-3.729,3.729-4.848,6.526c-0.932,2.236-1.491,4.66-1.491,6.898
			c0,2.424,0.746,4.288,2.051,5.78c1.492,1.491,3.17,2.237,5.407,2.237c1.679,0,3.17-0.373,4.476-1.119
			c1.305-0.746,2.61-1.864,3.729-3.542h0.932c-1.305,2.051-2.796,3.729-4.475,4.661c-1.678,0.932-3.542,1.491-5.966,1.491
			c-2.052,0-3.917-0.373-5.407-1.305c-1.492-0.933-2.798-2.052-3.543-3.543c-0.746-1.491-1.306-3.17-1.306-5.034
			c0-2.797,0.746-5.407,2.238-7.831c1.491-2.424,3.355-4.661,5.966-5.967c2.611-1.491,5.035-2.237,7.645-2.237
			c1.119,0,2.61,0.373,4.103,0.932c0.745,0.188,1.118,0.373,1.492,0.373c0.372,0,0.559,0,0.745-0.186
			c0.186-0.188,0.56-0.56,1.119-1.119H613.343L613.343,487.189z"/>
		<path id="XMLID_2088_" fill="#6D6E70" d="M649.329,487.189c1.678,0,3.169,0.373,4.288,1.119s2.237,1.864,2.983,3.17
			c0.746,1.491,1.118,2.797,1.118,4.288c0,2.609-0.745,5.406-2.237,8.391c-1.491,2.982-3.543,5.221-6.152,6.712
			c-2.424,1.492-5.035,2.237-7.831,2.237c-1.864,0-3.543-0.373-4.849-1.305c-1.305-0.933-2.237-2.052-2.797-3.356
			c-0.56-1.306-0.932-2.796-0.932-4.103c0-2.236,0.559-4.66,1.678-6.897c1.119-2.238,2.424-4.104,3.916-5.594
			c1.49-1.492,3.17-2.611,5.034-3.543C645.413,487.562,647.277,487.189,649.329,487.189z M648.77,488.309
			c-1.305,0-2.424,0.372-3.543,0.932s-2.237,1.679-3.542,2.983c-1.306,1.306-2.238,3.17-3.17,5.407
			c-1.119,2.797-1.678,5.407-1.678,7.831c0,1.678,0.373,3.356,1.305,4.662c0.933,1.305,2.237,2.05,4.103,2.05
			c1.118,0,2.237-0.186,3.356-0.745c1.117-0.56,2.236-1.491,3.355-2.797c1.491-1.678,2.61-3.729,3.729-6.339
			c0.933-2.61,1.492-5.035,1.492-7.271c0-1.68-0.374-3.17-1.305-4.477C651.938,489.24,650.447,488.309,648.77,488.309z"/>
	</g>
</g>
</svg>
